# Blender v2.76 (sub 0) OBJ File: 'untitled.blend'
# www.blender.org
mtllib untitled.mtl
o TreeAndStone
v -21.911669 0.107156 -22.438751
v -11.412105 17.931135 10.156220
v -13.376556 23.099958 14.427557
v -9.189042 4.687704 -1.514214
v -18.154308 16.852293 -20.070744
v -14.400243 4.592347 -9.979141
v -13.904340 12.961505 8.638780
v -8.852253 6.985733 18.119219
v -13.845896 6.232901 -6.623804
v -13.335351 16.879229 7.767741
v 13.596710 6.797151 3.683639
v 10.582355 6.427411 -19.507374
v -5.925834 6.599669 21.334261
v -7.467671 7.498759 21.260374
v -14.513957 22.862255 4.540283
v -16.692099 22.874987 12.618410
v 8.907400 4.150515 -20.791042
v -16.882229 22.015360 18.067940
v -19.148483 18.776205 15.576856
v -22.489809 3.931445 -16.759445
v -10.487841 6.674594 17.898123
v -16.312637 15.167754 13.412204
v -10.566545 21.755806 10.120012
v -20.507666 21.274019 15.005529
v -20.385317 16.574451 -22.501730
v -15.303106 7.022720 -18.365232
v 9.477784 5.631972 -20.502201
v 22.395512 3.856376 3.281781
v 11.972441 5.211084 22.527206
v -16.821377 16.888195 -19.849125
v 10.465329 4.393338 19.262945
v -9.026046 5.775870 17.441639
v 10.486139 5.405333 -16.587894
v 4.933743 4.078189 -18.395475
v -21.061375 4.994632 -17.135201
v -18.684120 17.929413 15.593768
v -5.068496 4.026511 18.203285
v -16.144901 16.991421 13.083283
v -13.941550 8.909323 12.937813
v 8.448838 5.545208 -20.979370
v -14.397160 5.384665 -22.016422
v -19.708324 22.002621 16.849569
v -17.507093 18.685789 13.039010
v -11.535854 16.970572 10.332856
v -12.793441 14.255675 8.461787
v -19.907484 21.936251 13.652936
v -17.478155 17.141150 13.098487
v -13.796849 14.827173 -19.354769
v -10.459381 20.395462 5.543001
v -15.030970 14.996035 13.153265
v -12.952628 10.970219 11.929353
v 15.294659 7.869261 6.844267
v -19.409990 20.363214 18.013506
v -14.193546 13.924065 10.950209
v -16.244333 20.427343 8.288836
v -22.440878 3.910996 -22.496820
v 12.228354 6.169796 11.479000
v -11.690617 21.824514 13.886674
v -14.395384 14.836848 -17.726824
v -10.823376 4.986793 20.664400
v 16.262173 7.911793 19.246372
v -16.604134 15.738516 -19.106384
v -15.006655 23.592628 5.653196
v 12.625013 4.529387 14.736322
v -13.823627 21.706295 18.258463
v 18.421659 6.430537 3.746984
v -13.628917 10.243659 13.233608
v -9.379885 7.739456 19.795618
v -16.680010 14.275577 -17.964706
v -11.488776 18.587976 11.000768
v -17.302546 15.342927 15.525473
v -18.396580 18.733452 13.479236
v -12.160933 18.696987 8.823534
v -18.836386 16.645615 -20.435448
v -14.801060 10.844877 -21.176119
v -15.469526 20.348389 6.455441
v -15.750397 16.091881 15.170543
v -14.352523 4.833668 -1.561004
v -16.893467 16.712788 16.247782
v -14.474282 4.591287 11.944811
v -18.296713 22.829813 13.256658
v -22.321497 0.660111 22.385309
v -4.821066 7.237280 18.576134
v -13.056456 7.133210 -16.827425
v 11.367522 4.587381 -14.981264
v -12.787048 6.707859 -21.264912
v 9.457020 6.376175 13.019185
v 12.359847 6.903405 15.104554
v -13.819431 13.836337 -20.066101
v 12.573300 6.503007 -18.790916
v -13.270762 4.887578 -22.380701
v -18.352787 21.725729 12.835269
v 6.121084 4.121220 14.644029
v -14.986442 25.986555 8.001293
v -22.021412 7.903450 -21.310753
v -12.482881 6.507688 -8.192526
v -11.893269 4.606381 -10.424257
v 10.389349 5.702170 8.541880
v -16.309624 14.594334 12.476301
v 4.498541 1.580029 -14.935803
v 11.264721 4.802579 -16.437195
v -10.864475 19.030111 8.604726
v 1.003297 3.975678 0.090542
v 13.527174 5.882915 2.988798
v 16.718311 4.513092 6.530028
v 10.165962 6.812163 -16.694414
v 18.363285 5.662933 6.330527
v -7.085508 7.099061 18.175264
v -11.144160 5.874340 12.033064
v -13.213200 23.334091 13.717962
v -13.019114 12.078278 11.572385
v -15.536864 18.495846 8.569950
v -12.793406 22.729795 15.552879
v -16.504784 10.352946 -16.944954
v -20.408304 13.142262 -21.593466
v 16.010670 5.971840 18.352377
v 14.765326 4.583745 14.503579
v 14.682245 5.376630 22.065033
v -5.354000 1.982991 22.523470
v 11.852607 6.257142 18.502724
v -11.005437 4.251902 21.689611
v -14.914713 17.995792 9.264049
v 8.245612 4.489077 -14.483705
v 11.885664 4.307856 -17.420933
v -13.138553 19.169430 17.551327
v 12.041410 4.712133 -19.271648
v -13.597445 12.209296 -17.983458
v -13.608145 14.249572 -17.931101
v -16.520529 23.187788 14.271775
v -14.259092 12.351499 13.404408
v 13.703494 8.010429 6.761148
v -9.720178 6.772138 -7.997886
v -11.369720 6.925449 -6.661194
v 6.478711 6.168696 -18.933340
v -9.989071 4.900430 -3.566459
v -10.647497 4.509863 10.819555
v -18.592960 4.003243 11.349214
v -4.444344 4.066719 7.824151
v 11.264433 4.379026 3.377414
v -13.033610 4.131479 10.473533
v -0.443127 4.073913 13.860771
v -18.438221 4.015672 20.444614
v 11.669749 4.037498 18.395405
v 6.030796 1.527778 -14.592307
v -16.090433 13.983410 15.113390
v -15.917168 11.242233 -17.592947
v -16.073032 12.617027 -20.594757
v -13.353748 19.247295 6.603770
v -16.363274 21.047041 7.665761
v 6.250671 4.880185 10.633293
v -13.483291 7.386497 10.503837
v -12.325243 21.218714 13.221052
v -18.260426 20.865707 13.375896
v -6.235331 5.837888 18.279549
v 8.476261 5.246250 19.623573
v 4.498808 5.501080 -18.935369
v -18.038971 15.160263 -18.487265
v -15.426994 11.873704 -17.982161
v -18.074284 12.626891 -16.661198
v 7.038618 1.747436 -15.057856
v -14.255306 5.732687 -2.797199
v -13.768646 24.283667 9.499292
v -11.463658 19.772676 10.705663
v -13.544581 5.089337 12.653076
v -13.606221 20.888508 14.729031
v -14.315777 20.886377 15.080775
v -15.222348 15.196054 14.410411
v -9.434437 6.199957 20.425247
v 19.473330 3.073101 22.562756
v 15.753149 5.480665 11.345882
v 13.064092 6.258240 14.315255
v -7.557704 8.263967 18.720739
v -11.433020 4.218349 -19.928133
v -12.494568 19.415028 16.156723
v -14.121394 18.716181 13.379845
v -14.546196 9.811787 -18.965235
v -15.393095 11.137847 -19.171307
v -16.530754 11.643026 -20.955172
v -13.939961 16.013929 8.503407
v -15.298285 23.999146 6.542738
v -15.579412 19.793530 7.475134
v -22.360785 6.539286 -22.380501
v -9.550457 4.316482 -10.143847
v 11.395973 7.362739 19.938454
v -12.641184 15.928669 8.194092
v 8.031579 4.400366 3.486130
v -15.368225 16.927681 15.516134
v 7.700242 4.519633 22.459534
v 9.405978 5.929598 22.044489
v -19.355909 18.144787 16.679794
v -19.297449 19.099665 17.880928
v -17.824139 17.933826 -21.732393
v -16.619019 22.526836 15.503036
v -15.035328 20.404190 5.552065
v -15.429561 19.251640 6.955969
v 21.821917 3.956323 -22.455093
v -18.053900 17.114149 16.223291
v -14.242201 9.069088 -21.757689
v -14.164097 4.584378 21.484524
v -12.580256 13.606655 10.657669
v -10.614214 20.016764 6.357131
v -13.221375 21.311754 15.643681
v -15.364026 13.476024 -17.046160
v -14.957726 25.750864 9.413807
v -12.472937 15.942330 9.300720
v -19.852140 15.087498 -20.107641
v -15.906301 10.966228 13.548290
v 15.447559 7.116762 5.905093
v -12.425289 18.778522 7.862548
v 12.100035 7.654576 18.386578
v -10.438740 6.508019 19.248322
v -16.458618 16.416462 -20.939039
v -12.589376 5.321615 -2.326721
v -11.683721 4.596471 -22.484013
v -13.353368 20.036373 14.052726
v -12.942472 6.532943 -7.517274
v -13.464316 4.567396 -1.194998
v 14.233347 6.660146 7.371697
v -20.547400 8.120745 -20.284962
v -16.668468 7.400327 -17.805285
v -12.764843 22.562519 12.675355
v 11.019978 6.868177 21.356905
v -13.965490 20.203407 15.337084
v -19.675161 21.485804 17.866491
v -14.828917 23.455400 14.615348
v 10.486963 5.313367 -14.754392
v -21.840857 7.290386 -18.588121
v -9.608809 6.697720 -5.676805
v 5.422863 5.795313 -21.449732
v -16.468775 13.509092 13.170136
v -15.902770 12.048840 -19.550186
v -13.203860 6.998221 -17.865082
v -17.020252 16.386646 17.411730
v 13.721460 5.263906 8.067094
v -17.286335 13.640784 -21.928595
v -19.656336 9.182139 -16.463860
v -8.190502 6.432537 21.136929
v -14.438267 13.251906 9.841557
v -12.902868 7.432917 12.427814
v 5.184794 4.243834 -17.704012
v -13.091572 20.388769 5.739202
v 13.560568 6.600735 4.922895
v 9.601844 6.494461 15.275870
v -16.252319 14.109000 -19.967241
v -10.231904 22.014566 8.667538
v -20.277889 14.764634 -18.946020
v 12.096018 5.531842 15.542470
v -14.188850 4.112165 5.493207
v -15.348722 9.712994 11.810903
v -18.433117 3.958987 17.049212
v -12.619286 18.090298 6.621688
v -17.117884 16.168226 13.601566
v -12.949800 17.921963 16.684917
v 10.796044 4.113486 -16.789026
v -13.027563 22.039494 9.747856
v -12.606606 17.845346 7.637063
v -14.764136 17.945971 16.973303
v -14.180752 20.213663 14.522794
v -9.916147 18.238558 11.504287
v 16.412024 7.447906 20.194525
v 22.385736 3.631587 22.456774
v -11.033761 25.084146 7.935031
v -20.079144 16.558626 -20.610481
v -13.864430 9.021353 -20.496067
v 16.358541 6.195886 3.350985
v 13.600725 5.586218 9.354476
v 11.219360 5.078922 8.126052
v 16.479387 4.531777 8.043564
v 4.560083 4.097434 -20.762604
v 15.741158 3.966273 -4.891342
v 13.470926 3.966659 16.359472
v 10.285453 4.139504 16.352779
v 2.799904 3.954294 17.969299
v -14.495181 4.607064 20.091381
v -14.807352 18.342089 7.553507
v -14.083480 16.988283 16.269003
v -10.979385 16.242283 10.297186
v -13.825616 11.339958 14.184951
v -14.236037 6.775365 -21.791763
v 22.386833 0.247046 22.396070
v -16.815813 3.275365 -22.528625
v -16.827824 14.401605 -21.353031
v 4.853343 4.800298 -16.862051
v -10.860559 5.518897 -8.433148
v 13.880062 7.410042 5.573660
v -11.453456 22.894300 5.279747
v -15.126550 21.426661 12.478601
v -7.247380 4.885837 17.620903
v 15.578642 7.747393 18.089449
v -6.420341 7.700185 18.677408
v -20.521629 13.861453 -17.039623
v -13.363474 6.401422 -5.692618
v -13.615564 18.661497 10.493618
v 11.200461 6.529676 15.437409
v 9.801758 5.700318 15.878236
v 13.727873 7.857095 20.452623
v -6.986793 7.503160 20.467541
v 16.267403 6.511561 21.159044
v -6.246119 4.260270 21.534792
v -10.557537 16.452040 9.689940
v -11.769586 19.118570 7.241931
v -12.593192 17.014019 8.455459
v -12.351104 5.058583 12.523921
v -13.593943 12.142104 13.420294
v -13.774612 7.149366 -22.133743
v -14.393402 13.777304 13.107983
v 7.477451 4.121349 20.099344
v 6.184054 5.407316 -16.321819
v 5.699863 6.781206 -18.265329
v -13.282547 16.561687 6.729538
v -14.405526 6.489857 10.831388
v -17.317886 14.296301 14.162029
v -20.386591 20.394022 16.882803
v -20.687504 5.343330 -18.197578
v -22.423037 1.590979 -22.170647
v 7.827228 4.968016 10.508665
v -15.404029 24.747124 5.102351
v -13.816165 4.057978 12.938011
v -8.643867 5.155757 20.991663
v 6.723356 3.985686 7.872487
v -8.780519 4.257011 -8.599678
v -16.078751 14.028474 -17.364637
v 14.711336 6.994087 20.959757
v -5.400993 5.724368 20.741199
v -16.188850 14.883184 -18.623871
v -13.590054 11.594768 12.516627
v -12.401520 5.493178 18.981899
v -18.634909 22.340015 15.555653
v -12.614309 13.089745 9.187380
v 18.826044 3.967336 6.397081
v 14.380682 5.772711 21.664165
v -5.511915 7.552278 20.443773
v -16.055403 11.979902 -16.917852
v 16.394493 4.805656 21.407570
v -10.268738 20.189032 8.548720
v 10.401140 5.367701 -20.108782
v -18.381189 17.213598 13.778323
v 16.067352 4.651188 22.428383
v -8.913239 5.156802 -5.649374
v -20.584652 6.303041 -17.312241
v -15.570785 20.093130 8.894166
v -16.284430 17.598988 16.722099
v -15.468468 14.506958 14.789740
v -15.423462 23.998396 9.393853
v 5.554962 5.950187 10.582782
v -15.925531 12.303844 14.473586
v -10.139315 17.920874 10.538529
v -11.736482 24.982609 5.681925
v -1.823359 3.954075 -15.645036
v -15.215031 9.174543 12.968245
v -12.944020 13.649614 11.549945
v -12.033046 23.949257 3.803020
v -10.268685 18.011677 9.618440
v -14.430496 21.293875 10.403881
v 16.467628 5.685632 2.472544
v 15.174728 4.004545 -21.304611
v 7.498583 4.656475 6.353506
v -20.283535 7.203681 -17.537573
v 15.446407 4.966214 7.580480
v -11.781563 5.597876 -4.754809
v 8.115618 5.217972 9.546747
v -15.303033 20.965576 9.718512
v 4.716517 4.520469 -14.692710
v 9.374676 4.340183 14.732917
v 8.423439 5.983081 10.779209
v -17.336174 16.726873 15.102942
v 9.370234 1.425125 -15.065982
v -16.351313 6.947483 -16.896601
v -13.844800 21.764868 16.245741
v 11.424401 5.034795 16.161615
v -15.491031 22.051085 7.377594
v -12.378867 19.013721 10.205538
v -20.541649 9.063607 -19.326830
v -16.643188 14.835110 16.820169
v -16.184160 10.857989 -18.263140
v -11.231667 4.966508 12.462134
v -14.370805 20.801191 13.414954
v 7.943349 6.003561 -16.179867
v -22.039703 4.679865 -16.513304
v 7.544142 5.743245 20.648054
v -19.056864 14.158257 -18.029272
v -12.158637 24.138044 9.662051
v -14.460167 12.128689 12.571338
v -12.583794 17.169216 10.310554
v -18.464638 13.875461 -16.519045
v -14.292235 4.525153 17.597830
v -4.898270 4.208872 20.488035
v -13.715281 19.641130 18.437263
v 5.482948 5.241724 -17.393850
v -12.999027 20.804296 17.359312
v -11.463485 5.416059 -3.066485
v -17.532158 16.613710 -22.029390
v 10.661442 6.362513 18.829866
v -19.244810 17.547739 -20.627220
v -14.873068 19.684198 10.492890
v -14.601274 18.049212 10.443708
v 11.367406 6.794437 -17.541271
v -9.925220 23.805779 8.290878
v -13.810699 24.139442 6.091274
v -12.345395 22.210424 14.338608
v -18.956213 15.918650 -20.191362
v -16.229048 11.096114 -19.909491
v -14.686389 10.748643 -18.896616
v 13.969215 8.014792 19.060799
v 10.124867 7.078175 -18.443743
v 16.539249 7.026734 4.499493
v -9.659213 7.183835 19.225136
v 10.254438 6.173072 11.176504
v 13.511482 6.432548 13.128922
v -11.980248 4.993202 -16.717731
v 6.535451 5.468178 -14.865462
v -9.470399 4.807268 -8.784542
v -13.977810 5.001111 0.321227
v 16.302759 4.953646 10.725141
v 6.700721 4.252604 -21.543495
v -2.087936 4.008208 -12.262805
v 15.904170 4.035413 18.340710
v -11.864981 21.116089 4.210147
v -12.721475 19.581747 14.603315
v -17.874342 8.686945 -22.238634
v -16.596708 10.673936 -21.468687
v -14.298055 22.162064 3.645503
v -14.591554 21.520908 5.451329
v -14.228389 18.880005 7.058154
v -10.571988 19.084806 9.426203
v -12.872553 11.560876 9.672359
v -11.049429 5.285336 11.504514
v -16.102022 18.608948 12.722584
v -11.854548 20.216389 13.994637
v -19.265232 19.240469 13.729730
v 12.746515 5.801193 17.677778
v -11.780550 5.721189 17.601440
v -6.637697 4.768540 18.406069
v -18.112993 8.815066 -17.234772
v -10.462640 5.538103 -5.477077
v -11.145413 23.849243 10.386452
v -10.233763 19.906391 11.057151
v -14.359710 7.715912 12.485648
v -16.440683 14.760204 15.582287
v -17.821604 17.767864 16.614771
v -12.526698 5.497816 20.627926
v 16.472670 6.087142 13.861735
v 16.474115 4.268116 19.200346
v 16.756920 4.186930 13.472936
v 15.729584 5.841308 6.776542
v -4.551134 5.581030 19.472607
v -9.756180 19.615353 9.785016
v -12.516113 21.104790 15.172294
v -12.359585 4.697801 10.536467
v -13.582842 23.566942 12.602632
v -13.698380 12.115035 -20.289856
v -15.508739 15.931272 13.715711
v -16.203005 14.955215 -19.616463
v -16.531487 8.706455 -18.079081
v 13.935905 6.539676 11.659074
v 13.380375 5.209550 5.587856
v 5.208986 5.649873 -18.548420
v -13.325899 24.876810 6.090669
v -15.293825 23.350197 4.825006
v -18.741440 22.028627 14.594568
v -22.596336 6.019144 -20.455942
v -22.472618 4.652843 -18.582914
v -22.646322 0.177706 -1.996616
v -20.341444 8.739513 -17.393156
v -20.420155 14.044221 -18.499954
v -20.545816 10.877923 -19.377234
v -20.497572 14.536701 -21.936087
v -19.677320 19.872278 15.440513
v -19.501617 15.852124 -18.839983
v -19.444193 17.395193 -22.390686
v -19.558870 19.522894 17.121656
v -18.744665 18.810684 14.792819
v -17.371853 15.361924 16.558456
v -16.292206 23.784430 13.062527
v -15.966723 21.986843 8.182852
v -15.561590 24.592007 8.075563
v -14.582004 11.757599 11.432783
v -14.339664 10.169964 10.208608
v -14.184333 21.084482 4.088183
v -13.561307 17.700888 7.375910
v -9.694657 6.304408 19.735340
v -8.509678 8.328992 20.502058
v -8.518583 8.058486 18.604670
v 4.528582 5.572778 12.336122
v 8.542759 5.490416 8.730683
v 8.750601 5.508521 14.495381
v 10.293966 6.365398 20.258467
v 13.540146 4.587738 3.102710
v -13.824158 4.259552 0.349655
v -13.530872 6.962624 -19.728329
v -12.566799 15.872871 10.371126
v -10.830738 4.334362 12.407190
v -11.850204 6.424801 -5.496352
v -11.824281 22.471764 3.646446
v -11.493493 24.604950 4.736634
v -10.045409 24.136587 6.997940
v -10.646137 24.626862 5.664511
v -9.397136 5.314683 -7.032768
v 12.658772 6.403755 12.293410
v 18.483574 5.202453 3.010727
v 22.443039 0.677699 -22.504139
v -22.377180 3.898001 22.529766
v -7.780149 8.701427 21.168308
v 11.906083 6.139314 21.779572
v -15.820018 18.930933 17.708708
v -14.789431 13.802327 14.481405
v -13.001975 4.593116 13.408905
v -14.426296 15.350277 10.095109
v -12.291308 21.874516 10.504696
v -12.406516 23.049866 10.083306
v 6.217190 1.195241 -15.393712
v -16.571247 4.279797 -16.510052
v 6.032375 6.759280 -16.619091
v -14.008217 8.395074 -19.461720
v -11.990797 5.008058 17.652676
v 14.035754 7.836281 17.727842
v -19.847136 20.689938 13.576348
v -17.265818 15.027268 13.502705
v -16.227053 19.302837 13.413981
v -16.182304 12.631327 12.641423
v -15.043704 23.694138 12.677482
v -11.759155 16.761740 9.502528
v -13.717907 17.576653 8.461176
v -9.654238 22.116894 5.665409
v -14.023472 24.774521 4.848638
v 8.836920 6.290128 -19.529314
v -18.447939 11.231844 -21.512497
v -18.374525 13.373395 -22.354738
v -20.555639 8.564106 -22.360239
v 0.018629 0.076141 22.491871
v 3.873132 -0.017974 -7.600778
v -14.626121 8.936090 11.613722
v -16.633501 9.178065 -16.753393
v -12.758792 10.049412 10.281057
v -15.609238 11.077395 12.449354
v -17.132208 14.128711 17.080812
v -17.035524 14.231924 15.869471
v -14.512474 17.022163 14.120834
v -17.785780 18.139517 17.463428
v -13.372380 17.847706 14.812320
v -11.067827 19.862183 7.974288
v 3.108820 3.979889 19.113310
v 13.237696 4.006265 17.241259
v 3.157406 4.010208 17.030121
v 15.381494 4.056656 17.592888
v 16.147072 3.916106 16.412380
v -7.898611 3.934014 13.989069
v -6.228760 4.001173 12.963881
v 4.523650 4.203923 11.460037
v -1.912621 3.992226 10.890056
v 5.048307 4.042471 -2.571947
v -14.656533 4.287637 -6.333604
v -18.707230 3.964040 -13.218929
v -2.072014 3.986204 -17.583115
v 20.819786 4.114535 19.280327
v -11.435949 4.392006 13.188190
v 15.377509 5.340835 10.409827
v -8.619481 4.558335 -3.157943
v -12.778482 5.424645 -21.536556
v -11.103209 5.946637 20.320574
v 13.163611 5.891977 10.294410
v -13.970124 5.977613 -3.828824
v 11.585690 6.995274 13.144727
v 15.338324 6.964220 14.108189
v 16.255949 6.704273 11.634061
v 17.713184 6.768996 6.230431
v 8.320766 6.499026 -18.713997
v -4.620890 7.731651 19.865437
v -8.132146 9.007119 18.924982
v -15.361115 12.073808 12.162542
v -18.117266 16.106998 -19.123375
v -17.551811 17.392399 -20.778856
v -10.552634 24.375685 9.269656
v -12.356095 25.424318 9.287825
v -12.534300 25.409821 7.057938
v -13.862889 13.012556 14.037870
v 8.713531 5.744589 -14.611751
v 4.885714 5.869717 14.092105
v -14.141875 5.697333 -8.383347
v 14.403348 5.574477 10.497968
v 10.988806 4.073800 -19.915646
v 14.516029 3.931936 -11.566039
v -1.724783 3.974874 -22.023752
v -11.671233 4.090392 -16.369587
v 1.755458 3.947652 1.627235
v 18.065369 4.032539 2.534585
v -9.003789 4.115238 17.342085
v 0.981117 4.042410 21.709633
v -17.026031 5.709255 -22.576462
v -14.610836 24.089890 4.177703
v -14.272943 25.541397 6.633755
v -14.610936 17.320980 12.691182
v -13.997213 17.753996 13.530702
v -7.365817 4.415547 18.183622
v -16.033949 5.632761 -16.425484
v -14.529739 22.175659 9.572610
v 12.118017 4.196668 15.524249
v -12.497190 16.504189 6.940447
v -12.025848 4.992426 -19.385000
v -14.475428 7.221856 -19.085482
v -20.470936 9.576819 -21.324350
vt 0.005859 0.500000
vt 0.013672 0.500000
vt 0.033203 0.500000
vt 0.021484 0.500000
vn 0.117900 -0.932700 0.340900
vn 0.994100 0.082500 0.070800
vn 0.383800 0.922900 0.032800
vn -0.896400 0.382600 0.223700
vn 0.098800 0.994700 0.027900
vn 0.086300 0.944500 -0.317100
vn 0.368900 0.876900 0.308200
vn -0.015200 0.892800 0.450200
vn 0.015800 0.826400 0.562900
vn 0.040100 0.999200 0.003000
vn 0.033800 -0.912800 -0.407000
vn -0.819500 -0.566600 0.086600
vn 0.170500 -0.794100 -0.583400
vn 0.090400 0.190600 -0.977500
vn 0.278800 0.344600 -0.896400
vn -0.444200 -0.015100 -0.895800
vn 0.569100 0.036800 0.821400
vn 0.736100 0.522400 0.430500
vn 0.159800 -0.112600 0.980700
vn 0.064800 0.122900 0.990300
vn -0.077300 0.250000 0.965100
vn 0.596400 -0.233900 0.767800
vn 0.001800 -0.591600 0.806200
vn 0.934200 0.348700 0.075100
vn 0.979200 -0.098700 0.177000
vn 0.932000 0.318900 0.172200
vn -0.937200 0.241700 0.251600
vn -0.938900 0.158300 0.305600
vn -0.959300 -0.190800 0.208000
vn -0.918900 0.393900 0.020800
vn -0.996000 -0.044900 0.076600
vn -0.827300 0.337600 0.449100
vn -0.996500 0.056800 -0.062100
vn -0.939800 -0.028700 0.340400
vn -0.813600 -0.544900 -0.203000
vn -0.672600 0.701100 -0.236900
vn -0.896700 -0.439300 -0.053700
vn -0.900700 0.432600 -0.040300
vn -0.987800 -0.097900 0.120900
vn -0.999700 -0.023500 0.011000
vn -0.929900 -0.057900 0.363300
vn -0.916300 0.006500 0.400300
vn -0.972100 0.158300 0.173100
vn -0.984300 -0.127800 0.122000
vn -0.907500 0.055500 -0.416300
vn -0.960900 -0.095800 0.259700
vn -0.683700 0.186000 0.705700
vn -0.982800 0.007500 -0.184500
vn -0.962200 0.164000 0.217500
vn -0.891800 0.253400 0.374700
vn -0.960000 -0.236700 0.149600
vn -0.895500 0.337900 -0.289600
vn -0.895400 0.308100 0.321400
vn -0.871300 -0.125800 0.474300
vn -0.592000 0.033800 -0.805200
vn -0.951500 0.168700 0.257300
vn 0.825100 -0.564700 0.017700
vn 0.697000 -0.699800 0.156400
vn 0.887200 0.403200 -0.224200
vn 0.799400 -0.326100 0.504500
vn 0.773300 0.236000 0.588400
vn 0.996000 0.076100 -0.046700
vn 0.893600 0.448600 -0.015400
vn 0.997100 0.073500 -0.017600
vn 0.987100 -0.156500 0.032200
vn 0.994300 -0.064400 0.084700
vn 0.379700 0.227200 -0.896800
vn 0.810100 0.580700 -0.081400
vn 0.098100 0.766800 0.634300
vn 0.797600 0.603100 0.011000
vn 0.663200 -0.739500 0.115300
vn 0.850200 -0.450200 -0.272700
vn 0.748700 0.655600 0.098200
vn 0.642900 0.707500 -0.293300
vn 0.974700 -0.128400 0.183200
vn 0.976400 0.213000 -0.036300
vn 0.957200 0.286000 -0.044200
vn 0.394400 0.054000 0.917300
vn 0.883600 0.468100 -0.015400
vn 1.000000 0.000300 0.001300
vn -0.004700 -0.044600 0.999000
vn -0.003500 0.043000 0.999100
vn 0.432800 0.782500 0.447600
vn 0.512700 0.168100 0.842000
vn 0.169300 0.635600 0.753200
vn -0.059100 0.115900 0.991500
vn 0.028700 -0.360300 0.932400
vn 0.530800 -0.106300 0.840800
vn 0.677400 0.001100 0.735700
vn 0.692700 -0.332500 0.640000
vn 0.278600 0.091700 0.956000
vn 0.055200 0.080600 0.995200
vn -0.108500 -0.134300 0.985000
vn 0.086500 0.047600 0.995100
vn 0.212900 -0.065200 0.974900
vn 0.019800 0.107200 0.994000
vn -0.614000 0.161800 0.772500
vn -0.033200 0.558800 0.828600
vn 0.040800 0.113800 0.992700
vn -0.769200 0.506000 0.390300
vn 0.159500 -0.062300 0.985200
vn -0.155500 0.958200 0.240300
vn -0.133800 0.305500 0.942700
vn 0.078400 -0.090400 0.992800
vn 0.804100 -0.312300 0.505900
vn -0.251300 0.780100 0.573000
vn -0.033600 0.466100 0.884100
vn 0.503500 -0.013700 0.863900
vn -0.895200 0.179400 0.408000
vn 0.388900 -0.009300 0.921200
vn -0.466000 -0.022900 0.884500
vn 0.845600 0.129100 -0.517900
vn 0.409500 -0.740600 -0.532800
vn 0.149500 0.272100 -0.950600
vn -0.332800 0.233300 -0.913700
vn -0.063500 -0.476800 -0.876700
vn 0.107300 0.267600 -0.957500
vn 0.209700 0.608000 -0.765700
vn 0.009800 -0.011600 -0.999900
vn -0.354800 0.349100 -0.867300
vn 0.041700 0.085800 -0.995400
vn -0.305600 -0.033400 -0.951600
vn -0.746000 0.533800 -0.398100
vn -0.302800 0.255500 -0.918200
vn 0.028400 0.810200 -0.585400
vn 0.048500 -0.384700 -0.921800
vn -0.738300 0.391300 -0.549300
vn -0.267300 -0.449500 -0.852300
vn 0.210000 0.841100 -0.498400
vn 0.019100 0.280100 -0.959800
vn -0.018300 0.011500 -0.999800
vn -0.147300 -0.564100 0.812400
vn 0.063700 -0.997600 -0.028500
vn -0.346000 -0.755600 0.556200
vn -0.442900 -0.872900 -0.204500
vn 0.245200 -0.969200 -0.022800
vn -0.042000 0.902600 -0.428500
vn -0.152100 0.987300 -0.044800
vn 0.054200 0.998100 -0.030500
vn -0.014700 0.999500 0.028300
vn -0.070700 0.984300 0.161700
vn -0.031800 0.999400 -0.011700
vn 0.247400 0.967600 -0.049300
vn -0.013900 0.999900 0.008200
vn 0.007500 0.999900 -0.011700
vn -0.051100 0.996200 -0.070200
vn 0.019300 0.999800 0.008800
vn 0.034300 0.996400 0.077100
vn 0.077100 0.857900 0.507900
vn -0.296400 0.939900 -0.169400
vn 0.213700 0.959700 -0.182500
vn 0.304700 0.930300 -0.204300
vn 0.415200 0.903100 -0.109500
vn -0.005500 0.937800 -0.347100
vn 0.108800 0.951700 0.287100
vn 0.240400 0.970700 0.006900
vn -0.073300 0.920500 -0.383800
vn -0.453900 0.886900 0.085800
vn 0.641500 0.766200 0.038100
vn -0.279400 0.959100 0.045900
vn 0.156500 0.789500 -0.593500
vn -0.305700 0.951800 -0.025900
vn 0.409200 0.796500 -0.445100
vn -0.072100 0.987500 -0.140000
vn -0.437200 0.897200 -0.062800
vn 0.207900 0.951800 -0.225600
vn -0.434900 0.898300 0.062700
vn 0.235600 0.970800 0.044600
vn 0.183900 0.115800 0.976100
vn -0.129800 0.937700 -0.322400
vn 0.625000 0.765800 0.151300
vn 0.068400 0.974500 -0.213600
vn 0.086900 0.988000 -0.128000
vn -0.122100 0.985800 0.114900
vn 0.580100 0.814200 0.023900
vn 0.409500 0.879000 -0.244200
vn 0.780100 0.536600 -0.321900
vn -0.297200 0.953600 -0.048900
vn -0.314500 0.900200 0.301200
vn -0.227600 0.865400 0.446400
vn -0.034300 0.910900 0.411200
vn -0.060300 0.724600 -0.686600
vn 0.305200 0.942300 -0.137700
vn 0.078600 0.996800 -0.012800
vn -0.076400 0.996300 -0.039100
vn -0.085400 0.977000 0.195600
vn -0.058800 0.976800 0.206000
vn -0.051400 0.967000 -0.249700
vn -0.163200 0.975500 -0.147500
vn 0.144700 0.988300 0.049000
vn 0.008600 0.999900 0.008000
vn -0.110600 0.987400 0.113100
vn 0.059500 0.996600 -0.056800
vn 0.072500 0.993100 -0.092200
vn -0.060500 0.932900 0.355000
vn 0.008400 0.999700 -0.024600
vn 0.009800 0.996000 0.088500
vn 0.029800 -0.999500 -0.009500
vn -0.315300 -0.245400 -0.916700
vn -0.335100 -0.417200 -0.844800
vn -0.394400 -0.268900 -0.878700
vn -0.108600 0.099800 -0.989100
vn -0.565400 0.086200 -0.820300
vn 0.658700 -0.016900 0.752200
vn -0.072800 0.268300 0.960600
vn 0.536200 0.470400 0.700900
vn 0.966000 -0.066800 0.249700
vn 0.943300 0.205400 0.260700
vn -0.701700 0.117200 0.702800
vn -0.937300 -0.344700 -0.052100
vn -0.893400 -0.396400 0.211300
vn -0.954600 -0.208700 0.212400
vn -0.999900 -0.008600 -0.006500
vn -0.960900 0.273400 -0.043700
vn -0.506600 0.364800 0.781200
vn -1.000000 0.001700 0.004300
vn -0.998800 0.013900 -0.047700
vn -0.627000 0.778900 -0.013300
vn -0.910500 -0.018700 -0.413200
vn -0.957200 -0.113200 0.266500
vn -0.767800 -0.105600 0.631900
vn -0.789600 -0.441500 -0.426100
vn -0.968500 -0.229200 -0.096800
vn -0.983700 -0.139600 0.112900
vn -0.853100 -0.443700 0.274400
vn -0.913800 0.187200 0.360600
vn -0.979700 -0.111600 -0.166300
vn -0.920900 -0.078200 0.381900
vn -0.852400 0.240700 -0.464300
vn -0.911200 -0.145000 -0.385600
vn -0.728800 0.077600 -0.680300
vn -0.976300 -0.019000 -0.215700
vn -0.899700 0.239000 -0.365200
vn -0.478800 0.734500 -0.480900
vn -0.965900 -0.137100 0.219600
vn -0.838400 0.025600 0.544400
vn -0.995700 0.009700 0.092400
vn -0.992900 0.116200 -0.026000
vn 0.973000 -0.141500 0.182500
vn 0.916400 -0.178900 -0.358000
vn 0.720800 0.010300 -0.693100
vn 0.891800 0.441300 0.099400
vn 0.745500 -0.515500 0.422300
vn 0.863600 0.442800 0.241000
vn 0.949100 0.299700 0.096800
vn 0.999700 -0.020000 0.016400
vn 0.882000 0.466200 0.068300
vn 0.970900 -0.201200 0.129700
vn 0.999800 -0.008500 -0.020200
vn 0.988600 -0.007500 -0.150200
vn 0.954600 -0.119600 -0.272800
vn 0.789200 0.614000 -0.013700
vn 0.952400 0.161900 -0.258100
vn 0.970100 -0.186800 -0.154800
vn 0.969100 0.071500 0.236000
vn 0.836900 0.165000 0.522000
vn 0.733600 0.673200 0.092900
vn 0.980900 0.190300 -0.041000
vn 0.987900 -0.009800 -0.155000
vn 0.716900 -0.341700 -0.607700
vn 0.404600 0.447100 0.797800
vn 0.839700 0.006400 0.543000
vn 0.548500 0.816900 -0.178400
vn 0.818400 -0.041600 -0.573200
vn 0.964700 0.263200 -0.001600
vn 0.005800 -0.132700 0.991100
vn 0.004700 -0.054100 0.998500
vn 0.126700 0.608300 0.783500
vn 0.040800 0.490900 0.870300
vn -0.165900 0.370200 0.914000
vn -0.087800 -0.111700 0.989900
vn -0.669800 -0.481400 0.565400
vn 0.123600 -0.553400 0.823700
vn 0.265300 0.895800 0.356600
vn 0.100400 0.211300 0.972300
vn -0.020800 -0.211700 0.977100
vn -0.369400 0.264700 0.890800
vn 0.166300 0.205100 0.964500
vn -0.425200 -0.081300 0.901400
vn -0.060000 0.372200 0.926200
vn -0.295800 0.343700 0.891300
vn -0.503000 0.731600 0.460100
vn 0.095400 0.013200 0.995400
vn 0.336400 0.115500 0.934600
vn 0.125900 0.555000 0.822300
vn -0.183600 0.292400 0.938500
vn -0.275300 -0.180300 -0.944300
vn 0.302000 0.432400 -0.849600
vn 0.399400 0.195200 -0.895800
vn 0.015300 0.241900 -0.970200
vn -0.011200 0.031700 -0.999400
vn 0.233000 0.117400 -0.965400
vn -0.291900 -0.027700 -0.956100
vn -0.131100 0.054500 -0.989900
vn 0.179900 0.210700 -0.960900
vn 0.042000 -0.606300 -0.794100
vn 0.209200 0.796000 -0.568000
vn 0.051000 0.307300 -0.950300
vn -0.015700 -0.038800 -0.999100
vn -0.112200 -0.025400 -0.993400
vn -0.027500 0.239800 -0.970400
vn 0.076400 0.019800 -0.996900
vn -0.105500 -0.045300 -0.993400
vn 0.243600 -0.173000 -0.954300
vn 0.035300 0.603000 -0.796900
vn -0.047500 0.366000 -0.929400
vn -0.408100 0.384300 -0.828100
vn 0.118600 0.577300 -0.807900
vn 0.154800 0.138100 -0.978300
vn 0.402800 0.046500 -0.914100
vn 0.785200 -0.004800 -0.619200
vn -0.158500 0.443700 -0.882000
vn -0.007700 -0.103700 -0.994600
vn -0.029700 0.045100 -0.998500
vn 0.225600 0.173000 -0.958700
vn -0.105400 0.141500 -0.984300
vn -0.006900 -1.000000 0.002200
vn 0.012800 -0.999400 -0.030700
vn 0.045200 -0.937700 -0.344500
vn 0.000000 -0.902800 0.430000
vn 0.043000 -0.998300 0.038900
vn 0.044200 -0.909800 -0.412600
vn 0.113000 -0.992000 -0.055900
vn -0.202600 -0.893800 0.400000
vn 0.643300 -0.707700 0.291900
vn -0.249900 -0.180500 -0.951300
vn 0.108700 0.992900 -0.047700
vn -0.049000 0.983600 0.173700
vn 0.028800 0.998600 -0.044500
vn 0.059300 0.997900 -0.024800
vn -0.001400 0.972700 -0.232200
vn 0.005900 0.998700 0.049800
vn 0.011900 0.967800 -0.251400
vn -0.032000 0.988300 -0.149100
vn 0.012700 0.999800 0.014900
vn 0.033300 0.998700 0.038100
vn 0.133800 0.982800 -0.126900
vn 0.369300 0.928100 0.046800
vn 0.666000 0.376200 0.644100
vn 0.063200 0.932700 -0.355000
vn 0.321700 0.946400 -0.027300
vn 0.189700 0.944500 0.268200
vn 0.035800 0.818900 -0.572800
vn 0.601300 0.795500 0.075100
vn 0.580700 0.813100 -0.039800
vn -0.606900 0.785800 0.119000
vn -0.005300 0.972200 -0.234100
vn -0.018800 0.933000 -0.359400
vn -0.030800 0.862600 -0.504900
vn -0.312100 0.924900 0.217100
vn -0.387600 0.474200 0.790500
vn -0.143700 0.950600 -0.275100
vn -0.016800 0.998500 -0.051300
vn -0.260800 0.940800 -0.216600
vn -0.293900 0.955400 0.029500
vn -0.118700 0.981200 0.152100
vn 0.102300 0.798300 -0.593600
vn -0.269700 0.962300 -0.034400
vn -0.062600 0.926000 0.372200
vn -0.078600 0.974800 -0.208800
vn -0.041500 0.974200 0.221700
vn -0.139100 0.980600 -0.138300
vn 0.102100 0.893800 -0.436700
vn 0.008700 0.852700 -0.522400
vn 0.371900 0.749100 -0.548200
vn 0.205800 0.955400 0.211600
vn -0.399000 0.820800 0.408700
vn -0.097300 0.979700 -0.175300
vn 0.046500 0.931700 -0.360300
vn 0.225600 0.973900 -0.024400
vn 0.486500 0.832100 0.266300
vn 0.094200 0.980300 0.173400
vn 0.105400 0.988300 0.110100
vn 0.773600 0.620800 -0.126800
vn 0.255700 0.949900 0.179900
vn -0.047900 0.736900 0.674300
vn 0.050000 0.986100 -0.158700
vn -0.516100 0.830000 -0.211700
vn -0.420300 0.891300 -0.170000
vn -0.085800 0.978700 0.186400
vn 0.188900 0.981300 -0.037600
vn -0.123100 0.689200 -0.714000
vn -0.660600 0.742200 0.113200
vn -0.112300 0.833800 0.540400
vn 0.184300 0.940300 -0.286100
vn -0.186300 0.982100 -0.026800
vn 0.127300 0.560400 0.818400
vn -0.010500 0.997300 0.072500
vn 0.051700 0.998600 0.013100
vn 0.619400 0.752700 0.223300
vn -0.253000 0.798000 0.547000
vn 0.557800 0.829000 0.041100
vn -0.056100 0.902100 0.427800
vn 0.207300 0.675900 0.707200
vn 0.198900 0.979400 0.033900
vn 0.442200 0.768000 -0.463300
vn 0.062100 0.990000 -0.126300
vn 0.478500 0.878000 0.013000
vn -0.278800 0.938900 0.201700
vn -0.295700 0.927500 0.228500
vn -0.168600 0.930000 0.326600
vn 0.004800 0.898500 0.438900
vn 0.162300 0.976900 0.138800
vn -0.031500 0.994500 0.099500
vn -0.108500 0.984400 0.138200
vn -0.487600 0.864700 -0.121000
vn -0.318300 0.686300 0.654000
vn -0.057100 0.993200 -0.101800
vn 0.043700 0.989900 -0.135000
vn -0.056500 0.998300 0.010800
vn 0.113700 0.993200 0.026400
vn -0.268300 0.962000 0.051800
vn 0.283500 0.957700 -0.049700
vn -0.274800 0.961400 -0.009300
vn -0.284200 0.947800 0.144700
vn -0.104000 0.771700 -0.627400
vn -0.688200 0.703200 -0.178500
vn 0.003300 0.944000 0.330000
vn 0.471600 0.832600 0.290600
vn 0.110300 0.975400 -0.191000
vn 0.452500 0.380400 -0.806600
vn 0.151500 0.862200 -0.483500
vn -0.056300 0.809400 -0.584600
vn -0.152000 0.895100 -0.419100
vn 0.239700 0.969600 0.048500
vn -0.149000 0.961300 0.231900
vn -0.390900 0.870600 -0.298600
vn -0.468900 0.863800 -0.184100
vn -0.011600 0.993900 0.109200
vn 0.284800 0.910500 0.299700
vn 0.245200 0.950700 0.189800
vn 0.101600 0.959000 -0.264700
vn -0.107400 0.992200 0.062500
vn 0.286400 0.888900 -0.357500
vn 0.188300 0.978800 -0.080900
vn 0.032800 0.978500 -0.203600
vn -0.012900 0.999700 0.020500
vn -0.135000 0.984700 -0.110500
vn -0.212700 0.977100 0.009800
vn -0.128100 0.987000 0.096700
vn 0.023000 0.438700 0.898400
vn -0.470500 0.867300 0.162500
vn -0.452500 0.890000 -0.056500
vn 0.146700 0.935800 -0.320500
vn -0.512200 0.857700 -0.045400
vn -0.159500 0.965400 0.206300
vn -0.044000 0.896000 0.441800
vn 0.141700 0.755400 0.639700
vn 0.029700 0.628300 0.777400
vn 0.110600 0.808100 -0.578600
vn -0.436700 0.897000 0.067900
vn -0.465300 0.868600 0.170100
vn 0.282900 0.807900 -0.517000
vn 0.257400 0.934000 0.247900
vn 0.177500 0.961400 0.210000
vn 0.018900 0.825200 0.564600
vn -0.127300 0.990200 -0.057400
vn -0.074000 0.997200 -0.011700
vn -0.064700 0.992800 -0.100700
vn -0.579300 0.814500 -0.031300
vn 0.427800 0.896800 -0.112900
vn 0.182700 0.808400 0.559500
vn -0.417400 0.906500 -0.063800
vn -0.435900 0.892200 0.118100
vn -0.404500 0.913900 -0.033300
vn 0.219500 0.774100 0.593800
vn 0.393700 0.881800 0.259600
vn -0.010200 0.999900 -0.004600
vn 0.025500 0.999300 0.027000
vn 0.027700 0.998100 0.054200
vn 0.026000 0.993700 0.108700
vn 0.018600 0.999700 -0.014300
vn 0.055200 0.988500 0.140800
vn -0.011400 0.999100 -0.040400
vn 0.020700 0.996700 0.078000
vn -0.038300 0.974800 -0.219600
vn -0.071100 0.992200 -0.102200
vn 0.075300 0.997000 -0.018900
vn -0.014900 0.999900 0.006700
vn -0.004400 0.999500 0.030300
vn 0.014900 0.999800 -0.014800
vn -0.083000 0.996300 -0.022400
vn 0.403000 0.909200 0.104300
vn -0.143700 0.989600 -0.000900
vn 0.045700 0.998800 0.015700
vn 0.096800 0.975200 0.199100
vn -0.039100 0.994200 0.100200
vn 0.005500 1.000000 -0.007600
vn 0.004900 0.999900 -0.010400
vn -0.005700 0.999800 0.016400
vn 0.022300 0.979500 0.200400
vn -0.006400 0.999800 0.021400
vn 0.017600 0.999400 0.029900
vn 0.014800 0.999500 0.029700
vn -0.028600 0.999600 0.002800
vn -0.072300 0.986000 0.150000
vn 0.006800 0.995300 0.096100
vn 0.007200 0.999800 0.018400
vn -0.049600 0.997700 0.047100
vn 0.340900 0.939100 0.042200
vn -0.067500 0.930600 0.359800
vn -0.018100 0.999200 0.035900
vn -0.036300 0.999200 -0.016700
vn -0.200500 0.972600 -0.118000
vn -0.087300 0.993500 0.073400
vn 0.011500 0.946400 0.322700
vn 0.011000 0.946500 0.322400
vn 0.020900 0.994300 -0.104900
vn -0.015500 0.999500 0.027200
vn -0.015400 0.998700 -0.048900
vn 0.010100 0.998300 0.056800
vn -0.002900 0.987500 0.157800
vn 0.000900 0.999700 -0.025800
vn -0.166000 0.951300 -0.259800
vn 0.335500 0.829300 -0.446900
vn 0.224900 0.948500 -0.222900
vn -0.058100 0.991700 0.115000
vn 0.002200 0.988400 -0.151700
vn 0.030400 0.999500 -0.010000
vn 0.014400 0.871500 0.490200
vn 0.112000 0.926800 -0.358500
vn -0.026800 0.921100 -0.388400
vn -0.386900 -0.840200 0.380100
vn 0.102900 -0.786800 -0.608600
vn -0.000300 -0.532200 -0.846600
vn -0.133100 -0.870400 -0.474000
vn 0.369400 -0.929200 0.014800
vn -0.001900 -0.998000 -0.062600
vn -0.708400 -0.699300 -0.095400
vn -0.118500 -0.600600 -0.790700
vn 0.323800 -0.931100 -0.168100
vn -0.510300 -0.852300 0.114900
vn -0.595300 0.206100 0.776600
vn -0.521000 -0.849000 -0.088100
vn -0.330000 -0.920200 -0.210400
vn -0.000200 -0.715900 0.698300
vn 0.172400 -0.981100 -0.087400
vn 0.477600 -0.788800 0.386800
vn -0.469900 -0.866800 -0.167000
vn -0.465200 -0.861400 -0.203600
vn -0.107600 -0.936800 0.333000
vn 0.153100 -0.965100 -0.212300
vn -0.446300 -0.894600 0.023400
vn -0.326900 -0.938100 0.114900
vn 0.405700 -0.632200 0.660100
vn -0.141900 -0.929800 -0.339700
vn 0.570000 -0.309000 -0.761300
vn -0.164000 -0.891700 -0.421900
vn -0.250600 -0.968100 0.004900
vn -0.002700 -0.972300 0.233600
vn -0.127200 -0.879900 -0.457900
vn 0.177900 -0.970600 -0.162400
vn -0.741900 -0.636600 -0.210500
vn -0.201200 -0.975900 0.084300
vn 0.496900 -0.714500 -0.492600
vn 0.007700 -1.000000 0.004100
vn 0.048700 -0.015400 -0.998700
vn -0.021300 -0.139400 -0.990000
vn -0.008000 -0.020300 -0.999800
vn 0.039300 0.123700 -0.991500
vn -0.030900 0.037500 -0.998800
vn 0.203300 0.045300 -0.978100
vn -0.632600 0.569200 -0.525200
vn 0.166400 0.196600 -0.966300
vn 0.279400 0.121500 -0.952500
vn 0.690600 0.154200 -0.706600
vn 0.119200 0.342700 -0.931900
vn 0.713700 0.013100 -0.700300
vn 0.905500 0.148900 -0.397300
vn -0.024500 -0.158700 -0.987000
vn -0.031600 -0.074700 -0.996700
vn 0.388500 0.030000 -0.921000
vn 0.419600 0.015400 -0.907600
vn 0.329500 0.152300 -0.931800
vn 0.659200 0.057000 -0.749800
vn -0.043800 0.710400 -0.702400
vn 0.350600 0.225600 -0.908900
vn 0.038900 0.296100 -0.954400
vn -0.182800 -0.212700 -0.959900
vn -0.012600 0.103600 -0.994500
vn -0.126400 0.244900 -0.961300
vn 0.199700 -0.023800 -0.979600
vn 0.726900 -0.192300 -0.659300
vn 0.094100 -0.126500 -0.987500
vn -0.130800 -0.632700 -0.763300
vn -0.153000 -0.414900 -0.896900
vn -0.643200 -0.676100 -0.359400
vn 0.387700 -0.443400 -0.808100
vn -0.427500 0.037800 -0.903200
vn 0.244000 0.417000 -0.875500
vn -0.346600 -0.229900 -0.909400
vn 0.014100 -0.372600 -0.927900
vn 0.064100 0.221700 -0.973000
vn -0.073200 -0.094500 -0.992800
vn -0.332600 -0.259100 -0.906800
vn 0.190400 0.703500 -0.684700
vn 0.038400 -0.093700 -0.994900
vn -0.188000 -0.160600 -0.968900
vn -0.656000 0.107800 -0.747000
vn 0.223000 -0.303300 -0.926400
vn -0.007900 0.087700 -0.996100
vn -0.061400 -0.121700 -0.990700
vn -0.220900 0.504700 -0.834600
vn -0.200000 -0.208200 -0.957400
vn -0.225700 -0.206300 -0.952100
vn 0.288700 -0.061600 -0.955400
vn 0.394500 0.239300 -0.887200
vn -0.930700 -0.090200 -0.354500
vn 0.573000 0.082300 -0.815400
vn -0.015800 -0.519200 -0.854500
vn -0.115900 0.154100 -0.981200
vn -0.445000 -0.042800 -0.894500
vn -0.601900 -0.160100 -0.782400
vn -0.107900 -0.147400 -0.983200
vn 0.146100 -0.270600 -0.951500
vn -0.050900 -0.206700 -0.977100
vn -0.085900 0.058500 -0.994600
vn 0.130300 0.061100 -0.989600
vn -0.001500 0.208800 -0.978000
vn -0.487500 0.863800 -0.127100
vn 0.127100 0.733500 0.667700
vn -0.154400 0.337300 0.928700
vn 0.394200 0.066200 0.916600
vn 0.433300 0.075600 0.898100
vn 0.267400 0.830400 0.488800
vn 0.065900 0.560200 0.825700
vn -0.314200 0.543900 0.778200
vn -0.046600 0.454000 0.889800
vn -0.261100 0.607900 0.749800
vn 0.595500 0.162200 0.786800
vn 0.457100 -0.020400 0.889200
vn 0.008900 0.519300 0.854600
vn 0.058200 -0.085300 0.994700
vn -0.013000 0.355900 0.934400
vn -0.142700 0.284900 0.947900
vn -0.005000 -0.060400 0.998200
vn -0.101000 0.103100 0.989500
vn -0.059500 -0.452700 0.889700
vn 0.077800 -0.600000 0.796200
vn -0.133100 0.149500 0.979800
vn -0.054300 0.279000 0.958800
vn 0.158300 0.949900 0.269300
vn 0.032700 0.807100 0.589500
vn 0.150800 0.467500 0.871000
vn 0.078400 0.060500 0.995100
vn 0.259400 0.013900 0.965700
vn -0.011500 0.408200 0.912800
vn 0.184200 0.300500 0.935800
vn 0.061600 0.107700 0.992300
vn -0.074000 0.061300 0.995400
vn 0.225900 0.180500 0.957300
vn -0.292000 0.390000 0.873300
vn -0.450400 0.409700 0.793300
vn -0.387200 0.277300 0.879300
vn -0.074300 -0.105400 0.991700
vn -0.279800 0.208400 0.937200
vn 0.049200 -0.011400 0.998700
vn -0.012400 0.046500 0.998800
vn -0.018800 -0.103400 0.994500
vn 0.017800 -0.109600 0.993800
vn -0.028900 -0.034900 0.999000
vn -0.256600 0.465800 0.846800
vn -0.289100 0.196100 0.937000
vn -0.247500 0.239100 0.938900
vn -0.092800 0.018600 0.995500
vn 0.865400 0.081800 0.494300
vn 0.126900 -0.242900 0.961700
vn -0.029800 -0.345000 0.938100
vn -0.679500 0.356100 0.641500
vn -0.559600 -0.121400 0.819900
vn 0.038600 -0.294300 0.954900
vn 0.438000 -0.116900 0.891400
vn 0.042100 0.153800 0.987200
vn -0.038900 0.179100 0.983100
vn 0.666600 0.380400 0.641000
vn 0.853300 -0.052200 0.518700
vn 0.333300 -0.523400 0.784200
vn 0.373200 -0.546800 0.749500
vn 0.270600 -0.210100 0.939500
vn 0.176100 0.090100 0.980200
vn 0.584200 0.221200 0.780900
vn -0.094200 0.586500 0.804500
vn -0.042800 0.613100 0.788900
vn -0.164700 -0.311600 0.935800
vn 0.102200 0.245100 0.964100
vn 0.584400 -0.209700 0.783900
vn 0.060100 -0.744700 0.664700
vn 0.104000 -0.521000 0.847200
vn 0.096400 -0.527000 0.844300
vn -0.303000 -0.738800 0.602000
vn -0.754800 -0.093200 0.649300
vn -0.080800 0.047200 0.995600
vn -0.259100 0.252600 0.932200
vn 0.826000 0.185100 0.532400
vn -0.506400 0.082200 0.858300
vn -0.514200 0.193200 0.835600
vn -0.713400 0.286800 0.639400
vn -0.106000 0.307800 0.945500
vn 0.087600 0.358500 0.929400
vn 0.077400 0.482300 0.872600
vn 0.198100 0.155700 0.967700
vn -0.093500 0.097700 0.990800
vn 0.025800 0.567900 0.822700
vn -0.231000 -0.028600 0.972500
vn -0.200900 0.022800 0.979400
vn 0.021300 0.663400 0.748000
vn 0.039800 -0.017900 0.999000
vn -0.000800 -0.018700 0.999800
vn 0.100200 0.591900 0.799700
vn -0.073300 0.362300 0.929200
vn 0.031900 0.280800 0.959200
vn 0.982200 0.186400 -0.021200
vn 1.000000 0.009900 0.000600
vn 0.842600 0.510700 0.170800
vn 0.983000 -0.045600 -0.177700
vn 0.923700 -0.336500 -0.183100
vn 0.991500 -0.020800 0.128500
vn 0.996900 0.076800 0.017300
vn 0.978800 0.169800 -0.114400
vn 0.977700 0.210000 -0.009100
vn 0.957200 -0.289000 0.017400
vn 0.464500 0.885100 -0.029400
vn 0.841900 0.010300 0.539600
vn 0.567500 0.189800 0.801200
vn 0.982100 0.064200 -0.177100
vn 0.570000 0.397500 -0.719100
vn 0.826500 0.253200 0.502700
vn 0.916500 -0.364900 0.163900
vn 0.953000 -0.273400 -0.130300
vn 0.983200 0.160000 -0.087500
vn 0.834300 -0.027100 0.550600
vn 0.975200 -0.033900 0.218600
vn 0.797000 -0.455800 0.396200
vn 0.981000 0.190700 -0.036700
vn 0.925000 0.350900 0.145600
vn 0.975100 -0.109500 -0.193000
vn 0.806100 -0.219400 -0.549600
vn 0.732700 0.418100 0.537000
vn 0.946200 0.088600 0.311200
vn 0.961300 0.147700 0.232600
vn 0.985400 -0.076000 -0.152100
vn 0.923700 -0.342400 -0.171700
vn 0.911200 -0.365100 -0.191100
vn 0.996900 0.078000 0.006400
vn 0.982600 -0.177600 -0.055100
vn 0.658200 -0.419300 -0.625300
vn 0.982500 -0.113100 -0.148000
vn 0.972900 -0.220200 0.071000
vn 0.914000 0.226000 0.336800
vn 0.994500 0.028200 0.101200
vn 0.743800 0.668300 0.011600
vn 0.779100 0.094500 0.619700
vn 0.836300 -0.007000 0.548200
vn 0.657500 0.001500 -0.753400
vn 0.896500 0.046600 -0.440500
vn 0.667700 -0.691800 -0.274900
vn 0.992500 0.055600 -0.109000
vn 0.939800 0.050700 0.337900
vn 0.967600 -0.042300 0.248800
vn 0.923300 0.277000 -0.266000
vn 0.924500 0.255400 0.283100
vn 0.987900 0.126400 -0.090300
vn 0.898100 0.373300 -0.232700
vn 0.804600 0.010800 -0.593700
vn 0.968800 0.040400 -0.244600
vn 0.687400 0.702300 0.185400
vn 0.590500 0.793600 -0.146800
vn 0.530400 -0.176400 -0.829200
vn 0.688300 -0.699700 0.191600
vn 0.828200 0.012700 0.560400
vn 0.797800 -0.602300 0.027500
vn 0.971900 0.176900 0.155400
vn 0.837500 -0.543000 -0.060900
vn 0.984600 0.014700 -0.174000
vn 0.664500 -0.036100 -0.746400
vn 0.918800 0.321500 0.228900
vn 0.574200 -0.217500 0.789300
vn 0.861500 -0.245400 0.444500
vn 0.989900 -0.090800 0.108500
vn 0.960400 0.243100 -0.136300
vn 0.364900 -0.001400 -0.931000
vn -0.912200 0.392700 0.116900
vn -0.935900 -0.350100 0.037900
vn -0.998100 -0.015300 -0.060300
vn -0.650200 0.090000 -0.754400
vn -0.912000 0.129100 -0.389500
vn -0.746500 -0.275600 0.605700
vn -0.789600 0.232100 0.568000
vn -0.762500 0.617600 -0.192900
vn -0.842600 0.525800 -0.116000
vn -0.659100 0.752100 -0.004300
vn -0.835900 0.510800 -0.201000
vn -0.949900 0.244300 0.195100
vn -0.938000 0.190200 0.289800
vn -0.936300 0.192600 0.293800
vn -0.917100 -0.383800 -0.107400
vn -0.918700 0.391600 -0.051500
vn -0.895600 0.081400 -0.437400
vn -0.872100 0.453700 -0.183100
vn -0.632200 0.356500 0.687900
vn -0.293000 -0.786000 0.544400
vn -0.981300 -0.152000 -0.117900
vn -0.645900 0.483900 0.590500
vn -0.877700 -0.283400 -0.386400
vn -0.953200 -0.024500 -0.301400
vn -0.989800 -0.047600 -0.134200
vn -0.851500 0.232400 -0.470000
vn -0.724100 -0.329200 -0.606100
vn -0.920500 0.389000 0.036400
vn -0.924500 0.377900 -0.049500
vn -0.985100 0.166600 0.043700
vn -0.884500 -0.453800 0.108300
vn -0.919700 0.383700 0.082700
vn -0.890300 0.351800 -0.289000
vn -0.965200 0.141000 -0.220300
vn -0.921100 -0.144500 0.361700
vn -0.954100 -0.033200 -0.297600
vn -0.995500 0.035200 -0.088100
vn -0.897800 -0.161600 0.409800
vn -0.921100 -0.096200 0.377400
vn -0.751600 -0.619000 0.227700
vn -0.980600 -0.144100 -0.132700
vn -0.826700 -0.469900 -0.309500
vn -0.912100 -0.302100 -0.277100
vn -0.919300 -0.012100 0.393300
vn -0.796800 -0.201100 0.569900
vn -0.936700 -0.350000 -0.006000
vn -0.999600 -0.016900 0.024200
vn -0.998000 0.016100 -0.061000
vn -0.966200 -0.250900 -0.060200
vn -0.970500 -0.185700 0.153500
vn -0.961700 0.139100 -0.236400
vn -0.965800 -0.059500 -0.252400
vn -0.972000 -0.071400 -0.223700
vn -0.798100 -0.445800 -0.405300
vn -0.462000 -0.697100 0.548200
vn -0.893500 0.381600 0.236500
vn -0.985300 0.162800 -0.051300
vn -0.998900 0.044300 -0.016700
vn -0.999300 -0.003300 -0.036200
vn -0.994700 0.000600 0.103100
vn -0.789000 -0.368800 0.491400
vn -0.924900 0.306600 -0.224900
vn -0.927700 0.346300 0.139500
vn -0.993100 0.035200 -0.112000
vn -0.996700 -0.080400 0.007200
vn -0.999900 -0.003500 -0.010800
vn -0.995100 0.098900 -0.004100
vn -0.946700 -0.320300 -0.032900
vn -0.999400 -0.035100 0.002800
vn -0.868100 0.464300 0.175500
vn -0.992500 -0.084100 0.088700
vn -0.995700 -0.045100 0.080600
vn -0.966500 -0.153400 0.205800
vn -0.899000 -0.437200 -0.027500
vn -0.521800 0.347600 0.779000
vn -0.982000 -0.159300 -0.101100
vn -0.779000 -0.094400 0.619800
vn -0.962100 -0.059200 -0.266100
vn -0.848300 -0.135500 -0.511900
vn -0.999300 0.036500 0.000600
vn -0.975800 0.196400 0.096300
vn -0.957900 -0.169300 -0.231900
vn -0.930000 -0.081300 -0.358400
vn -0.725700 0.071200 -0.684300
vn -0.662200 0.749300 -0.003800
vn -0.996100 0.087300 -0.015200
vn 0.754900 0.040200 -0.654600
vn 0.653100 -0.017300 0.757100
vn 0.950000 0.310300 -0.034700
vn 0.987300 0.142700 0.069500
vn 0.859200 -0.025300 -0.511000
vn 0.783000 0.273900 0.558500
vn 0.995000 0.007800 -0.100000
vn 0.945900 0.073200 -0.316200
vn 0.985700 0.051500 -0.160600
vn 0.967600 -0.252100 0.016200
vn 0.909400 -0.028900 0.414900
vn 0.402600 0.890700 0.211300
vn 0.771000 -0.120600 -0.625300
vn 0.579700 0.301900 0.756900
vn 0.675100 0.737000 -0.033200
vn 0.785400 0.617800 -0.039000
vn 0.613500 0.072100 0.786400
vn 0.959000 -0.279000 -0.049200
vn 0.850000 -0.509100 -0.135300
vn 0.688400 0.060500 -0.722800
vn 0.948800 0.111000 -0.295600
vn 0.999000 0.031300 0.031900
vn 0.824400 -0.075700 0.560900
vn 0.619200 -0.143800 0.771900
vn 0.126500 -0.527800 0.839900
vn -0.054900 0.274800 0.959900
vn 0.076600 0.292800 0.953100
vn 0.617600 -0.078200 0.782600
vn 0.632300 -0.142100 0.761600
vn -0.107800 -0.662600 0.741200
vn 0.109000 0.065500 0.991900
vn 0.120200 0.021800 0.992500
vn -0.064600 0.005800 0.997900
vn -0.109000 0.073800 0.991300
vn 0.308700 0.331000 0.891700
vn -0.038300 0.328900 0.943600
vn -0.050300 -0.417300 0.907400
vn 0.473900 0.132800 0.870500
vn 0.375100 0.187100 0.907900
vn -0.498700 0.170000 0.849900
vn -0.123500 0.777600 0.616500
vn -0.251200 -0.184000 -0.950300
vn -0.778500 0.443200 -0.444300
vn 0.023500 0.406100 -0.913500
vn 0.050700 0.300900 -0.952300
vn 0.001500 0.424600 -0.905400
vn 0.077600 0.412100 -0.907800
vn -0.155000 -0.058300 -0.986200
vn 0.507000 -0.344900 -0.789900
vn -0.661900 0.055100 -0.747600
vn -0.830500 -0.339300 -0.441700
vn -0.011900 0.015400 -0.999800
vn 0.045900 -0.596800 -0.801100
vn -0.551500 -0.101000 -0.828100
vn -0.102900 -0.055100 -0.993200
vn -0.236300 -0.122400 -0.963900
vn 0.424900 -0.041900 -0.904200
vn -0.237900 -0.132300 -0.962200
vn 0.637200 -0.360400 -0.681300
vn -0.057300 0.500100 -0.864000
vn -0.355500 0.233000 -0.905100
vn -0.051400 -0.048100 -0.997500
vn 0.204000 0.777200 -0.595300
vn 0.102500 -0.615500 -0.781500
vn -0.002100 0.233200 -0.972400
vn 0.005300 0.382700 -0.923900
vn 0.532600 0.347000 -0.771900
vn 0.006100 0.388300 -0.921500
vn 0.340700 -0.268800 -0.900900
vn -0.229700 -0.069800 -0.970800
vn 0.680400 -0.193000 0.707000
vn 0.000600 -0.066500 -0.997800
vn 0.105800 0.215900 -0.970700
vn -0.026200 -0.999500 0.020100
vn 0.224500 -0.973500 -0.043500
vn -0.214800 -0.959400 -0.183100
vn -0.236500 -0.970500 0.046200
vn 0.211500 -0.956200 -0.202500
vn 0.061900 -0.733600 -0.676800
vn 0.014700 0.996600 -0.080600
vn -0.008400 0.999800 -0.020100
vn -0.012000 0.998400 0.054900
vn 0.437500 0.745000 -0.503500
vn 0.007300 0.998600 -0.051600
vn -0.004200 0.998100 -0.062300
vn -0.017200 0.996300 0.084300
vn 0.127800 0.991800 0.002800
vn 0.099300 0.993300 0.058700
vn 0.040100 0.997600 -0.056400
vn -0.007200 1.000000 -0.001600
vn 0.876900 0.317900 -0.360500
vn -0.035100 0.999200 0.021100
vn 0.039100 0.999200 0.009200
vn -0.029200 0.999600 0.000200
vn -0.147200 0.816100 0.558900
vn -0.180600 0.904700 -0.386000
vn 0.778300 0.593600 -0.204500
vn 0.643100 0.740100 -0.196800
vn 0.026200 0.856300 0.515800
vn -0.319500 0.947600 -0.006500
vn -0.011100 0.685400 0.728100
vn -0.654100 0.751200 0.088500
vn -0.648600 0.752200 0.116400
vn -0.264300 0.952800 0.149100
vn -0.071600 0.988900 -0.130400
vn -0.165500 0.967600 -0.190500
vn -0.083600 0.927600 0.364200
vn -0.012500 0.999800 0.015800
vn 0.137300 0.870100 -0.473300
vn -0.214100 0.974100 0.073200
vn -0.223800 0.971300 0.081100
vn 0.093100 0.307100 -0.947100
vn -0.001100 0.715100 -0.699000
vn 0.292000 0.904000 -0.312300
vn 0.481300 0.816900 -0.317800
vn 0.001900 0.983100 0.183300
vn -0.992500 0.103100 -0.066400
vn 0.122000 0.877700 0.463500
vn 0.663000 0.736800 0.132000
vn -0.084300 0.979000 0.185300
vn -0.023000 0.684400 0.728700
vn 0.894700 0.353500 -0.273100
vn 0.281100 0.946000 -0.161300
vn -0.072100 0.997100 -0.022400
vn 0.515500 0.498800 -0.696700
vn -0.221600 0.890400 0.397500
vn 0.895000 0.445600 0.019600
vn 0.058200 0.983000 -0.174100
vn -0.463800 0.715100 0.523000
vn 0.340200 0.928300 -0.150300
vn 0.454600 0.836000 -0.307300
vn 0.019500 0.999800 0.008800
vn 0.615300 -0.739700 -0.272500
vn -0.004500 1.000000 0.007900
vn 0.025100 0.999400 -0.022000
vn 0.005900 1.000000 -0.005300
vn -0.265600 0.412900 -0.871200
vn 0.011100 0.997900 0.063600
vn -0.038700 0.999100 -0.016700
vn -0.006700 -1.000000 0.003200
vn 0.838000 -0.042800 -0.544000
vn 0.111100 -0.047200 0.992700
vn 0.095800 0.065600 0.993200
vn 0.200200 0.121700 0.972200
vn 0.488500 0.188200 0.852000
vn -0.128800 0.681100 0.720800
vn 0.736800 -0.022500 0.675800
vn 0.446000 0.229100 -0.865200
vn 0.923300 0.253200 0.288700
vn 0.994200 0.095300 0.050700
vn 0.777800 0.599600 -0.188500
vn 0.925600 0.252800 0.281700
vn 0.830400 -0.557000 -0.011400
vn -0.957100 0.286400 -0.043300
vn -0.945300 0.248800 0.211100
vn -0.862100 0.070200 -0.501800
vn -0.970500 0.142700 -0.194200
vn -0.995500 0.094500 -0.011000
vn -0.921800 -0.378800 -0.082200
vn -0.652400 0.219500 0.725400
vn -0.824100 0.102000 -0.557200
vn -0.852900 0.283600 -0.438300
vn 0.993900 0.104200 0.036300
vn 0.728400 0.221400 -0.648400
vn -0.147800 0.141200 0.978900
vn 0.321700 -0.022000 -0.946600
vn 0.027800 0.816600 -0.576500
vn 0.077700 0.995700 -0.051500
vn 0.438900 0.867400 0.234400
vn 0.341000 0.939300 0.036900
vn -0.273100 0.944400 0.183300
vn 0.003100 0.921300 0.389000
vn 0.946400 -0.260700 -0.190800
vn 0.053800 -0.374600 -0.925600
vn -0.453700 -0.508700 -0.731700
vn 0.086400 0.094300 0.991800
vn -0.059800 0.478000 0.876300
vn 0.924700 -0.038800 0.378800
vn 0.216800 0.974600 -0.056700
vn -0.281800 -0.030400 -0.959000
vn -0.946700 0.227200 0.228300
vn -0.879100 0.134800 0.457200
vn -0.286300 -0.397000 -0.872000
vn -0.059800 0.976200 0.208500
vn -0.651200 -0.428400 0.626500
vn 0.678000 -0.616300 0.400700
vn 0.833700 0.137600 0.534700
vn -0.424000 -0.039800 0.904800
vn 0.128600 0.075600 0.988800
vn 0.153700 0.666800 0.729200
vn 0.186800 0.710100 -0.678900
vn -0.110600 -0.784800 -0.609800
vn 0.008700 0.198200 0.980100
vn 0.081800 0.976900 0.197300
vn 0.093300 0.628600 0.772100
vn 0.028500 0.328100 -0.944200
vn -0.323500 0.945400 0.038600
vn 0.116100 0.943600 -0.310200
vn 0.133200 0.985300 0.106600
vn 0.826700 0.562100 -0.025300
vn -0.059300 0.840000 -0.539400
vn 0.269500 0.536600 -0.799600
vn 0.046600 0.630400 -0.774900
vn -0.029500 -0.904200 -0.426200
vn 0.105900 -0.847500 0.520200
vn -0.443100 -0.847200 0.293100
vn -0.218000 0.915900 0.337100
vn 0.185700 0.266300 0.945800
vn 0.881000 0.393000 -0.263300
vn 0.725100 -0.662400 -0.188400
vn -0.543000 0.054500 -0.837900
vn -0.695100 0.493000 -0.523200
vn -0.999700 -0.017800 0.013700
vn -0.864800 0.307900 -0.396600
vn -0.941500 -0.040600 -0.334500
vn -0.805000 -0.444900 0.392300
vn 0.656800 -0.744600 -0.118700
vn 0.729500 -0.345000 -0.590600
vn 0.624800 0.687200 0.370600
vn 0.913000 0.302800 0.273500
vn 0.271800 0.945200 -0.181100
vn -0.053600 0.083300 0.995100
vn 0.239300 -0.186400 0.952900
vn 0.093200 -0.504900 0.858100
vn -0.139500 0.414300 -0.899400
vn -0.134700 -0.088200 -0.987000
vn 0.307100 0.262500 -0.914700
vn 0.480500 0.088000 -0.872600
vn -0.321600 -0.210200 -0.923300
vn -0.028000 0.243600 -0.969500
vn 0.057700 0.991500 0.116300
vn -0.480500 0.806900 -0.343700
vn -0.025100 0.999700 0.000900
vn -0.106800 0.658900 0.744600
vn -0.532100 0.845000 0.053500
vn 0.066200 0.904000 -0.422400
vn -0.231600 0.897000 -0.376400
vn -0.254800 0.863100 0.436000
vn -0.221800 0.857300 -0.464500
vn 0.292800 0.911500 -0.288900
vn 0.646500 0.758000 -0.085700
vn -0.017500 0.747700 -0.663800
vn -0.197600 0.871300 0.449200
vn -0.208500 0.959300 0.190200
vn 0.227700 0.973700 -0.007400
vn 0.206400 0.906100 -0.369400
vn 0.319500 0.836100 -0.446000
vn 0.104700 0.515200 -0.850600
vn 0.094000 0.967800 -0.233500
vn -0.762700 0.646600 0.015100
vn 0.155700 0.926100 -0.343600
vn -0.118100 0.961500 -0.248200
vn 0.095500 0.938900 0.330800
vn 0.273500 0.961800 0.011400
vn -0.012000 0.999900 0.010000
vn -0.020200 0.997300 0.070200
vn -0.034200 0.999400 0.008500
vn -0.026000 0.996700 -0.076600
vn -0.011000 0.999400 0.031500
vn -0.723200 -0.337400 -0.602700
vn 0.074100 0.997100 -0.016100
vn 0.261900 0.911900 0.316100
vn -0.161400 -0.502000 0.849600
vn 0.263900 0.953900 0.142600
vn 0.142300 0.811600 -0.566600
vn -0.078800 0.996300 0.035000
vn -0.052000 0.985500 -0.161400
vn 0.029600 0.713000 0.700500
vn -0.609500 -0.789600 0.070700
vn -0.031200 -0.892600 -0.449700
vn 0.176800 -0.919500 0.351100
vn -0.559100 -0.810600 0.174500
vn -0.175900 -0.910800 0.373400
vn 0.047200 -0.861900 0.504900
vn 0.038600 -0.116400 -0.992400
vn -0.033900 0.165000 -0.985700
vn 0.284100 0.269800 -0.920000
vn 0.414600 -0.345300 -0.841900
vn -0.295300 -0.340900 -0.892500
vn -0.133900 0.749900 -0.647900
vn 0.248900 0.098000 -0.963600
vn -0.231700 -0.553000 -0.800300
vn 0.399200 -0.679900 -0.615100
vn -0.872400 -0.421000 0.248300
vn 0.480600 -0.081200 -0.873100
vn 0.025700 0.485700 -0.873800
vn 0.334900 -0.165400 -0.927600
vn 0.206700 0.482400 -0.851200
vn -0.703300 0.545100 0.456300
vn -0.145000 0.196900 0.969600
vn -0.160800 0.189700 0.968600
vn -0.240000 -0.183600 0.953300
vn 0.394300 0.631500 0.667700
vn -0.967200 -0.252600 0.028100
vn -0.082300 -0.059400 0.994800
vn 0.002300 0.089800 0.996000
vn 0.435400 0.838900 -0.326700
vn 0.944800 -0.285200 -0.161000
vn 0.254000 0.242700 -0.936300
vn 0.953200 0.234400 -0.190800
vn 0.378300 0.922300 -0.079100
vn -0.114200 0.468500 -0.876000
vn 0.904900 0.419600 0.071000
vn 0.898900 -0.306500 -0.313200
vn -0.643900 0.268800 -0.716300
vn -0.838900 0.533900 0.105900
vn -0.973400 -0.022000 0.228200
vn -0.672300 -0.482900 -0.561100
vn -0.763800 0.644800 0.030600
vn -0.982200 0.098500 0.159800
vn 0.728400 0.183800 0.660000
vn 0.013800 0.840900 0.540900
vn -0.005600 -0.032400 0.999500
vn 0.719100 -0.039000 0.693900
vn 0.127900 0.702000 0.700600
vn 0.133400 0.023300 0.990800
vn -0.725400 0.175100 0.665700
vn 0.141900 0.537700 0.831100
vn -0.001100 -0.026500 -0.999600
vn 0.634600 -0.760300 -0.138700
vn -0.077900 0.944400 -0.319300
vn -0.006800 0.912500 -0.408900
vn 0.020900 0.808500 -0.588200
vn 0.235000 0.894800 -0.379600
vn 0.266400 0.772900 -0.575900
vn -0.583600 0.787300 0.198900
vn 0.967300 0.064200 -0.245500
vn 0.130600 0.978300 0.160600
vn 0.227000 0.972100 -0.058400
vn -0.038100 0.994900 0.093200
vn -0.030100 -0.295900 0.954700
vn 0.397400 0.879900 0.260500
vn 0.906200 -0.422100 -0.024000
vn -0.826300 -0.539600 -0.161400
vn -0.136200 0.263500 -0.955000
vn 0.580400 -0.337600 0.741100
vn 0.218300 0.031300 0.975400
vn 0.893200 -0.116900 -0.434100
vn 0.908300 -0.137100 0.395300
usemtl palette
s off
f 533/1/1 434/1/1 454/1/1
f 51/2/2 534/2/2 111/2/2
f 305/1/3 490/1/3 86/1/3
f 224/3/4 42/3/4 313/3/4
f 18/3/5 65/3/5 369/3/5
f 570/2/6 383/2/6 477/2/6
f 220/1/7 368/1/7 26/1/7
f 358/1/8 368/1/8 220/1/8
f 78/1/9 217/1/9 213/1/9
f 196/4/10 586/4/10 28/4/10
f 479/3/11 418/3/11 241/3/11
f 36/3/12 337/3/12 197/3/12
f 201/3/13 301/3/13 148/3/13
f 302/2/14 523/2/14 73/2/14
f 592/3/15 428/3/15 175/3/15
f 72/3/16 153/3/16 43/3/16
f 490/1/17 514/1/17 600/1/17
f 35/1/18 314/1/18 227/1/18
f 85/1/19 226/1/19 123/1/19
f 435/1/20 228/1/20 493/1/20
f 486/1/21 578/1/21 93/1/21
f 343/2/22 145/2/22 346/2/22
f 276/3/23 257/3/23 342/3/23
f 584/1/24 173/1/24 410/1/24
f 372/2/25 384/2/25 73/2/25
f 30/1/26 453/1/26 212/1/26
f 218/1/27 242/1/27 456/1/27
f 68/1/28 407/1/28 168/1/28
f 413/1/29 78/1/29 489/1/29
f 474/3/30 16/3/30 129/3/30
f 467/1/31 115/1/31 246/1/31
f 466/1/32 464/1/32 236/1/32
f 291/1/33 465/1/33 466/1/33
f 263/1/34 467/1/34 206/1/34
f 24/3/35 468/3/35 313/3/35
f 469/1/36 401/1/36 206/1/36
f 468/3/37 430/3/37 19/3/37
f 81/3/38 460/3/38 328/3/38
f 346/2/39 520/2/39 207/2/39
f 341/3/40 181/3/40 112/3/40
f 362/3/41 475/3/41 341/3/41
f 362/3/42 344/3/42 475/3/42
f 344/3/43 476/3/43 475/3/43
f 532/2/44 311/2/44 438/2/44
f 508/2/45 7/2/45 238/2/45
f 122/2/46 508/2/46 396/2/46
f 510/3/47 255/3/47 509/3/47
f 109/1/48 427/1/48 376/1/48
f 2/2/49 522/2/49 44/2/49
f 168/1/50 407/1/50 481/1/50
f 156/1/51 269/1/51 34/1/51
f 229/1/52 269/1/52 156/1/52
f 309/1/53 457/1/53 389/1/53
f 295/1/54 364/1/54 272/1/54
f 431/1/55 543/1/55 143/1/55
f 218/1/56 285/1/56 242/1/56
f 374/2/57 536/2/57 537/2/57
f 374/2/58 537/2/58 439/2/58
f 158/1/59 177/1/59 231/1/59
f 333/1/60 158/1/60 203/1/60
f 326/2/61 51/2/61 111/2/61
f 127/1/62 451/1/62 89/1/62
f 84/1/63 410/1/63 599/1/63
f 534/2/64 303/2/64 449/2/64
f 200/2/65 426/2/65 329/2/65
f 185/2/66 598/2/66 302/2/66
f 301/2/67 251/2/67 148/2/67
f 110/3/68 400/3/68 221/3/68
f 556/1/69 376/1/69 303/1/69
f 599/1/70 173/1/70 214/1/70
f 541/3/71 301/3/71 201/3/71
f 425/3/72 102/3/72 335/3/72
f 573/3/73 398/3/73 496/3/73
f 412/1/74 321/1/74 183/1/74
f 245/3/75 524/3/75 398/3/75
f 496/3/76 398/3/76 524/3/76
f 558/1/77 321/1/77 339/1/77
f 52/1/78 218/1/78 445/1/78
f 444/1/79 268/1/79 414/1/79
f 280/4/80 501/4/80 261/4/80
f 119/4/81 502/4/81 82/4/81
f 169/4/82 188/4/82 119/4/82
f 118/1/83 334/1/83 331/1/83
f 568/1/84 332/1/84 324/1/84
f 323/1/85 260/1/85 296/1/85
f 388/3/86 224/3/86 53/3/86
f 505/3/87 191/3/87 539/3/87
f 113/3/88 202/3/88 448/3/88
f 597/1/89 247/1/89 370/1/89
f 419/3/90 429/3/90 448/3/90
f 442/1/91 564/1/91 117/1/91
f 239/2/92 438/2/92 164/2/92
f 491/2/93 396/2/93 508/2/93
f 491/2/94 384/2/94 396/2/94
f 23/3/95 436/3/95 509/3/95
f 362/3/96 596/3/96 344/3/96
f 475/3/97 55/3/97 341/3/97
f 566/1/98 208/1/98 445/1/98
f 566/1/99 105/1/99 107/1/99
f 399/3/100 458/3/100 525/3/100
f 203/1/101 385/1/101 159/1/101
f 595/1/102 35/1/102 379/1/102
f 368/1/103 358/1/103 595/1/103
f 358/1/104 220/1/104 464/1/104
f 158/1/105 333/1/105 146/1/105
f 322/1/106 59/1/106 69/1/106
f 203/1/107 59/1/107 322/1/107
f 124/1/108 33/1/108 254/1/108
f 375/1/109 454/1/109 220/1/109
f 176/1/110 403/1/110 375/1/110
f 5/1/111 394/1/111 74/1/111
f 61/1/112 116/1/112 289/1/112
f 587/1/113 288/1/113 594/1/113
f 543/1/114 431/1/114 545/1/114
f 431/1/115 210/1/115 516/1/115
f 252/3/116 47/3/116 38/3/116
f 22/2/117 252/2/117 452/2/117
f 304/2/118 130/2/118 576/2/118
f 519/3/119 153/3/119 377/3/119
f 16/3/120 92/3/120 81/3/120
f 287/3/121 521/3/121 221/3/121
f 311/2/122 151/2/122 140/2/122
f 149/3/123 475/3/123 371/3/123
f 180/3/124 591/3/124 399/3/124
f 352/3/125 525/3/125 495/3/125
f 418/3/126 422/3/126 494/3/126
f 389/1/127 240/1/127 283/1/127
f 279/1/128 305/1/128 559/1/128
f 589/1/129 41/1/129 91/1/129
f 501/4/130 281/4/130 583/4/130
f 501/4/131 583/4/131 196/4/131
f 207/2/132 278/2/132 346/2/132
f 538/3/133 276/3/133 187/3/133
f 70/3/134 2/3/134 259/3/134
f 275/3/135 523/3/135 122/3/135
f 73/3/136 102/3/136 425/3/136
f 542/4/137 31/4/137 143/4/137
f 142/4/138 274/4/138 386/4/138
f 272/4/139 543/4/139 271/4/139
f 547/4/140 544/4/140 93/4/140
f 93/4/141 272/4/141 364/4/141
f 141/4/142 549/4/142 550/4/142
f 105/4/143 555/4/143 330/4/143
f 137/4/144 250/4/144 248/4/144
f 138/4/145 585/4/145 248/4/145
f 138/4/146 186/4/146 585/4/146
f 489/4/147 585/4/147 103/4/147
f 558/4/148 103/4/148 551/4/148
f 164/1/149 507/1/149 303/1/149
f 449/1/150 303/1/150 427/1/150
f 580/1/151 557/1/151 234/1/151
f 580/1/152 234/1/152 266/1/152
f 359/1/153 557/1/153 414/1/153
f 139/1/154 186/1/154 456/1/154
f 391/1/155 213/1/155 4/1/155
f 135/1/156 4/1/156 558/1/156
f 6/1/157 284/1/157 97/1/157
f 283/1/158 363/1/158 411/1/158
f 226/1/159 85/1/159 33/1/159
f 462/1/160 379/1/160 35/1/160
f 91/1/161 41/1/161 559/1/161
f 327/1/162 441/1/162 560/1/162
f 57/1/163 499/1/163 409/1/163
f 87/1/164 408/1/164 365/1/164
f 345/1/165 484/1/165 578/1/165
f 580/1/166 170/1/166 557/1/166
f 9/1/167 562/1/167 292/1/167
f 378/1/168 577/1/168 33/1/168
f 106/1/169 378/1/169 33/1/169
f 134/1/170 567/1/170 526/1/170
f 564/1/171 442/1/171 565/1/171
f 309/1/172 106/1/172 567/1/172
f 404/1/173 289/1/173 516/1/173
f 291/1/174 381/1/174 465/1/174
f 473/2/175 374/2/175 71/2/175
f 392/1/176 30/1/176 212/1/176
f 392/1/177 572/1/177 30/1/177
f 394/1/178 192/1/178 470/1/178
f 24/3/179 460/3/179 46/3/179
f 193/3/180 225/3/180 129/3/180
f 382/3/181 436/3/181 573/3/181
f 590/3/182 525/3/182 352/3/182
f 348/3/183 262/3/183 497/3/183
f 591/3/184 574/3/184 575/3/184
f 458/3/185 348/3/185 525/3/185
f 328/3/186 193/3/186 81/3/186
f 291/1/187 385/1/187 381/1/187
f 421/1/188 402/1/188 75/1/188
f 96/1/189 216/1/189 133/1/189
f 208/1/190 566/1/190 406/1/190
f 356/4/191 582/4/191 196/4/191
f 254/4/192 582/4/192 124/4/192
f 136/4/193 141/4/193 550/4/193
f 386/4/194 587/4/194 318/4/194
f 597/4/195 271/4/195 64/4/195
f 542/4/196 273/4/196 37/4/196
f 387/4/197 588/4/197 307/4/197
f 501/4/198 280/4/198 531/4/198
f 115/1/199 467/1/199 528/1/199
f 480/3/200 275/3/200 424/3/200
f 353/2/201 2/2/201 425/2/201
f 518/2/202 252/2/202 22/2/202
f 143/1/203 31/1/203 120/1/203
f 600/1/204 176/1/204 26/1/204
f 574/3/205 162/3/205 382/3/205
f 359/1/206 445/1/206 218/1/206
f 425/3/207 335/3/207 23/3/207
f 413/1/208 489/1/208 217/1/208
f 503/1/209 482/1/209 237/1/209
f 207/2/210 249/2/210 350/2/210
f 539/2/211 440/2/211 233/2/211
f 191/3/212 471/3/212 190/3/212
f 56/4/213 315/4/213 462/4/213
f 95/1/214 182/1/214 461/1/214
f 358/1/215 227/1/215 340/1/215
f 219/1/216 373/1/216 529/1/216
f 466/1/217 115/1/217 601/1/217
f 246/1/218 206/1/218 467/1/218
f 24/3/219 46/3/219 517/3/219
f 53/3/220 471/3/220 191/3/220
f 440/3/221 36/3/221 197/3/221
f 19/3/222 472/3/222 36/3/222
f 473/2/223 537/2/223 536/2/223
f 145/2/224 520/2/224 346/2/224
f 145/2/225 230/2/225 520/2/225
f 55/3/226 475/3/226 149/3/226
f 181/3/227 76/3/227 195/3/227
f 395/3/228 362/3/228 341/3/228
f 371/3/229 423/3/229 76/3/229
f 371/3/230 63/3/230 423/3/230
f 590/3/231 459/3/231 317/3/231
f 478/2/232 311/2/232 532/2/232
f 327/1/233 432/1/233 515/1/233
f 68/1/234 8/1/234 407/1/234
f 578/1/235 484/1/235 549/1/235
f 308/1/236 513/1/236 389/1/236
f 380/1/237 307/1/237 188/1/237
f 242/1/238 104/1/238 456/1/238
f 114/1/239 454/1/239 375/1/239
f 231/1/240 402/1/240 178/1/240
f 212/1/241 147/1/241 282/1/241
f 77/2/242 167/2/242 452/2/242
f 187/3/243 77/3/243 538/3/243
f 506/2/244 306/2/244 50/2/244
f 50/2/245 167/2/245 506/2/245
f 304/2/246 67/2/246 326/2/246
f 232/1/247 599/1/247 86/1/247
f 200/2/248 111/2/248 426/2/248
f 200/2/249 329/2/249 491/2/249
f 205/2/250 185/2/250 302/2/250
f 73/3/251 256/3/251 209/3/251
f 410/1/252 173/1/252 599/1/252
f 352/3/253 286/3/253 494/3/253
f 347/2/254 300/2/254 353/2/254
f 573/3/255 23/3/255 245/3/255
f 573/3/256 436/3/256 23/3/256
f 262/3/257 573/3/257 496/3/257
f 132/1/258 228/1/258 498/1/258
f 335/3/259 201/3/259 245/3/259
f 433/1/260 288/1/260 154/1/260
f 294/1/261 370/1/261 247/1/261
f 597/1/262 64/1/262 247/1/262
f 88/1/263 171/1/263 563/1/263
f 417/1/264 545/1/264 116/1/264
f 107/1/265 330/1/265 500/1/265
f 338/4/266 29/4/266 188/4/266
f 530/4/267 280/4/267 169/4/267
f 331/1/268 222/1/268 504/1/268
f 323/1/269 331/1/269 298/1/269
f 60/1/270 319/1/270 168/1/270
f 191/3/271 388/3/271 53/3/271
f 313/3/272 471/3/272 53/3/272
f 257/3/273 253/3/273 125/3/273
f 3/3/274 110/3/274 225/3/274
f 117/1/275 171/1/275 64/1/275
f 39/2/276 67/2/276 350/2/276
f 477/2/277 351/2/277 54/2/277
f 293/3/278 372/3/278 395/3/278
f 163/3/279 509/3/279 372/3/279
f 510/3/280 382/3/280 162/3/280
f 10/2/281 256/2/281 480/2/281
f 399/3/282 525/3/282 63/3/282
f 533/1/283 159/1/283 236/1/283
f 533/1/284 114/1/284 159/1/284
f 62/1/285 30/1/285 571/1/285
f 206/1/286 401/1/286 263/1/286
f 120/1/287 31/1/287 393/1/287
f 288/1/288 32/1/288 8/1/288
f 154/1/289 288/1/289 108/1/289
f 288/1/290 8/1/290 108/1/290
f 545/1/291 431/1/291 516/1/291
f 545/1/292 516/1/292 289/1/292
f 72/3/293 430/3/293 153/3/293
f 46/3/294 153/3/294 517/3/294
f 519/3/295 43/3/295 153/3/295
f 215/3/296 377/3/296 429/3/296
f 570/2/297 520/2/297 383/2/297
f 306/2/298 383/2/298 520/2/298
f 47/3/299 43/3/299 38/3/299
f 92/3/300 16/3/300 287/3/300
f 170/1/301 455/1/301 565/1/301
f 140/2/302 151/2/302 449/2/302
f 7/2/303 179/2/303 45/2/303
f 598/2/304 310/2/304 251/2/304
f 104/1/305 11/1/305 265/1/305
f 412/1/306 284/1/306 132/1/306
f 134/1/307 457/1/307 309/1/307
f 48/1/308 89/1/308 453/1/308
f 451/1/309 147/1/309 89/1/309
f 336/1/310 581/1/310 27/1/310
f 178/1/311 235/1/311 282/1/311
f 601/1/312 421/1/312 420/1/312
f 601/1/313 527/1/313 421/1/313
f 56/1/314 182/1/314 589/1/314
f 41/1/315 589/1/315 420/1/315
f 1/4/316 315/4/316 281/4/316
f 463/4/317 531/4/317 530/4/317
f 1/4/318 501/4/318 531/4/318
f 100/4/319 160/4/319 144/4/319
f 464/1/320 434/1/320 236/1/320
f 451/1/321 127/1/321 231/1/321
f 310/2/322 598/2/322 185/2/322
f 79/3/323 366/3/323 187/3/323
f 440/3/324 539/3/324 190/3/324
f 251/3/325 301/3/325 209/3/325
f 155/4/326 31/4/326 307/4/326
f 545/4/327 417/4/327 546/4/327
f 417/4/328 261/4/328 555/4/328
f 318/4/329 587/4/329 547/4/329
f 138/4/330 136/4/330 550/4/330
f 585/4/331 186/4/331 139/4/331
f 363/4/332 270/4/332 123/4/332
f 97/4/333 416/4/333 553/4/333
f 6/4/334 97/4/334 553/4/334
f 584/4/335 349/4/335 554/4/335
f 173/4/336 584/4/336 583/4/336
f 234/1/337 557/1/337 359/1/337
f 359/1/338 268/1/338 105/1/338
f 445/1/339 359/1/339 105/1/339
f 485/1/340 267/1/340 357/1/340
f 391/1/341 4/1/341 135/1/341
f 435/1/342 360/1/342 135/1/342
f 579/1/343 284/1/343 6/1/343
f 33/1/344 85/1/344 101/1/344
f 559/1/345 599/1/345 214/1/345
f 432/1/346 211/1/346 21/1/346
f 365/1/347 561/1/347 485/1/347
f 365/1/348 408/1/348 561/1/348
f 355/1/349 104/1/349 265/1/349
f 156/1/350 457/1/350 134/1/350
f 481/1/351 407/1/351 211/1/351
f 407/1/352 8/1/352 21/1/352
f 243/1/353 294/1/353 87/1/353
f 408/1/354 87/1/354 563/1/354
f 409/1/355 171/1/355 564/1/355
f 11/1/356 242/1/356 406/1/356
f 265/1/357 11/1/357 406/1/357
f 9/1/358 292/1/358 133/1/358
f 292/1/359 493/1/359 133/1/359
f 96/1/360 133/1/360 132/1/360
f 600/1/361 26/1/361 232/1/361
f 210/1/362 404/1/362 516/1/362
f 285/1/363 131/1/363 52/1/363
f 99/2/364 22/2/364 50/2/364
f 10/2/365 523/2/365 302/2/365
f 193/3/366 18/3/366 369/3/366
f 193/3/367 129/3/367 81/3/367
f 81/3/368 129/3/368 16/3/368
f 525/3/369 348/3/369 495/3/369
f 262/3/370 575/3/370 574/3/370
f 574/3/371 573/3/371 262/3/371
f 450/3/372 521/3/372 110/3/372
f 474/3/373 225/3/373 521/3/373
f 450/3/374 110/3/374 221/3/374
f 3/3/375 225/3/375 113/3/375
f 193/3/376 113/3/376 225/3/376
f 92/3/377 46/3/377 460/3/377
f 460/3/378 42/3/378 328/3/378
f 460/3/379 24/3/379 42/3/379
f 328/3/380 18/3/380 193/3/380
f 215/3/381 258/3/381 223/3/381
f 428/3/382 43/3/382 519/3/382
f 470/1/383 25/1/383 263/1/383
f 5/1/384 30/1/384 572/1/384
f 384/2/385 44/2/385 522/2/385
f 469/1/386 571/1/386 401/1/386
f 571/1/387 157/1/387 62/1/387
f 453/1/388 325/1/388 59/1/388
f 48/1/389 453/1/389 59/1/389
f 48/1/390 59/1/390 128/1/390
f 69/1/391 59/1/391 325/1/391
f 439/2/392 71/2/392 374/2/392
f 69/1/393 381/1/393 322/1/393
f 322/1/394 385/1/394 203/1/394
f 54/2/395 351/2/395 200/2/395
f 383/2/396 304/2/396 326/2/396
f 402/1/397 177/1/397 75/1/397
f 75/1/398 177/1/398 403/1/398
f 529/1/399 95/1/399 219/1/399
f 95/1/400 227/1/400 219/1/400
f 227/1/401 358/1/401 219/1/401
f 404/1/402 260/1/402 61/1/402
f 296/1/403 260/1/403 404/1/403
f 332/1/404 290/1/404 297/1/404
f 290/1/405 332/1/405 568/1/405
f 483/1/406 68/1/406 482/1/406
f 405/1/407 567/1/407 397/1/407
f 567/1/408 106/1/408 397/1/408
f 26/1/409 84/1/409 232/1/409
f 26/1/410 368/1/410 84/1/410
f 132/1/411 133/1/411 228/1/411
f 9/1/412 133/1/412 216/1/412
f 66/1/413 406/1/413 566/1/413
f 409/1/414 564/1/414 455/1/414
f 87/1/415 294/1/415 563/1/415
f 120/1/416 393/1/416 184/1/416
f 487/1/417 184/1/417 393/1/417
f 184/1/418 222/1/418 323/1/418
f 14/1/419 13/1/419 297/1/419
f 134/1/420 40/1/420 229/1/420
f 336/1/421 27/1/421 12/1/421
f 40/1/422 526/1/422 27/1/422
f 526/1/423 12/1/423 27/1/423
f 40/1/424 134/1/424 526/1/424
f 33/1/425 577/1/425 226/1/425
f 378/1/426 411/1/426 577/1/426
f 579/1/427 216/1/427 96/1/427
f 9/1/428 216/1/428 579/1/428
f 360/1/429 213/1/429 391/1/429
f 562/1/430 360/1/430 292/1/430
f 562/1/431 213/1/431 360/1/431
f 98/1/432 561/1/432 266/1/432
f 485/1/433 561/1/433 98/1/433
f 561/1/434 170/1/434 580/1/434
f 57/1/435 170/1/435 561/1/435
f 408/1/436 57/1/436 561/1/436
f 345/1/437 578/1/437 365/1/437
f 578/1/438 87/1/438 365/1/438
f 455/1/439 57/1/439 409/1/439
f 171/1/440 409/1/440 499/1/440
f 294/1/441 295/1/441 370/1/441
f 327/1/442 560/1/442 211/1/442
f 432/1/443 327/1/443 211/1/443
f 380/1/444 189/1/444 155/1/444
f 189/1/445 487/1/445 155/1/445
f 560/1/446 168/1/446 481/1/446
f 211/1/447 560/1/447 481/1/447
f 331/1/448 504/1/448 118/1/448
f 504/1/449 189/1/449 29/1/449
f 214/1/450 91/1/450 559/1/450
f 283/1/451 411/1/451 308/1/451
f 283/1/452 308/1/452 389/1/452
f 284/1/453 412/1/453 97/1/453
f 435/1/454 135/1/454 339/1/454
f 135/1/455 558/1/455 339/1/455
f 213/1/456 217/1/456 4/1/456
f 186/1/457 267/1/457 456/1/457
f 456/1/458 267/1/458 234/1/458
f 357/1/459 267/1/459 186/1/459
f 357/1/460 361/1/460 485/1/460
f 268/1/461 359/1/461 414/1/461
f 507/1/462 556/1/462 303/1/462
f 274/1/463 327/1/463 386/1/463
f 274/1/464 199/1/464 441/1/464
f 274/1/465 441/1/465 327/1/465
f 441/1/466 121/1/466 60/1/466
f 334/1/467 118/1/467 338/1/467
f 196/4/468 582/4/468 586/4/468
f 356/4/469 17/4/469 581/4/469
f 415/4/470 17/4/470 356/4/470
f 415/4/471 356/4/471 196/4/471
f 330/4/472 555/4/472 28/4/472
f 173/4/473 583/4/473 214/4/473
f 583/4/474 584/4/474 269/4/474
f 269/4/475 584/4/475 554/4/475
f 554/4/476 240/4/476 34/4/476
f 240/4/477 349/4/477 363/4/477
f 582/4/478 254/4/478 270/4/478
f 553/4/479 584/4/479 20/4/479
f 584/4/480 553/4/480 416/4/480
f 416/4/481 349/4/481 584/4/481
f 416/4/482 363/4/482 349/4/482
f 137/4/483 552/4/483 6/4/483
f 137/4/484 6/4/484 553/4/484
f 183/4/485 321/4/485 416/4/485
f 97/4/486 183/4/486 416/4/486
f 416/4/487 270/4/487 363/4/487
f 270/4/488 416/4/488 551/4/488
f 551/4/489 586/4/489 270/4/489
f 551/4/490 103/4/490 586/4/490
f 217/4/491 489/4/491 103/4/491
f 585/4/492 586/4/492 103/4/492
f 489/4/493 248/4/493 585/4/493
f 137/4/494 248/4/494 489/4/494
f 248/4/495 250/4/495 140/4/495
f 139/4/496 488/4/496 585/4/496
f 138/4/497 320/4/497 186/4/497
f 138/4/498 550/4/498 320/4/498
f 105/4/499 444/4/499 555/4/499
f 444/4/500 105/4/500 268/4/500
f 136/4/501 548/4/501 141/4/501
f 547/4/502 141/4/502 548/4/502
f 250/4/503 142/4/503 318/4/503
f 142/4/504 386/4/504 318/4/504
f 444/4/505 546/4/505 555/4/505
f 546/4/506 117/4/506 271/4/506
f 117/4/507 64/4/507 271/4/507
f 545/4/508 546/4/508 271/4/508
f 544/4/509 272/4/509 93/4/509
f 543/4/510 545/4/510 271/4/510
f 544/4/511 587/4/511 37/4/511
f 544/4/512 543/4/512 272/4/512
f 544/4/513 143/4/513 543/4/513
f 142/4/514 502/4/514 274/4/514
f 443/4/515 261/4/515 417/4/515
f 443/4/516 334/4/516 261/4/516
f 542/4/517 307/4/517 31/4/517
f 387/4/518 307/4/518 542/4/518
f 299/4/519 588/4/519 387/4/519
f 121/4/520 588/4/520 299/4/520
f 100/4/521 144/4/521 511/4/521
f 144/4/522 367/4/522 511/4/522
f 459/3/523 15/3/523 63/3/523
f 287/3/524 152/3/524 377/3/524
f 153/3/525 92/3/525 377/3/525
f 92/3/526 287/3/526 377/3/526
f 201/3/527 335/3/527 541/3/527
f 76/3/528 194/3/528 241/3/528
f 468/3/529 471/3/529 313/3/529
f 275/3/530 195/3/530 424/3/530
f 73/3/531 209/3/531 301/3/531
f 372/3/532 73/3/532 70/3/532
f 372/3/533 70/3/533 163/3/533
f 430/3/534 72/3/534 472/3/534
f 19/3/535 430/3/535 472/3/535
f 191/3/536 505/3/536 388/3/536
f 256/3/537 523/3/537 480/3/537
f 256/3/538 73/3/538 523/3/538
f 275/3/539 480/3/539 523/3/539
f 122/3/540 112/3/540 275/3/540
f 2/3/541 347/3/541 259/3/541
f 38/3/542 592/3/542 538/3/542
f 197/3/543 337/3/543 366/3/543
f 366/3/544 79/3/544 197/3/544
f 79/3/545 187/3/545 342/3/545
f 179/2/546 310/2/546 185/2/546
f 205/2/547 522/2/547 277/2/547
f 522/2/548 300/2/548 277/2/548
f 537/2/549 312/2/549 145/2/549
f 238/2/550 7/2/550 329/2/550
f 147/1/551 451/1/551 231/1/551
f 158/1/552 231/1/552 127/1/552
f 532/2/553 350/2/553 249/2/553
f 532/2/554 39/2/554 350/2/554
f 433/1/555 594/1/555 288/1/555
f 530/4/556 531/4/556 280/4/556
f 91/1/557 281/1/557 589/1/557
f 281/4/558 315/4/558 56/4/558
f 281/4/559 56/4/559 589/4/559
f 589/1/560 529/1/560 420/1/560
f 589/1/561 182/1/561 529/1/561
f 392/1/562 528/1/562 470/1/562
f 529/1/563 182/1/563 95/1/563
f 40/1/564 415/1/564 229/1/564
f 41/1/565 279/1/565 559/1/565
f 559/1/566 305/1/566 86/1/566
f 75/1/567 198/1/567 421/1/567
f 212/1/568 282/1/568 392/1/568
f 421/1/569 235/1/569 178/1/569
f 527/1/570 235/1/570 421/1/570
f 527/1/571 601/1/571 115/1/571
f 581/1/572 17/1/572 27/1/572
f 27/1/573 17/1/573 40/1/573
f 90/1/574 126/1/574 12/1/574
f 402/1/575 231/1/575 177/1/575
f 567/1/576 134/1/576 309/1/576
f 254/1/577 33/1/577 101/1/577
f 132/1/578 284/1/578 96/1/578
f 586/1/579 104/1/579 355/1/579
f 494/3/580 422/3/580 352/3/580
f 352/3/581 422/3/581 590/3/581
f 49/3/582 286/3/582 524/3/582
f 286/3/583 495/3/583 497/3/583
f 241/3/584 194/3/584 423/3/584
f 424/3/585 195/3/585 148/3/585
f 195/3/586 76/3/586 148/3/586
f 275/3/587 112/3/587 195/3/587
f 329/2/588 7/2/588 45/2/588
f 353/2/589 300/2/589 2/2/589
f 522/2/590 2/2/590 300/2/590
f 329/2/591 426/2/591 238/2/591
f 426/2/592 534/2/592 478/2/592
f 365/1/593 316/1/593 345/1/593
f 316/1/594 150/1/594 345/1/594
f 150/1/595 549/1/595 345/1/595
f 136/1/596 449/1/596 427/1/596
f 534/2/597 151/2/597 478/2/597
f 311/2/598 478/2/598 151/2/598
f 249/2/599 570/2/599 477/2/599
f 287/3/600 221/3/600 152/3/600
f 521/3/601 287/3/601 16/3/601
f 521/3/602 450/3/602 221/3/602
f 521/3/603 16/3/603 474/3/603
f 592/3/604 38/3/604 428/3/604
f 38/3/605 43/3/605 428/3/605
f 306/2/606 520/2/606 99/2/606
f 306/2/607 99/2/607 50/2/607
f 520/2/608 230/2/608 99/2/608
f 215/3/609 175/3/609 377/3/609
f 452/3/610 252/3/610 38/3/610
f 230/2/611 518/2/611 22/2/611
f 72/3/612 43/3/612 47/3/612
f 337/3/613 72/3/613 47/3/613
f 153/3/614 430/3/614 517/3/614
f 374/2/615 473/2/615 79/2/615
f 473/2/616 197/2/616 79/2/616
f 587/1/617 515/1/617 32/1/617
f 587/1/618 32/1/618 288/1/618
f 290/1/619 83/1/619 154/1/619
f 393/1/620 155/1/620 487/1/620
f 394/1/621 5/1/621 572/1/621
f 401/1/622 74/1/622 263/1/622
f 220/1/623 26/1/623 375/1/623
f 26/1/624 176/1/624 375/1/624
f 403/1/625 177/1/625 375/1/625
f 571/1/626 469/1/626 157/1/626
f 465/1/627 381/1/627 246/1/627
f 381/1/628 69/1/628 157/1/628
f 381/1/629 157/1/629 246/1/629
f 33/1/630 124/1/630 397/1/630
f 128/1/631 203/1/631 127/1/631
f 378/1/632 106/1/632 513/1/632
f 512/1/633 410/1/633 595/1/633
f 512/1/634 584/1/634 410/1/634
f 595/1/635 358/1/635 340/1/635
f 379/1/636 512/1/636 595/1/636
f 236/1/637 159/1/637 291/1/637
f 511/4/638 367/4/638 160/4/638
f 511/4/639 160/4/639 100/4/639
f 123/1/640 577/1/640 411/1/640
f 123/1/641 411/1/641 363/1/641
f 213/1/642 562/1/642 161/1/642
f 213/1/643 161/1/643 78/1/643
f 525/3/644 317/3/644 63/3/644
f 107/1/645 105/1/645 330/1/645
f 105/1/646 566/1/646 445/1/646
f 218/1/647 52/1/647 131/1/647
f 574/3/648 382/3/648 573/3/648
f 574/3/649 204/3/649 162/3/649
f 596/3/650 162/3/650 344/3/650
f 23/3/651 509/3/651 163/3/651
f 23/3/652 163/3/652 437/3/652
f 436/3/653 382/3/653 510/3/653
f 436/3/654 510/3/654 509/3/654
f 347/2/655 44/2/655 277/2/655
f 347/2/656 2/2/656 44/2/656
f 491/2/657 277/2/657 44/2/657
f 491/2/658 44/2/658 384/2/658
f 372/3/659 509/3/659 354/3/659
f 384/2/660 293/2/660 396/2/660
f 396/2/661 293/2/661 395/2/661
f 508/2/662 54/2/662 491/2/662
f 437/3/663 163/3/663 259/3/663
f 70/3/664 259/3/664 163/3/664
f 111/2/665 351/2/665 477/2/665
f 51/2/666 67/2/666 239/2/666
f 239/2/667 67/2/667 39/2/667
f 239/2/668 39/2/668 438/2/668
f 318/2/669 164/2/669 80/2/669
f 80/2/670 164/2/670 438/2/670
f 350/2/671 67/2/671 207/2/671
f 442/1/672 117/1/672 444/1/672
f 564/1/673 171/1/673 117/1/673
f 486/1/674 93/1/674 364/1/674
f 58/3/675 400/3/675 448/3/675
f 448/3/676 429/3/676 58/3/676
f 215/3/677 165/3/677 258/3/677
f 165/3/678 166/3/678 258/3/678
f 576/2/679 506/2/679 346/2/679
f 576/2/680 346/2/680 278/2/680
f 167/2/681 343/2/681 506/2/681
f 243/1/682 295/1/682 294/1/682
f 369/3/683 113/3/683 193/3/683
f 77/3/684 187/3/684 366/3/684
f 77/2/685 71/2/685 439/2/685
f 343/2/686 439/2/686 145/2/686
f 342/3/687 257/3/687 539/3/687
f 257/3/688 505/3/688 539/3/688
f 257/3/689 125/3/689 505/3/689
f 190/3/690 539/3/690 191/3/690
f 313/3/691 53/3/691 224/3/691
f 388/3/692 18/3/692 224/3/692
f 323/1/693 296/1/693 184/1/693
f 446/1/694 324/1/694 387/1/694
f 319/1/695 237/1/695 168/1/695
f 237/1/696 482/1/696 168/1/696
f 482/1/697 68/1/697 168/1/697
f 60/1/698 168/1/698 560/1/698
f 60/1/699 560/1/699 441/1/699
f 331/1/700 323/1/700 222/1/700
f 334/1/701 298/1/701 331/1/701
f 237/1/702 299/1/702 13/1/702
f 121/1/703 299/1/703 319/1/703
f 299/1/704 237/1/704 319/1/704
f 237/1/705 14/1/705 503/1/705
f 199/1/706 121/1/706 441/1/706
f 261/4/707 169/4/707 280/4/707
f 119/4/708 530/4/708 169/4/708
f 118/1/709 29/1/709 338/1/709
f 188/1/710 29/1/710 189/1/710
f 119/4/711 588/4/711 502/4/711
f 196/4/712 28/4/712 501/4/712
f 261/4/713 501/4/713 28/4/713
f 566/1/714 107/1/714 66/1/714
f 61/1/715 260/1/715 116/1/715
f 565/1/716 442/1/716 170/1/716
f 298/1/717 443/1/717 260/1/717
f 334/1/718 443/1/718 298/1/718
f 442/1/719 444/1/719 414/1/719
f 52/1/720 445/1/720 208/1/720
f 124/1/721 126/1/721 90/1/721
f 563/1/722 171/1/722 499/1/722
f 88/1/723 247/1/723 64/1/723
f 106/1/724 33/1/724 397/1/724
f 83/1/725 568/1/725 446/1/725
f 446/1/726 37/1/726 154/1/726
f 14/1/727 297/1/727 503/1/727
f 245/3/728 201/3/728 524/3/728
f 259/3/729 347/3/729 447/3/729
f 132/1/730 498/1/730 412/1/730
f 573/3/731 245/3/731 398/3/731
f 23/3/732 335/3/732 245/3/732
f 347/2/733 277/2/733 300/2/733
f 492/1/734 427/1/734 109/1/734
f 492/1/735 136/1/735 427/1/735
f 286/3/736 418/3/736 494/3/736
f 541/3/737 102/3/737 301/3/737
f 492/1/738 376/1/738 556/1/738
f 113/3/739 448/3/739 400/3/739
f 390/3/740 174/3/740 448/3/740
f 448/3/741 174/3/741 419/3/741
f 174/3/742 253/3/742 419/3/742
f 419/3/743 253/3/743 540/3/743
f 256/2/744 598/2/744 251/2/744
f 209/2/745 256/2/745 251/2/745
f 205/2/746 302/2/746 522/2/746
f 185/2/747 205/2/747 45/2/747
f 491/2/748 45/2/748 205/2/748
f 239/2/749 303/2/749 534/2/749
f 51/2/750 239/2/750 534/2/750
f 65/3/751 390/3/751 369/3/751
f 390/3/752 65/3/752 388/3/752
f 390/3/753 388/3/753 125/3/753
f 419/3/754 175/3/754 215/3/754
f 175/3/755 540/3/755 593/3/755
f 540/3/756 538/3/756 593/3/756
f 128/1/757 89/1/757 48/1/757
f 278/2/758 304/2/758 576/2/758
f 278/2/759 67/2/759 304/2/759
f 198/1/760 264/1/760 305/1/760
f 514/1/761 490/1/761 264/1/761
f 490/1/762 305/1/762 264/1/762
f 166/3/763 223/3/763 258/3/763
f 175/3/764 593/3/764 592/3/764
f 306/2/765 130/2/765 383/2/765
f 506/2/766 576/2/766 306/2/766
f 176/1/767 264/1/767 198/1/767
f 538/3/768 452/3/768 38/3/768
f 538/3/769 77/3/769 452/3/769
f 77/2/770 343/2/770 167/2/770
f 146/1/771 375/1/771 158/1/771
f 374/2/772 79/2/772 233/2/772
f 233/2/773 79/2/773 342/2/773
f 453/1/774 244/1/774 212/1/774
f 282/1/775 147/1/775 178/1/775
f 30/1/776 62/1/776 453/1/776
f 537/2/777 145/2/777 439/2/777
f 114/1/778 146/1/778 333/1/778
f 533/1/779 454/1/779 114/1/779
f 192/1/780 572/1/780 392/1/780
f 392/1/781 235/1/781 528/1/781
f 234/1/782 218/1/782 456/1/782
f 218/1/783 131/1/783 285/1/783
f 456/1/784 104/1/784 488/1/784
f 120/1/785 431/1/785 143/1/785
f 184/1/786 210/1/786 120/1/786
f 486/1/787 364/1/787 295/1/787
f 243/1/788 486/1/788 295/1/788
f 485/1/789 361/1/789 365/1/789
f 316/1/790 365/1/790 361/1/790
f 316/1/791 357/1/791 320/1/791
f 357/1/792 186/1/792 320/1/792
f 309/1/793 389/1/793 513/1/793
f 240/1/794 389/1/794 457/1/794
f 457/1/795 34/1/795 240/1/795
f 283/1/796 240/1/796 363/1/796
f 482/1/797 569/1/797 483/1/797
f 165/3/798 215/3/798 223/3/798
f 179/2/799 10/2/799 310/2/799
f 507/1/800 164/1/800 318/1/800
f 459/3/801 422/3/801 15/3/801
f 422/3/802 479/3/802 15/3/802
f 596/3/803 362/3/803 354/3/803
f 508/2/804 122/2/804 179/2/804
f 179/2/805 7/2/805 508/2/805
f 477/2/806 238/2/806 478/2/806
f 249/2/807 477/2/807 478/2/807
f 80/2/808 311/2/808 140/2/808
f 9/1/809 579/1/809 552/1/809
f 9/1/810 552/1/810 161/1/810
f 78/1/811 161/1/811 552/1/811
f 489/1/812 78/1/812 552/1/812
f 204/3/813 94/3/813 476/3/813
f 476/3/814 94/3/814 180/3/814
f 476/3/815 180/3/815 475/3/815
f 317/3/816 459/3/816 63/3/816
f 180/3/817 63/3/817 371/3/817
f 181/3/818 371/3/818 76/3/818
f 396/3/819 395/3/819 112/3/819
f 395/3/820 341/3/820 112/3/820
f 112/3/821 122/3/821 396/3/821
f 181/3/822 195/3/822 112/3/822
f 149/3/823 181/3/823 55/3/823
f 520/2/824 535/2/824 207/2/824
f 233/2/825 473/2/825 536/2/825
f 233/2/826 197/2/826 473/2/826
f 366/3/827 47/3/827 252/3/827
f 366/2/828 312/2/828 71/2/828
f 312/2/829 366/2/829 518/2/829
f 473/2/830 71/2/830 537/2/830
f 71/2/831 312/2/831 537/2/831
f 81/3/832 92/3/832 460/3/832
f 472/3/833 72/3/833 337/3/833
f 471/3/834 19/3/834 190/3/834
f 190/3/835 19/3/835 36/3/835
f 157/1/836 469/1/836 206/1/836
f 313/3/837 42/3/837 24/3/837
f 465/1/838 246/1/838 115/1/838
f 465/1/839 115/1/839 466/1/839
f 466/1/840 601/1/840 373/1/840
f 466/1/841 373/1/841 464/1/841
f 340/1/842 227/1/842 314/1/842
f 340/1/843 314/1/843 35/1/843
f 95/1/844 461/1/844 227/1/844
f 461/1/845 182/1/845 56/1/845
f 462/1/846 461/1/846 56/1/846
f 462/4/847 315/4/847 20/4/847
f 502/4/848 315/4/848 463/4/848
f 463/4/849 315/4/849 1/4/849
f 502/4/850 20/4/850 315/4/850
f 379/1/851 462/1/851 20/1/851
f 464/1/852 373/1/852 219/1/852
f 464/1/853 219/1/853 358/1/853
f 236/1/854 291/1/854 466/1/854
f 471/3/855 468/3/855 19/3/855
f 5/1/856 74/1/856 401/1/856
f 472/3/857 337/3/857 36/3/857
f 440/2/858 197/2/858 233/2/858
f 207/2/859 535/2/859 249/2/859
f 180/3/860 371/3/860 475/3/860
f 438/2/861 311/2/861 80/2/861
f 54/2/862 238/2/862 477/2/862
f 423/3/863 63/3/863 479/3/863
f 63/3/864 15/3/864 479/3/864
f 590/3/865 422/3/865 459/3/865
f 316/1/866 361/1/866 357/1/866
f 11/1/867 104/1/867 242/1/867
f 282/1/868 235/1/868 392/1/868
f 176/1/869 600/1/869 514/1/869
f 75/1/870 403/1/870 198/1/870
f 403/1/871 176/1/871 198/1/871
f 576/2/872 130/2/872 306/2/872
f 326/2/873 67/2/873 51/2/873
f 128/1/874 127/1/874 89/1/874
f 86/1/875 599/1/875 559/1/875
f 491/2/876 329/2/876 45/2/876
f 73/2/877 384/2/877 302/2/877
f 125/3/878 174/3/878 390/3/878
f 202/3/879 390/3/879 448/3/879
f 58/3/880 429/3/880 152/3/880
f 376/1/881 492/1/881 109/1/881
f 262/3/882 496/3/882 497/3/882
f 569/1/883 503/1/883 172/1/883
f 299/1/884 387/1/884 324/1/884
f 387/1/885 37/1/885 446/1/885
f 85/1/886 254/1/886 101/1/886
f 116/1/887 545/1/887 289/1/887
f 260/1/888 443/1/888 116/1/888
f 107/1/889 500/1/889 66/1/889
f 568/1/890 324/1/890 446/1/890
f 536/2/891 374/2/891 233/2/891
f 253/3/892 257/3/892 276/3/892
f 370/1/893 295/1/893 272/1/893
f 77/3/894 366/3/894 71/3/894
f 343/2/895 77/2/895 439/2/895
f 202/3/896 113/3/896 369/3/896
f 278/2/897 207/2/897 67/2/897
f 164/2/898 303/2/898 239/2/898
f 395/3/899 372/3/899 354/3/899
f 162/3/900 204/3/900 344/3/900
f 255/3/901 162/3/901 596/3/901
f 359/1/902 218/1/902 234/1/902
f 84/1/903 368/1/903 595/1/903
f 220/1/904 434/1/904 464/1/904
f 454/1/905 434/1/905 220/1/905
f 128/1/906 59/1/906 203/1/906
f 34/1/907 457/1/907 156/1/907
f 571/1/908 30/1/908 5/1/908
f 31/1/909 155/1/909 393/1/909
f 8/1/910 68/1/910 483/1/910
f 8/1/911 483/1/911 172/1/911
f 172/1/912 483/1/912 569/1/912
f 8/1/913 172/1/913 108/1/913
f 594/1/914 433/1/914 37/1/914
f 37/1/915 433/1/915 154/1/915
f 446/1/916 154/1/916 83/1/916
f 210/1/917 431/1/917 120/1/917
f 312/2/918 518/2/918 230/2/918
f 377/3/919 175/3/919 519/3/919
f 429/3/920 377/3/920 152/3/920
f 535/2/921 520/2/921 570/2/921
f 534/2/922 449/2/922 151/2/922
f 478/2/923 238/2/923 426/2/923
f 425/3/924 447/3/924 353/3/924
f 45/2/925 179/2/925 185/2/925
f 102/3/926 541/3/926 335/3/926
f 234/1/927 267/1/927 98/1/927
f 399/3/928 591/3/928 458/3/928
f 251/2/929 310/2/929 148/2/929
f 575/3/930 458/3/930 591/3/930
f 148/3/931 241/3/931 201/3/931
f 579/1/932 96/1/932 284/1/932
f 89/1/933 244/1/933 453/1/933
f 336/1/934 12/1/934 126/1/934
f 147/1/935 244/1/935 89/1/935
f 467/1/936 25/1/936 470/1/936
f 467/1/937 470/1/937 528/1/937
f 41/1/938 305/1/938 279/1/938
f 41/1/939 420/1/939 305/1/939
f 305/1/940 420/1/940 198/1/940
f 463/4/941 530/4/941 82/4/941
f 491/2/942 205/2/942 277/2/942
f 337/3/943 47/3/943 366/3/943
f 190/3/944 36/3/944 440/3/944
f 301/3/945 102/3/945 73/3/945
f 215/3/946 429/3/946 419/3/946
f 387/4/947 542/4/947 37/4/947
f 273/4/948 542/4/948 143/4/948
f 273/4/949 143/4/949 544/4/949
f 597/4/950 370/4/950 271/4/950
f 587/4/951 544/4/951 547/4/951
f 417/4/952 555/4/952 546/4/952
f 547/4/953 93/4/953 141/4/953
f 507/4/954 547/4/954 556/4/954
f 449/4/955 136/4/955 138/4/955
f 558/4/956 551/4/956 321/4/956
f 20/4/957 137/4/957 553/4/957
f 85/4/958 270/4/958 254/4/958
f 349/4/959 240/4/959 554/4/959
f 586/4/960 330/4/960 28/4/960
f 582/4/961 270/4/961 586/4/961
f 121/1/962 319/1/962 60/1/962
f 515/1/963 386/1/963 327/1/963
f 412/1/964 498/1/964 339/1/964
f 321/1/965 412/1/965 339/1/965
f 578/1/966 486/1/966 87/1/966
f 156/1/967 134/1/967 229/1/967
f 332/1/968 297/1/968 13/1/968
f 487/1/969 222/1/969 184/1/969
f 21/1/970 211/1/970 407/1/970
f 294/1/971 88/1/971 563/1/971
f 565/1/972 455/1/972 564/1/972
f 242/1/973 208/1/973 406/1/973
f 493/1/974 228/1/974 133/1/974
f 513/1/975 106/1/975 309/1/975
f 12/1/976 405/1/976 90/1/976
f 210/1/977 296/1/977 404/1/977
f 210/1/978 184/1/978 296/1/978
f 420/1/979 421/1/979 198/1/979
f 529/1/980 601/1/980 420/1/980
f 383/2/981 130/2/981 304/2/981
f 477/2/982 383/2/982 326/2/982
f 381/1/983 385/1/983 322/1/983
f 230/2/984 22/2/984 99/2/984
f 394/1/985 572/1/985 192/1/985
f 369/3/986 390/3/986 202/3/986
f 42/3/987 18/3/987 328/3/987
f 354/3/988 255/3/988 596/3/988
f 497/3/989 496/3/989 524/3/989
f 591/3/990 94/3/990 574/3/990
f 458/3/991 262/3/991 348/3/991
f 458/3/992 575/3/992 262/3/992
f 129/3/993 225/3/993 474/3/993
f 62/1/994 325/1/994 453/1/994
f 289/1/995 404/1/995 61/1/995
f 188/1/996 189/1/996 380/1/996
f 413/1/997 217/1/997 78/1/997
f 557/1/998 170/1/998 414/1/998
f 581/4/999 582/4/999 356/4/999
f 581/4/1000 126/4/1000 582/4/1000
f 502/4/1001 250/4/1001 137/4/1001
f 321/4/1002 551/4/1002 416/4/1002
f 140/4/1003 138/4/1003 248/4/1003
f 140/4/1004 449/4/1004 138/4/1004
f 37/4/1005 273/4/1005 544/4/1005
f 250/4/1006 502/4/1006 142/4/1006
f 1/4/1007 531/4/1007 463/4/1007
f 443/1/1008 417/1/1008 116/1/1008
f 333/1/1009 159/1/1009 114/1/1009
f 226/1/1010 577/1/1010 123/1/1010
f 200/2/1011 491/2/1011 54/2/1011
f 342/2/1012 539/2/1012 233/2/1012
f 188/4/1013 588/4/1013 119/4/1013
f 64/1/1014 171/1/1014 88/1/1014
f 290/1/1015 154/1/1015 108/1/1015
f 437/3/1016 259/3/1016 447/3/1016
f 534/2/1017 426/2/1017 111/2/1017
f 84/1/1018 599/1/1018 232/1/1018
f 514/1/1019 264/1/1019 176/1/1019
f 146/1/1020 114/1/1020 375/1/1020
f 579/1/1021 6/1/1021 552/1/1021
f 344/3/1022 204/3/1022 476/3/1022
f 570/2/1023 249/2/1023 535/2/1023
f 252/2/1024 518/2/1024 366/2/1024
f 601/1/1025 529/1/1025 373/1/1025
f 517/3/1026 430/3/1026 468/3/1026
f 354/3/1027 362/3/1027 395/3/1027
f 523/2/1028 10/2/1028 179/2/1028
f 345/1/1029 549/1/1029 484/1/1029
f 244/1/1030 147/1/1030 212/1/1030
f 49/3/1031 418/3/1031 286/3/1031
f 394/1/1032 263/1/1032 74/1/1032
f 17/1/1033 415/1/1033 40/1/1033
f 488/4/1034 586/4/1034 585/4/1034
f 4/4/1035 103/4/1035 558/4/1035
f 172/1/1036 297/1/1036 290/1/1036
f 360/1/1037 391/1/1037 135/1/1037
f 126/4/1038 124/4/1038 582/4/1038
f 217/4/1039 103/4/1039 4/4/1039
f 500/4/1040 330/4/1040 586/4/1040
f 479/3/1041 422/3/1041 418/3/1041
f 153/3/1042 46/3/1042 92/3/1042
f 84/1/1043 595/1/1043 410/1/1043
f 261/4/1044 334/4/1044 169/4/1044
f 111/2/1045 200/2/1045 351/2/1045
f 232/1/1046 86/1/1046 490/1/1046
f 149/3/1047 371/3/1047 181/3/1047
f 227/1/1048 461/1/1048 462/1/1048
f 532/2/1049 438/2/1049 39/2/1049
f 424/2/1050 148/2/1050 480/2/1050
f 504/1/1051 487/1/1051 189/1/1051
f 504/1/1052 222/1/1052 487/1/1052
f 375/1/1053 177/1/1053 158/1/1053
f 13/1/1054 324/1/1054 332/1/1054
f 510/3/1055 162/3/1055 255/3/1055
f 339/1/1056 228/1/1056 435/1/1056
f 325/1/1057 157/1/1057 69/1/1057
f 428/3/1058 519/3/1058 175/3/1058
f 144/4/1059 160/4/1059 367/4/1059
f 272/4/1060 271/4/1060 370/4/1060
f 556/4/1061 547/4/1061 548/4/1061
f 29/1/1062 118/1/1062 504/1/1062
f 455/1/1063 170/1/1063 57/1/1063
f 411/1/1064 378/1/1064 308/1/1064
f 10/2/1065 302/2/1065 598/2/1065
f 225/3/1066 110/3/1066 521/3/1066
f 503/1/1067 297/1/1067 172/1/1067
f 526/1/1068 405/1/1068 12/1/1068
f 285/1/1069 208/1/1069 242/1/1069
f 379/4/1070 584/4/1070 512/4/1070
f 49/3/1071 201/3/1071 241/3/1071
f 125/3/1072 388/3/1072 505/3/1072
f 230/2/1073 145/2/1073 312/2/1073
f 326/2/1074 111/2/1074 477/2/1074
f 88/1/1075 294/1/1075 247/1/1075
f 339/1/1076 498/1/1076 228/1/1076
f 538/3/1077 592/3/1077 593/3/1077
f 122/2/1078 523/2/1078 179/2/1078
f 591/3/1079 180/3/1079 94/3/1079
f 502/4/1080 463/4/1080 82/4/1080
f 423/3/1081 194/3/1081 76/3/1081
f 148/2/1082 310/2/1082 480/2/1082
f 578/1/1083 549/1/1083 93/1/1083
f 253/3/1084 276/3/1084 540/3/1084
f 540/3/1085 175/3/1085 419/3/1085
f 3/3/1086 400/3/1086 110/3/1086
f 437/3/1087 447/3/1087 23/3/1087
f 561/1/1088 580/1/1088 266/1/1088
f 65/3/1089 18/3/1089 388/3/1089
f 506/2/1090 343/2/1090 346/2/1090
f 127/1/1091 203/1/1091 158/1/1091
f 485/1/1092 98/1/1092 267/1/1092
f 586/1/1093 488/1/1093 104/1/1093
f 500/1/1094 586/1/1094 355/1/1094
f 581/1/1095 336/1/1095 126/1/1095
f 269/1/1096 229/1/1096 415/1/1096
f 386/4/1097 515/4/1097 587/4/1097
f 492/4/1098 548/4/1098 136/4/1098
f 549/4/1099 150/4/1099 320/4/1099
f 502/4/1100 137/4/1100 20/4/1100
f 292/1/1101 360/1/1101 493/1/1101
f 161/1/1102 562/1/1102 9/1/1102
f 408/1/1103 563/1/1103 57/1/1103
f 567/1/1104 405/1/1104 526/1/1104
f 354/3/1105 509/3/1105 255/3/1105
f 63/3/1106 180/3/1106 399/3/1106
f 348/3/1107 497/3/1107 495/3/1107
f 3/3/1108 113/3/1108 400/3/1108
f 400/3/1109 58/3/1109 152/3/1109
f 42/3/1110 224/3/1110 18/3/1110
f 246/1/1111 157/1/1111 206/1/1111
f 405/1/1112 397/1/1112 90/1/1112
f 57/1/1113 563/1/1113 499/1/1113
f 355/1/1114 265/1/1114 500/1/1114
f 265/1/1115 66/1/1115 500/1/1115
f 98/1/1116 266/1/1116 234/1/1116
f 486/1/1117 243/1/1117 87/1/1117
f 97/1/1118 412/1/1118 183/1/1118
f 139/1/1119 456/1/1119 488/1/1119
f 303/1/1120 376/1/1120 427/1/1120
f 555/4/1121 261/4/1121 28/4/1121
f 269/4/1122 554/4/1122 34/4/1122
f 85/4/1123 123/4/1123 270/4/1123
f 137/4/1124 489/4/1124 552/4/1124
f 550/4/1125 549/4/1125 320/4/1125
f 141/4/1126 93/4/1126 549/4/1126
f 250/4/1127 80/4/1127 140/4/1127
f 556/4/1128 548/4/1128 492/4/1128
f 250/4/1129 318/4/1129 80/4/1129
f 318/4/1130 547/4/1130 507/4/1130
f 444/4/1131 117/4/1131 546/4/1131
f 587/4/1132 594/4/1132 37/4/1132
f 502/4/1133 199/4/1133 274/4/1133
f 588/4/1134 188/4/1134 307/4/1134
f 502/4/1135 121/4/1135 199/4/1135
f 479/3/1136 241/3/1136 423/3/1136
f 418/3/1137 49/3/1137 241/3/1137
f 165/3/1138 202/3/1138 166/3/1138
f 181/3/1139 341/3/1139 55/3/1139
f 187/3/1140 276/3/1140 342/3/1140
f 236/1/1141 434/1/1141 533/1/1141
f 281/4/1142 214/4/1142 583/4/1142
f 281/4/1143 91/4/1143 214/4/1143
f 392/1/1144 470/1/1144 192/1/1144
f 235/1/1145 527/1/1145 528/1/1145
f 527/1/1146 115/1/1146 528/1/1146
f 590/3/1147 317/3/1147 525/3/1147
f 286/3/1148 497/3/1148 524/3/1148
f 241/3/1149 148/3/1149 76/3/1149
f 2/2/1150 73/2/1150 425/2/1150
f 70/2/1151 73/2/1151 2/2/1151
f 223/3/1152 166/3/1152 202/3/1152
f 8/1/1153 32/1/1153 21/1/1153
f 432/1/1154 21/1/1154 515/1/1154
f 108/1/1155 172/1/1155 290/1/1155
f 571/1/1156 5/1/1156 401/1/1156
f 378/1/1157 513/1/1157 308/1/1157
f 595/1/1158 340/1/1158 35/1/1158
f 385/1/1159 291/1/1159 159/1/1159
f 360/1/1160 435/1/1160 493/1/1160
f 10/2/1161 480/2/1161 310/2/1161
f 13/1/1162 14/1/1162 237/1/1162
f 169/4/1163 338/4/1163 188/4/1163
f 442/1/1164 414/1/1164 170/1/1164
f 447/3/1165 347/3/1165 353/3/1165
f 447/3/1166 425/3/1166 23/3/1166
f 400/3/1167 152/3/1167 221/3/1167
f 302/2/1168 384/2/1168 522/2/1168
f 452/2/1169 50/2/1169 22/2/1169
f 167/2/1170 50/2/1170 452/2/1170
f 231/1/1171 178/1/1171 147/1/1171
f 380/1/1172 155/1/1172 307/1/1172
f 165/3/1173 223/3/1173 202/3/1173
f 508/2/1174 238/2/1174 54/2/1174
f 249/2/1175 478/2/1175 532/2/1175
f 394/1/1176 470/1/1176 263/1/1176
f 263/1/1177 25/1/1177 467/1/1177
f 397/1/1178 124/1/1178 90/1/1178
f 588/4/1179 121/4/1179 502/4/1179
f 530/4/1180 119/4/1180 82/4/1180
f 324/1/1181 13/1/1181 299/1/1181
f 260/1/1182 323/1/1182 298/1/1182
f 203/1/1183 159/1/1183 333/1/1183
f 35/1/1184 227/1/1184 462/1/1184
f 62/1/1185 157/1/1185 325/1/1185
f 1/4/1186 281/4/1186 501/4/1186
f 538/3/1187 540/3/1187 276/3/1187
f 150/4/1188 316/4/1188 320/4/1188
f 583/4/1189 415/4/1189 196/4/1189
f 265/1/1190 406/1/1190 66/1/1190
f 290/1/1191 568/1/1191 83/1/1191
f 285/1/1192 52/1/1192 208/1/1192
f 482/1/1193 503/1/1193 569/1/1193
f 178/1/1194 402/1/1194 421/1/1194
f 204/3/1195 574/3/1195 94/3/1195
f 600/1/1196 232/1/1196 490/1/1196
f 269/4/1197 415/4/1197 583/4/1197
f 20/4/1198 584/4/1198 379/4/1198
f 338/4/1199 169/4/1199 334/4/1199
f 524/3/1200 201/3/1200 49/3/1200
f 24/3/1201 517/3/1201 468/3/1201
f 515/1/1202 21/1/1202 32/1/1202
f 598/2/1203 256/2/1203 10/2/1203
f 372/2/1204 293/2/1204 384/2/1204
f 495/3/1205 286/3/1205 352/3/1205
f 253/3/1206 174/3/1206 125/3/1206
