# Blender v2.76 (sub 0) OBJ File: 'untitled.blend'
# www.blender.org
mtllib untitled.mtl
o StoneGround
v -0.948426 7.775640 22.205372
v -22.321339 3.037431 0.373587
v 2.381117 6.294407 -18.410730
v 19.881170 10.750425 20.300402
v 15.334232 6.193233 -13.900420
v -16.376543 4.470150 10.686123
v 3.066664 8.259525 20.690722
v -11.322942 4.147357 22.270535
v 5.421785 8.925485 22.361317
v -11.679461 4.298917 -14.563593
v -4.259154 6.074219 13.080328
v -1.897698 7.808327 -7.538368
v -9.481374 5.421407 -3.029441
v 0.738367 10.765188 16.424744
v -14.882473 3.956051 -14.312642
v -17.879068 4.017571 -16.916193
v 3.266198 6.465946 -16.639681
v 11.607347 6.040803 -21.116562
v 16.451056 7.701350 -16.805630
v -22.060894 2.373329 11.721149
v -14.644825 4.565019 -14.489202
v -3.548319 4.815276 22.330206
v -21.806992 3.027804 -19.146748
v -14.192257 5.211855 -14.534749
v -2.294301 8.257348 18.443447
v -11.569932 4.345376 0.854968
v 22.214712 5.982142 -16.738794
v -1.625978 9.445741 -9.088243
v 0.363064 7.667567 21.806156
v -1.932853 6.448648 1.486253
v 2.084569 8.219160 12.032816
v -13.281957 4.540827 8.304596
v -1.845569 6.978937 -3.879480
v -2.284030 7.069462 -12.251885
v 5.939265 7.158594 -15.336782
v 4.052307 7.748333 22.226578
v -0.163998 9.341055 -11.556466
v -1.875496 9.136174 18.485914
v 20.476637 6.735183 -11.019746
v 22.432682 9.982893 10.525528
v 9.163412 10.374227 20.716532
v 11.378613 10.863494 16.491772
v 2.386835 10.662738 2.308779
v 20.107195 10.882172 18.398252
v 19.324600 11.679840 17.355032
v -12.717917 5.348067 6.157731
v -2.773559 7.000531 16.050415
v 9.945652 7.511378 -18.651966
v 1.142214 9.122780 18.121004
v 22.416615 8.808719 -1.599051
v 15.644558 10.392238 21.015472
v 2.249064 8.520409 9.607295
v 2.399609 9.760275 -10.762980
v -17.072477 5.615716 -18.240891
v 16.106874 12.207561 17.974834
v 20.356955 10.314201 -7.284810
v -2.047819 0.120273 -22.538652
v -18.496227 3.539504 20.612448
v -4.368662 6.519925 9.723563
v 11.024836 7.240345 -21.356302
v 10.243543 7.271563 -7.894694
v -13.250392 4.630216 -14.748680
v 16.226545 11.379758 14.159136
v -14.856604 4.749402 -14.261744
v -4.803306 5.599784 22.234612
v 14.126832 11.510296 16.602110
v -22.387314 3.583751 -12.106562
v -22.139751 2.825299 21.537241
v -21.644699 3.772921 11.967443
v -14.658870 5.684012 18.009762
v -14.547676 4.779240 -14.244979
v 1.112769 8.241792 -12.270611
v -20.897121 3.729056 0.699925
v 0.511026 9.686748 17.804646
v -1.613408 7.817387 14.422864
v 4.510288 0.068979 22.575941
v 2.350929 10.246127 14.205027
v 1.773330 7.960368 -17.740999
v -18.852907 3.482760 -21.189072
v 5.215956 8.097552 21.035143
v 15.692365 11.306129 20.121916
v -4.409309 6.274224 -18.047979
v -21.840513 3.608409 -16.503960
v -3.428007 7.271209 -10.295621
v 2.402072 8.631327 14.064878
v 12.545770 6.981380 -10.843558
v 12.249307 10.785608 -7.544394
v 7.652598 10.993772 14.771871
v -14.486698 5.413941 14.892634
v 22.392620 7.868750 -7.883960
v -4.915206 6.228095 -13.895408
v -6.691856 6.222291 1.928239
v -6.617338 6.061402 4.810444
v -7.217851 6.393428 6.408554
v -9.903403 5.013114 9.356553
v -7.795166 4.946295 17.295788
v -11.943832 4.198529 -6.607687
v -16.271162 3.999650 -2.237564
v -12.274002 4.367085 8.880347
v -1.941248 9.507303 14.824112
v -12.109865 4.465411 -15.491004
v -4.633398 6.411938 1.823963
v -1.385714 5.312817 22.688053
v 9.497979 7.981257 -11.281164
v 12.727687 11.645914 16.917715
v 9.636246 7.595496 -20.978653
v -1.599954 9.506903 -10.936475
v -16.019726 5.805516 15.390578
v -22.441055 2.173550 -21.839201
v 9.330663 6.101512 -21.128448
v -21.513365 3.783591 16.395617
v -0.732736 8.337214 -2.420846
v -0.087369 7.528363 -15.636907
v 13.508961 8.044511 -17.903284
v -0.972939 9.858662 18.399935
v 19.922306 11.131133 4.063948
v -16.056229 5.058831 14.606329
v -9.647775 5.467288 -6.606575
v -1.076743 8.894128 -7.987121
v -22.318668 3.719929 -21.933180
v -1.651622 5.303368 20.974865
v -21.742826 2.613525 14.394044
v 14.257401 7.544688 -19.634510
v -8.080017 5.142491 -18.019598
v -11.781033 5.308209 -6.526622
v -12.065361 5.319348 0.421972
v -12.475687 5.913591 -13.886040
v -3.366922 7.325746 -7.867543
v -21.910940 1.999107 12.913257
v -14.327164 5.713209 -14.079968
v 19.547073 5.817746 -22.129898
v -22.068485 2.244257 19.500494
v 9.617069 6.837446 -17.782080
v -14.729689 4.688749 -15.035308
v -13.473536 5.083302 -6.235757
v 2.513121 9.429050 -8.202250
v 22.328869 9.912080 22.461704
v -11.399721 4.562695 -10.480192
v -14.285206 3.802015 -14.733928
v -7.371069 5.593375 -22.304716
v 16.693027 12.622045 15.901583
v 22.663383 0.183120 -22.464386
v 16.430550 6.416978 -20.259865
v -15.923515 4.508308 -14.524613
v -17.094524 4.185889 15.524584
v 10.017756 6.569678 -15.726941
v 14.574461 11.564629 15.080326
v 19.215141 11.419096 14.614042
v 0.099619 8.538301 20.451059
v -10.624504 5.409821 -13.993451
v 18.477228 11.467801 18.415272
v -2.885863 8.009209 16.917780
v 16.256603 7.386091 -19.208824
v -18.792749 3.728151 -16.214399
v -6.634564 6.281569 12.514917
v 13.169770 7.335963 -16.367098
v -4.408184 5.998539 19.177023
v -12.062625 4.929335 4.124910
v -16.526533 4.294955 12.579196
v -13.512001 4.042267 21.100380
v -20.355766 3.926224 -22.009205
v -14.903357 5.064213 -18.545807
v 6.906291 6.320962 -16.570419
v 1.722701 7.278675 -12.089005
v -14.883047 4.135836 10.150071
v -9.287904 5.466701 20.359844
v 13.469878 4.285697 22.501488
v 17.612514 11.112919 19.210756
v 2.371344 7.419100 -15.674856
v -4.479373 7.171286 -15.953391
v -11.360900 4.206236 -21.985098
v -13.665553 4.050654 6.426932
v -13.247812 4.448930 9.595390
v -14.474469 4.142683 -14.568544
v -16.722521 5.155890 16.134731
v -22.014658 2.162302 17.070942
v -22.400402 2.995756 15.577660
v -22.485838 1.470268 -12.237322
v 17.908276 7.057097 -9.826450
v -2.478118 6.482906 -10.959343
v -6.713561 7.109838 9.408284
v -5.716032 6.944396 -5.207306
v 9.484307 6.736520 -12.314876
v 20.741253 8.041761 -6.879182
v -0.520477 8.322176 -16.759407
v -1.872791 9.979086 16.507278
v 17.519981 12.645354 16.956554
v 12.269466 6.151468 -12.707812
v 3.390315 5.381987 21.928730
v -11.755833 5.117496 6.921350
v -18.692734 3.754638 19.330532
v -15.316130 3.718431 22.509365
v -4.350469 5.439547 20.828100
v -3.734664 7.049384 -14.493567
v 1.841390 9.034509 -11.488836
v 13.562966 7.951354 -8.070268
v 5.413196 9.671713 20.867317
v 14.316664 6.732918 -15.676897
v -14.427974 4.241962 -13.849467
v -13.673884 4.688662 10.511012
v 16.938282 7.908322 -9.153963
v -2.050717 6.255304 14.715114
v -22.029337 3.897028 14.577997
v -14.516577 3.658838 -14.585946
v 21.857332 9.611257 2.445688
v -11.475903 5.025725 -18.090277
v -14.406916 4.534979 17.821304
v -22.304087 3.491330 -5.482946
v -22.293188 0.953348 22.423141
v -14.446099 4.536801 -15.156661
v -14.400751 4.754416 -14.470840
v -18.865913 3.226901 22.176399
v -15.007519 4.936409 19.247311
v -17.438156 5.475376 -15.809496
v 13.587689 9.959512 22.083454
v 17.335169 12.168694 18.707621
v 19.960133 6.284276 -13.619738
v -1.280678 8.546323 20.179014
v -14.581488 4.208642 -14.466657
v 5.318010 8.888044 -11.092994
v -6.874287 5.943687 -10.850159
v -18.831768 3.204670 -1.610642
v 22.526119 2.469703 -22.418304
v -2.278840 8.423693 -16.772934
v -11.483359 4.545154 3.054105
v -15.410625 3.471661 -22.242104
v -10.702919 4.842067 -22.369585
v 20.503227 10.055487 -1.966756
v 16.513655 6.710721 -16.862120
v -2.605542 8.107913 -18.801207
v -13.058835 4.457890 3.428890
v 11.175721 7.584003 -18.494213
v 22.454062 0.174335 22.304882
v -5.224691 6.077639 -20.530197
v -14.571981 5.520435 -16.461658
v 10.479808 6.325921 -10.605929
v -2.159965 6.003881 10.550050
v -2.859195 6.098260 16.282709
v -10.118638 5.014080 -11.599671
v -8.203007 5.154540 4.068192
v -10.579107 5.446596 4.607557
v -12.013478 4.305682 -18.530281
v -18.193487 4.520911 -14.712284
v -19.856993 3.987595 -9.954761
v -18.720295 3.993397 10.602779
v -18.919218 3.959683 15.183661
v -14.074620 4.048566 19.138178
v -20.745636 3.055994 20.059483
v 2.419540 6.033509 -22.220448
v -0.744851 8.067141 -19.227837
v -17.835318 4.934023 -16.545977
v -2.791873 7.614835 -10.682603
v 22.250620 8.217920 -4.664773
v 20.875614 9.202907 2.202336
v 0.727317 10.080738 14.563993
v 11.579826 7.558172 -16.780890
v -12.542078 4.694458 17.460297
v -1.651671 7.918334 19.438166
v -3.290781 7.372480 18.998379
v 2.782556 10.426173 20.398117
v 7.635822 1.687563 22.422426
v 22.394941 3.898624 3.853486
v 9.734512 6.311846 -13.910736
v -7.108694 5.838876 16.710512
v -9.298539 6.341116 6.420275
v -11.500609 4.606071 8.978248
v -13.470020 4.889697 -1.971332
v -17.004158 4.891586 18.022324
v -22.373953 3.440767 7.832726
v 5.837717 9.152542 -7.863200
v 16.582245 6.992853 -12.749896
v -8.250321 5.742213 12.557817
v 21.486916 6.115802 -10.870311
v -22.496872 0.724691 -1.927801
v -22.490381 0.709991 -21.302256
v -18.411867 3.605562 -18.777132
v -10.884041 5.138125 20.749819
v -10.049669 5.491062 6.561492
v -9.323730 6.676658 11.120550
v -8.088654 5.207119 1.247455
v -4.126898 7.844467 -18.033972
v -2.588667 6.139566 -19.026440
v -2.480079 8.457688 -8.408789
v -2.336475 8.706099 -12.377996
v -1.582504 6.717943 20.340157
v -1.370397 7.840385 10.482901
v 2.524100 10.346699 18.418650
v 2.180824 9.126462 19.589228
v 2.319866 9.215066 1.197911
v -14.502512 4.588790 -14.353881
v -11.105544 5.081115 -14.852773
v -1.062892 8.975534 -17.940275
v 17.597403 11.509796 14.128392
v 20.607374 8.516805 -4.779614
v 20.662193 10.146945 10.965387
v -7.531663 5.257969 22.575939
v 1.536097 7.841285 20.518997
v 3.259011 6.282450 20.507090
v -21.221920 3.798116 19.187199
v 2.363366 10.982409 16.634233
v -11.953608 4.741179 -13.384085
v 16.841455 12.374163 13.606685
v 10.367102 8.785291 -7.417163
v 17.430477 8.237195 -7.523699
v -5.141232 6.575434 -10.360106
v 14.038953 6.471926 -20.583487
v 4.920336 2.621439 -22.376867
v -19.340508 3.509386 -5.456954
v -19.779053 3.981736 17.516445
v 9.712849 10.997890 2.962549
v 6.134493 10.955354 17.792234
v 0.074925 8.335080 9.466319
v -1.119588 6.133929 -19.599125
v 0.050612 6.380455 -18.815996
v -11.057150 4.980166 11.119462
v -16.928841 4.344711 19.696800
v 0.825504 5.594195 20.586357
v -15.752273 3.877920 -20.014965
v -13.528497 4.034543 1.016638
v -18.390827 3.926480 1.150127
v 11.627438 7.296471 -19.932243
v -2.541280 6.154906 19.991583
v 14.482056 11.696223 21.242865
v 0.536456 5.269137 22.147369
v -6.848761 6.106458 -3.510140
v 15.843116 11.896281 19.351099
v 12.432116 11.299143 20.215496
v -3.834953 6.307954 -11.336414
v 18.013927 10.094287 21.086489
v 12.411914 10.562763 21.040211
v 9.610520 8.144774 -9.462302
v 0.875990 9.341565 -8.313096
v 0.000703 8.758482 4.414740
v 6.134588 7.389444 -11.580257
v 22.311886 6.862902 -10.022567
v 13.321387 7.096904 -8.855224
v 5.127990 5.962535 -20.261412
v 17.612856 6.068141 -15.842661
v -9.994779 5.641778 0.426377
v -4.789082 6.411446 6.653207
v -6.901041 5.868913 20.824194
v -15.930545 5.310524 -15.256034
v -12.241210 5.884998 5.191512
v -9.671095 5.007648 12.661419
v -11.161717 4.697510 18.026024
v -15.999688 5.568671 18.484127
v -10.903097 5.233169 22.169062
v -13.537217 4.080491 -9.917494
v -16.638962 3.930160 -5.688441
vt 0.025391 0.500000
vt 0.052734 0.500000
vn -0.030000 0.905300 0.423600
vn 0.196100 0.976900 0.084400
vn -0.115400 0.992900 -0.029500
vn -0.081300 0.971700 -0.221900
vn 0.157300 0.937100 0.311800
vn -0.007500 0.998800 0.048800
vn 0.399100 0.459600 -0.793400
vn -0.201200 0.965500 0.165000
vn -0.389800 0.914800 0.105700
vn -0.421900 0.881100 0.213600
vn -0.090100 0.992300 0.084500
vn -0.119800 0.773400 0.622500
vn -0.954800 0.257900 0.147700
vn -0.971100 -0.197600 -0.133700
vn -0.845400 0.429700 0.317300
vn 0.564600 -0.061700 0.823000
vn -0.353400 0.285500 0.890800
vn -0.044000 0.638500 -0.768300
vn 0.410000 -0.498700 0.763700
vn 0.009900 -0.344700 -0.938700
vn -0.370900 0.338600 -0.864800
vn -0.376700 0.921300 -0.096100
vn 0.198300 -0.116100 0.973200
vn -0.358700 0.927100 -0.108600
vn -0.003900 0.997000 0.077300
vn -0.024200 0.754900 0.655400
vn -0.128200 0.991200 0.033800
vn 0.006300 0.050400 -0.998700
vn 0.004400 -0.975100 -0.221600
vn -0.212400 0.693000 -0.689000
vn -0.030200 0.057800 0.997900
vn -0.788100 0.428000 0.442400
vn 0.119800 -0.031600 0.992300
vn -0.108900 0.742800 0.660600
vn -0.223600 0.431800 0.873800
vn 0.996900 0.043500 -0.065600
vn 0.506900 0.854300 0.114800
vn -0.873500 0.403100 0.273100
vn -0.732800 0.661200 -0.160700
vn -0.595400 0.775400 0.210300
vn -0.813000 0.575900 -0.086300
vn 0.732800 0.171900 0.658400
vn -0.929300 0.358100 -0.090500
vn -0.996900 0.079000 0.003200
vn -0.996100 0.087300 -0.011700
vn -0.901000 -0.433700 -0.009300
vn -0.613500 0.784100 -0.093900
vn 0.122800 0.992400 -0.007400
vn 0.022800 0.659800 -0.751100
vn 0.911900 0.410200 0.014100
vn -0.997000 0.057500 -0.051300
vn -0.991500 -0.121800 0.046400
vn -0.998900 0.045700 0.013200
vn -0.510200 0.859100 -0.040300
vn -0.922000 0.182100 -0.341700
vn -0.969500 -0.242400 -0.035900
vn -0.901200 0.432800 0.021900
vn -0.742100 0.651200 -0.158900
vn -0.962400 0.263100 0.068100
vn -0.933400 0.357600 -0.030500
vn -0.302700 0.679800 0.668000
vn -0.440200 0.847900 0.295400
vn -0.785800 0.618500 0.005900
vn -0.949800 -0.205600 -0.235900
vn -0.837700 0.135500 -0.529100
vn -0.394900 0.727300 0.561300
vn 0.385300 0.362500 0.848600
vn -0.406300 -0.913200 0.030600
vn 0.547400 0.054300 -0.835100
vn 0.933500 0.036300 -0.356700
vn 0.985000 0.170900 0.024100
vn 0.993900 0.107700 -0.022100
vn 0.021300 -0.332000 0.943000
vn -0.002400 0.099000 0.995100
vn 0.029400 0.134400 0.990500
vn -0.049800 -0.056200 0.997200
vn 0.024700 0.072900 0.997000
vn -0.028400 0.038900 0.998800
vn -0.083800 -0.100200 0.991400
vn -0.366800 0.442000 0.818600
vn -0.181100 0.789100 0.586900
vn -0.667600 0.680300 0.302500
vn 0.108800 0.576200 0.810000
vn -0.226700 0.730500 0.644200
vn -0.395100 0.589800 0.704300
vn -0.087600 -0.464500 0.881200
vn -0.089500 0.987700 0.128200
vn -0.204400 0.075500 0.976000
vn 0.119000 0.234200 -0.964900
vn -0.008100 0.614200 -0.789100
vn 0.027400 0.322600 -0.946200
vn -0.206200 -0.858200 -0.470100
vn -0.167100 0.617500 -0.768600
vn 0.028700 0.545600 -0.837500
vn 0.006200 0.299600 -0.954000
vn 0.006400 0.091500 -0.995800
vn 0.098300 0.994800 -0.025000
vn -0.054000 0.990500 0.126300
vn -0.223300 0.960500 0.165800
vn -0.347300 0.882100 0.318400
vn -0.113400 0.992200 -0.051200
vn -0.201300 0.976700 0.074400
vn -0.404300 0.901800 -0.152800
vn 0.132200 0.989000 0.066900
vn 0.084900 0.991600 -0.097700
vn 0.553000 0.787300 0.272700
vn -0.001800 0.980500 0.196700
vn 0.348600 0.936800 -0.031400
vn -0.573200 0.754200 0.320500
vn -0.118200 0.797400 -0.591800
vn -0.204500 0.972700 0.110000
vn 0.189800 0.864300 -0.465800
vn -0.105500 0.942300 -0.317700
vn -0.770300 0.628100 0.110400
vn -0.594700 0.804000 0.000000
vn -0.040800 0.859700 -0.509100
vn 0.026600 0.995800 -0.087600
vn -0.358000 0.932800 0.042600
vn -0.025800 0.976800 -0.212600
vn -0.400100 0.482900 0.778900
vn -0.058500 0.995300 0.076600
vn -0.054900 0.998500 -0.004500
vn 0.122700 0.449200 -0.885000
vn 0.109100 0.798800 0.591600
vn -0.175300 0.968900 0.174800
vn -0.093600 0.938600 -0.332000
vn 0.410800 0.910000 -0.056200
vn -0.230800 0.964000 -0.132400
vn 0.524700 0.848200 0.072300
vn -0.054100 0.980800 -0.187200
vn -0.187400 0.958700 -0.213700
vn -0.297900 0.927900 -0.224200
vn -0.066500 -0.465000 -0.882800
vn -0.250200 -0.539900 -0.803700
vn 0.301300 -0.360800 0.882700
vn -0.319700 0.882300 -0.345400
vn -0.884000 -0.133100 -0.448100
vn -0.459000 -0.888400 -0.005600
vn 0.330000 0.715100 0.616200
vn -0.213400 0.816300 0.536800
vn -0.983800 0.112500 -0.139500
vn -0.906400 0.422200 -0.015300
vn -0.964100 0.259100 -0.058000
vn -0.314900 0.943500 -0.102700
vn -0.612200 0.790700 -0.010100
vn -0.734500 -0.675300 -0.067600
vn -0.974900 0.104900 0.196300
vn -0.967800 0.251000 -0.020600
vn -0.306500 0.926200 0.219800
vn 0.500800 0.807900 -0.310700
vn -0.406500 0.904800 0.126700
vn -0.045500 0.998900 -0.007600
vn 0.002800 0.999900 0.014100
vn -0.033100 0.925600 0.376900
vn -0.111700 0.877300 0.466800
vn 0.297200 0.874300 -0.383800
vn -0.082700 0.993200 0.081400
vn 0.212300 0.968900 -0.127100
vn 0.124600 0.966300 -0.225100
vn -0.359500 0.616600 0.700500
vn 0.189000 0.960300 -0.205200
vn -0.192600 0.961900 0.194200
vn 0.106900 0.739700 -0.664400
vn 0.225400 0.887800 0.401200
vn -0.283100 -0.424000 0.860300
vn 0.043800 0.842100 -0.537500
vn 0.067900 0.996400 0.051300
vn -0.018100 0.998000 -0.060400
vn 0.034800 0.981200 -0.189800
vn -0.050400 0.941600 -0.332800
vn 0.011600 0.999300 -0.036200
vn -0.000100 -0.196000 -0.980600
vn 0.053800 0.993700 -0.098400
vn -0.973700 0.195800 -0.116400
vn 0.207300 0.948300 -0.240500
vn -0.036600 0.950300 -0.309300
vn -0.075400 0.996700 -0.028400
vn -0.182400 0.983200 -0.005800
vn -0.124300 0.921800 -0.367100
vn 0.012800 0.980000 -0.198800
vn -0.314400 0.947100 0.064400
vn 0.224900 0.971700 -0.071800
vn -0.220700 0.973100 0.065900
vn -0.370000 0.927700 -0.049300
vn -0.080100 0.978100 -0.192200
vn -0.686800 -0.026500 0.726300
vn -0.296600 0.917500 0.264900
vn -0.101100 0.992200 0.073200
vn -0.155200 0.914400 0.373800
vn -0.212200 0.926100 0.312000
vn -0.228800 0.973000 0.030200
vn -0.162500 0.966000 -0.201100
vn -0.203700 0.977000 0.063200
vn -0.246300 0.948900 0.197400
vn -0.166400 0.976200 -0.138900
vn -0.154200 0.988000 -0.003500
vn -0.303900 0.952600 0.013200
vn -0.335400 0.941100 0.043000
vn -0.368500 0.898500 -0.238400
vn -0.014800 0.999600 0.024600
vn -0.142700 0.982400 0.120800
vn -0.194600 0.976100 0.097100
vn 0.044400 0.991000 0.126600
vn 0.426600 0.520300 -0.739800
vn -0.643300 0.752600 -0.140600
vn -0.034700 0.998300 -0.047300
vn -0.147000 0.989100 -0.012700
vn -0.095300 0.994400 -0.046600
vn 0.026600 0.928100 0.371500
vn -0.023400 0.979600 0.199600
vn -0.515900 0.196800 0.833700
vn 0.541900 0.840400 -0.008300
vn -0.119800 0.967500 -0.222700
vn -0.065100 0.997100 0.039600
vn -0.123900 0.894200 -0.430100
vn -0.718200 0.671600 0.181800
vn -0.086700 0.991000 -0.101800
vn -0.280900 0.953600 -0.108400
vn -0.315200 0.911100 0.265600
vn -0.037800 0.936500 0.348700
vn -0.023500 0.999700 0.003300
vn -0.217300 0.968200 -0.124100
vn -0.918100 0.206100 -0.338400
vn -0.249800 0.929300 -0.271900
vn 0.211300 0.977100 0.026800
vn 0.343800 0.563100 -0.751500
vn 0.140700 0.989500 -0.033000
vn -0.433300 -0.203400 0.878000
vn 0.180300 0.983600 -0.003200
vn -0.034100 0.999300 -0.013200
vn -0.033300 0.998300 -0.048900
vn -0.259200 0.963800 -0.063000
vn -0.081200 0.949800 0.302000
vn -0.208600 0.944400 0.254300
vn 0.165800 0.984400 -0.058800
vn -0.503000 0.374200 0.779100
vn -0.741700 0.554100 -0.377900
vn -0.075100 0.997000 0.017700
vn 0.849700 0.251300 0.463400
vn -0.038000 0.997500 -0.059200
vn 0.251200 0.965500 -0.068500
vn -0.153900 0.988100 -0.002500
vn 0.365500 0.930800 -0.005100
vn -0.609500 0.792600 -0.015500
vn -0.014700 0.996600 -0.081400
vn 0.203100 0.963200 0.176300
vn -0.002700 0.998400 0.057200
vn 0.041700 0.992300 -0.117000
vn 0.041500 0.992300 -0.116400
vn -0.119400 0.981300 0.151100
vn -0.075200 0.975200 -0.208000
vn 0.010600 0.999700 0.021600
vn -0.042000 0.975600 -0.215400
vn -0.196600 0.980400 -0.013100
vn -0.177600 0.983800 -0.022400
vn -0.210300 0.977600 -0.012400
vn 0.052700 0.973200 -0.224000
vn -0.000200 0.995300 -0.096600
vn 0.023200 0.966100 0.257000
vn 0.008500 0.966300 0.257400
vn -0.208300 0.975500 -0.070800
vn 0.226900 0.966400 0.120900
vn -0.004000 0.997100 0.076100
vn -0.042300 0.994300 0.097600
vn -0.267100 0.958600 -0.098400
vn -0.375900 0.926600 -0.011400
vn 0.766300 0.562000 -0.311400
vn -0.053200 0.998300 0.025500
vn 0.176200 0.981900 -0.069500
vn -0.093100 0.988700 0.117100
vn 0.045100 0.997900 0.047200
vn 0.285700 0.936300 -0.204400
vn 0.156200 0.974200 0.162700
vn 0.073100 0.850800 -0.520400
vn 0.201900 0.912000 0.357100
vn 0.209800 0.623500 -0.753100
vn -0.104000 0.827400 0.551900
vn -0.587200 0.724400 -0.361100
vn 0.023400 0.953000 0.302200
vn -0.392000 0.763400 0.513400
vn -0.740300 0.324300 0.588800
vn -0.622800 0.773800 0.115600
vn -0.108600 0.994100 -0.000900
vn -0.091900 0.988900 0.116600
vn -0.269000 0.959400 0.084400
vn -0.046600 0.981800 -0.184000
vn 0.101200 0.968900 -0.226000
vn 0.034000 0.992800 -0.115100
vn 0.105800 0.898300 -0.426500
vn 0.326600 0.826500 0.458500
vn 0.107900 0.987800 -0.111900
vn -0.046700 0.911000 0.409900
vn -0.266700 0.896200 0.354500
vn 0.166600 0.975800 -0.141500
vn 0.025900 0.795500 0.605300
vn -0.211900 0.966100 0.147500
vn -0.039000 0.973200 0.226700
vn 0.042300 0.948000 0.315400
vn -0.643600 0.616300 0.453700
vn -0.325500 0.917900 -0.227100
vn -0.346200 0.935900 0.065000
vn -0.054800 0.998300 0.021600
vn 0.206600 0.973300 -0.100300
vn 0.123100 0.637200 -0.760800
vn -0.462200 0.884500 -0.063300
vn -0.218400 0.786000 0.578300
vn -0.226800 0.940200 -0.254300
vn -0.281700 0.901100 -0.329800
vn 0.093900 0.995600 0.006700
vn -0.497100 0.848100 0.183400
vn 0.079500 0.995500 -0.051400
vn -0.061700 0.989500 0.130700
vn 0.100800 0.994400 -0.032500
vn -0.178300 0.982300 0.057000
vn 0.128700 0.989800 0.061300
vn 0.337200 0.935600 0.104900
vn 0.310900 0.853100 0.419100
vn -0.196700 0.902500 0.383100
vn -0.098300 0.934600 0.341800
vn -0.114900 0.620400 -0.775800
vn -0.080800 0.935600 -0.343700
vn 0.023600 0.999400 0.024600
vn -0.103500 0.952000 -0.288000
vn -0.227700 0.973200 -0.032200
vn -0.091100 0.958600 0.269900
vn -0.064700 0.949700 -0.306500
vn 0.069600 0.989700 0.124900
vn -0.035000 0.992500 -0.116900
vn -0.008800 0.999200 -0.039600
vn -0.010600 0.999700 -0.022800
vn 0.190200 0.969500 -0.154600
vn 0.056500 0.997300 0.047000
vn 0.662900 0.526300 0.532600
vn -0.149500 0.984600 0.090100
vn 0.056200 0.983300 -0.173200
vn -0.460600 0.886400 0.047000
vn 0.345500 0.828000 0.441700
vn -0.661000 0.749300 -0.039900
vn -0.991000 0.053800 -0.122900
vn -0.426600 0.902900 -0.051800
vn -0.984600 0.169800 0.041300
vn -0.912800 0.400500 -0.080100
vn -0.932800 -0.343800 0.107800
vn 0.922200 0.382600 -0.056600
vn -0.933200 0.357400 -0.036500
vn -0.980500 0.152900 -0.123400
vn -0.727900 0.668500 0.152400
vn -0.983100 0.043600 -0.178000
vn -0.831900 0.540800 0.124600
vn -0.809900 -0.017900 -0.586300
vn -0.958000 0.178000 0.224800
vn -0.925900 0.362500 0.106300
vn -0.998900 0.047300 -0.001400
vn 0.944000 0.185100 0.273200
vn 0.587800 0.225800 -0.776800
vn 0.777000 0.457400 -0.432600
vn 0.798800 0.601600 0.000100
vn 0.999200 0.039000 0.004700
vn 0.117900 -0.864300 0.489000
vn 0.003900 -0.039200 0.999200
vn 0.002700 0.757100 0.653300
vn -0.088100 -0.084900 0.992500
vn 0.200300 0.090600 0.975500
vn 0.360600 0.705200 0.610400
vn 0.010100 0.410500 0.911800
vn -0.134200 0.338900 0.931200
vn -0.049400 0.972400 0.228000
vn 0.209000 0.659900 0.721700
vn -0.039700 0.949500 0.311200
vn -0.222700 0.077300 -0.971800
vn 0.024400 0.672600 -0.739600
vn 0.085500 -0.143200 -0.986000
vn -0.178100 0.477000 -0.860700
vn -0.177900 -0.093600 -0.979600
vn -0.461500 0.096900 -0.881800
vn -0.225600 0.142800 -0.963700
vn 0.001500 0.046900 -0.998900
vn -0.006300 0.019800 -0.999800
vn -0.126700 0.921200 -0.367900
vn -0.300900 0.836100 -0.458700
vn -0.006800 0.996800 0.079900
vn -0.258800 0.900700 0.349000
vn -0.150100 0.975700 0.159600
vn -0.012500 0.936900 0.349200
vn -0.086900 0.995400 -0.041500
vn -0.762500 0.595200 0.253600
vn -0.010600 0.998700 -0.049000
vn -0.137400 0.990500 0.001300
vn -0.073200 0.997300 0.004200
vn 0.237000 0.969900 0.055300
vn -0.103500 0.992700 -0.061500
vn -0.155300 0.987800 0.007800
vn -0.026500 0.985500 -0.167800
vn -0.007000 0.994300 0.106500
vn 0.440700 0.864100 -0.243000
vn -0.212900 0.973100 0.088200
vn -0.170800 0.985200 0.015900
vn -0.104000 0.991100 0.083500
vn -0.102200 0.690900 -0.715700
vn -0.043800 0.961300 -0.272100
vn -0.006700 0.866600 -0.499000
vn -0.151100 0.967300 0.203700
vn 0.233400 0.972000 -0.027300
vn -0.246600 0.963300 0.106200
vn -0.048300 0.769800 0.636400
vn 0.040200 0.974700 -0.219800
vn 0.001000 0.999800 0.020300
vn 0.000700 0.997800 -0.066800
vn -0.216800 0.922300 0.319800
vn 0.181700 0.975600 0.123600
vn 0.063500 0.876400 -0.477300
vn -0.088700 0.994400 0.057800
vn -0.133900 0.990900 -0.013100
vn -0.179300 0.861100 -0.475800
vn 0.072900 0.997100 -0.020700
vn 0.560300 0.818000 -0.129800
vn -0.003800 0.990100 0.140000
vn 0.031000 0.992900 0.114400
vn -0.116100 0.993100 0.018000
vn 0.014200 0.992300 -0.122700
vn -0.025800 0.973300 -0.228100
vn -0.086900 0.992300 0.088500
vn -0.003300 0.998400 -0.056700
vn -0.035500 0.722600 0.690300
vn 0.175400 0.929400 0.324700
vn -0.563200 0.797000 -0.218200
vn 0.043200 0.823500 0.565700
vn 0.212900 0.968600 -0.128200
vn 0.561200 0.806500 -0.185800
vn -0.238500 0.970500 -0.034200
vn 0.031200 0.999000 0.033500
vn -0.169200 0.985400 -0.017500
vn 0.062900 0.997800 -0.023000
vn -0.178400 0.983700 -0.024300
vn -0.204300 0.822100 -0.531400
vn -0.073600 0.981700 0.175500
vn -0.075800 0.993300 -0.087300
vn -0.017700 0.999800 -0.007700
vn -0.142900 0.984200 0.104800
vn -0.163100 0.983800 0.074400
vn -0.293700 0.882400 -0.367700
vn -0.125300 0.992000 0.012600
vn -0.034100 0.996800 0.071900
vn -0.259300 0.931800 -0.253900
vn 0.010400 0.992900 0.118100
vn -0.003800 0.975600 0.219400
vn -0.100400 0.990000 0.099000
vn -0.183200 0.982000 -0.046200
vn -0.009300 0.998700 -0.049200
vn -0.368800 0.924200 -0.099000
vn -0.018000 0.976500 -0.214800
vn -0.031700 0.968200 -0.248100
vn -0.252200 0.947300 0.197600
vn -0.239900 0.961300 0.135400
vn -0.421700 0.867900 -0.262400
vn -0.028800 -0.999600 0.000700
vn -0.026800 -0.999600 0.002800
vn -0.033000 -0.999400 0.009700
vn 0.014700 0.066300 0.997700
vn 0.007200 0.054100 -0.998500
vn 0.002900 0.056600 -0.998400
vn -0.003500 0.074300 -0.997200
vn -0.050400 -0.036900 -0.998000
vn -0.032500 -0.058100 -0.997800
vn -0.067500 0.974100 -0.216000
vn -0.213100 0.224000 -0.951000
vn 0.170500 0.420500 -0.891200
vn 0.509100 0.030100 -0.860200
vn -0.466100 0.091700 -0.880000
vn -0.638900 0.314200 -0.702200
vn 0.032100 -0.367200 -0.929600
vn -0.237500 -0.027400 -0.971000
vn 0.019500 0.810900 -0.584800
vn 0.108400 0.627100 -0.771400
vn 0.048200 -0.155500 -0.986700
vn 0.020800 -0.076100 -0.996900
vn 0.120500 0.365700 -0.922900
vn 0.124900 0.652000 -0.747900
vn -0.172900 0.504100 -0.846200
vn 0.035700 0.064400 -0.997300
vn -0.173800 0.101200 -0.979600
vn -0.267200 0.309700 -0.912500
vn -0.181200 0.098100 -0.978500
vn -0.145900 0.903500 -0.403100
vn -0.073400 0.705300 -0.705100
vn 0.027900 -0.498600 -0.866400
vn -0.138200 0.203300 -0.969300
vn -0.038400 0.724600 -0.688100
vn -0.767100 0.525600 -0.367800
vn -0.064700 0.823400 0.563800
vn 0.137500 -0.047700 0.989300
vn -0.107400 0.669600 0.734900
vn -0.001500 0.975700 -0.219000
vn 0.410100 0.873600 0.262000
vn -0.214400 0.165500 0.962600
vn -0.116000 0.863700 0.490500
vn -0.129200 0.892500 0.432200
vn 0.481000 0.476900 0.735600
vn 0.338500 -0.079500 0.937600
vn -0.041900 0.418300 0.907400
vn -0.142600 0.114100 0.983200
vn 0.026400 0.021600 0.999400
vn 0.414100 0.214900 0.884500
vn -0.375700 0.553300 0.743400
vn 0.028000 0.274800 0.961100
vn -0.048100 0.077800 0.995800
vn 0.066600 0.207000 0.976100
vn -0.067900 -0.105900 0.992100
vn -0.007800 0.001600 1.000000
vn -0.031500 -0.394800 0.918200
vn -0.002700 0.111900 0.993700
vn 0.271100 0.138600 0.952500
vn 0.088000 0.258100 0.962100
vn -0.119700 0.138200 0.983200
vn 0.994600 0.098600 0.033200
vn 0.998800 -0.046400 -0.015900
vn 0.682300 0.637900 -0.357100
vn 0.999200 0.040900 0.002800
vn 0.998200 0.059900 0.001700
vn 0.939600 0.342100 -0.014000
vn 0.758900 0.650900 -0.021200
vn 0.399600 0.854400 -0.332100
vn 0.993700 0.067900 -0.089300
vn 0.974200 0.221500 -0.043000
vn 0.669400 0.501200 0.548400
vn 0.860400 0.342300 -0.377600
vn 0.716300 0.697400 -0.024600
vn 0.970700 0.237700 -0.036000
vn 0.864800 0.485300 -0.128700
vn 0.911400 -0.405800 0.068500
vn 0.876100 -0.473200 0.092200
vn 0.692100 0.716200 0.089900
vn -0.871300 0.478700 -0.108100
vn -0.511600 0.858000 0.044400
vn -0.988700 0.131500 0.071400
vn -0.853600 -0.129900 0.504500
vn -0.943200 0.234200 0.235500
vn -0.998000 0.060800 -0.019100
vn -0.824900 0.565200 0.014300
vn -0.929000 0.369400 0.022700
vn -0.786700 -0.019800 0.617100
vn -0.923900 0.115400 0.364800
vn -0.455700 0.890100 0.011800
vn -0.997400 0.065500 0.029100
vn -0.918700 0.394900 -0.003600
vn -0.954900 0.296700 0.013800
vn -0.955800 0.210000 0.205800
vn -0.981600 0.116000 0.151700
vn -0.893200 0.441100 -0.087300
vn -0.852700 0.481000 0.203700
vn -0.848200 0.523900 -0.077900
vn -0.955300 -0.053000 -0.290700
vn -0.982800 0.047300 -0.178400
vn -0.978200 0.176900 -0.108500
vn -0.540700 0.841200 -0.003100
vn -0.624500 0.780900 -0.015100
vn -0.545200 0.838300 -0.002000
vn -0.119700 0.967500 -0.222700
vn -0.652700 0.632900 0.416500
vn -0.314700 0.914100 0.255500
vn -0.806500 0.591200 0.010400
vn 0.270000 0.685800 -0.675900
vn -0.953000 0.017900 -0.302400
vn -0.092900 0.885400 -0.455400
vn 0.984000 0.156500 -0.085200
vn -0.812100 0.441000 -0.382100
vn -0.693700 0.712200 -0.107400
vn -0.948700 0.247400 0.197000
vn -0.905600 -0.095600 0.413100
vn -0.997400 0.071600 0.004100
vn -0.989500 0.143900 0.014200
vn -0.999900 0.010100 -0.000300
vn 0.052100 0.994600 -0.089800
vn 0.089800 0.991400 -0.095600
vn 0.152100 0.968300 -0.198100
vn -0.180900 0.908200 -0.377500
vn -0.177300 0.887800 -0.424700
vn -0.010900 0.999800 -0.017000
vn 0.094500 0.993400 -0.064700
vn 0.013200 0.989300 -0.145300
vn 0.026700 0.999600 -0.010700
vn 0.101700 0.941100 0.322500
vn 0.999900 0.012700 0.008800
vn 0.586500 0.806100 -0.078800
vn -0.973200 0.185400 0.136100
vn -0.752300 0.654500 -0.075400
vn -0.938900 0.330400 0.096300
vn -0.330700 0.921000 0.205800
vn 0.651200 0.224300 -0.725000
vn -0.982600 0.185700 0.006500
vn -0.784900 0.619400 -0.013800
vn -0.358400 0.882500 0.304400
vn -0.568200 0.822300 0.030400
vn -0.640800 0.765100 0.062700
vn -0.534100 0.333500 -0.776900
vn -0.781000 0.623500 0.034900
vn -0.391700 0.424700 0.816200
vn -0.752700 0.658300 0.011200
vn -0.360900 0.103000 -0.926900
vn -0.937700 0.160600 -0.308200
vn -0.932300 0.181500 0.313000
vn -0.918700 0.395000 0.000300
vn -0.999500 -0.032100 0.004900
vn -0.475200 -0.879800 -0.009000
vn 0.974600 0.099100 0.201100
vn 0.532800 0.809600 -0.246300
vn 0.962700 -0.252800 0.096900
vn 0.844400 0.535500 -0.014200
vn 0.989500 0.140700 -0.032800
vn 0.999000 0.045000 0.005900
vn 0.994900 -0.094400 -0.035700
vn 1.000000 0.000500 -0.001400
vn 0.299400 0.155600 0.941400
vn -0.043300 -0.016600 0.998900
vn 0.054800 0.072200 0.995900
vn -0.148000 0.123200 0.981300
vn 0.066100 0.695800 0.715200
vn 0.060900 0.690400 0.720900
vn -0.536500 0.487000 0.689200
vn 0.275200 0.471600 0.837800
vn -0.106200 0.897500 0.428000
vn -0.220400 0.900300 0.375400
vn 0.173800 0.452000 0.874900
vn 0.119000 0.353400 -0.927900
vn 0.360700 0.761200 0.539000
vn -0.125400 0.190400 -0.973700
vn -0.040200 0.740800 -0.670500
vn 0.087700 -0.152300 -0.984400
vn -0.540600 0.055400 -0.839500
vn 0.100900 0.315700 -0.943500
vn 0.052900 0.996200 -0.069400
vn 0.210100 0.868100 -0.449700
vn 0.002500 -1.000000 -0.001500
vn 0.005900 -1.000000 -0.000200
vn -0.348700 0.914100 0.206900
vn -0.058600 0.998100 0.020000
vn -0.118100 0.993000 0.007200
vn -0.076800 0.997000 -0.009700
vn -0.429900 0.678700 0.595500
vn -0.090400 0.975000 0.203200
vn 0.487800 0.872900 0.008900
vn -0.134300 0.989500 -0.052400
vn -0.143100 0.989100 0.034200
vn -0.097600 0.890100 0.445200
vn -0.044300 0.993700 0.103300
vn 0.202200 0.979100 0.023200
vn -0.007300 0.999600 -0.028400
vn -0.998900 0.038800 0.028000
vn -0.004900 0.955900 -0.293600
vn 0.146200 0.989200 0.004800
vn 0.815200 -0.518500 -0.258000
vn 0.132400 0.991200 0.006600
vn -0.176000 0.892400 -0.415400
vn -0.308800 0.819300 -0.483100
vn -0.309900 0.535500 0.785600
vn -0.028300 0.968200 -0.248600
vn -0.064400 -0.169600 -0.983400
vn 0.037900 0.685300 -0.727300
vn -0.301300 0.360700 -0.882700
vn 0.181000 -0.143100 -0.973000
vn 0.152800 0.922200 0.355300
vn 0.970200 0.238200 0.044800
vn -0.206700 -0.521500 -0.827800
vn -0.502900 0.864100 0.018700
vn 0.275700 0.735600 0.618700
vn -0.298300 0.952900 -0.053700
vn -0.094000 0.995400 0.020700
vn -0.045000 0.999000 -0.007500
vn 0.767800 0.634200 -0.091000
vn -0.159400 0.945000 -0.285600
vn -0.010700 0.993500 -0.113200
vn 0.117900 0.993000 0.007100
vn 0.091200 0.849400 0.519800
vn -0.104900 0.805100 0.583800
vn -0.000400 0.991200 0.132400
vn 0.047400 0.883100 0.466800
vn -0.090600 0.889500 -0.447800
vn 0.524600 0.842100 0.125300
vn -0.064600 0.996900 0.044600
vn 0.143200 0.989500 -0.018900
vn 0.046800 0.969500 0.240400
vn -0.225200 0.967600 -0.114400
vn 0.039600 0.993600 -0.106000
vn -0.538400 0.842700 0.005800
vn -0.209900 0.964100 -0.162700
vn -0.121800 0.806400 0.578700
vn 0.116100 0.758300 -0.641400
vn 0.875700 0.474600 -0.089200
vn -0.295600 0.953400 0.059900
vn -0.347500 0.913400 0.212000
vn -0.003900 0.999400 -0.034800
vn 0.268700 0.925700 -0.266200
vn -0.019900 0.997800 0.063600
vn -0.189000 0.982000 -0.004300
vn 0.560400 0.823900 -0.084900
vn 0.031400 0.978100 0.205700
vn 0.060100 0.992000 0.111500
vn -0.081900 0.996600 0.000300
vn -0.886800 -0.034500 -0.460800
vn -0.148100 0.966800 0.208400
vn -0.794100 0.607500 -0.018300
vn -0.194300 0.660000 0.725700
vn -0.353700 0.907900 0.224800
vn -0.157100 0.984100 -0.083200
vn -0.045700 0.938900 0.341000
vn -0.440000 0.877700 0.189700
vn 0.126000 0.987700 0.092100
vn 0.189400 0.707600 -0.680800
vn -0.014900 0.998900 0.044400
vn -0.269700 0.956500 0.111400
usemtl palette
s off
f 243/1/1 199/1/1 144/1/1
f 62/1/2 10/1/2 101/1/2
f 276/1/3 318/1/3 79/1/3
f 173/1/4 315/1/4 99/1/4
f 341/1/5 193/1/5 157/1/5
f 102/1/6 237/1/6 30/1/6
f 273/1/7 39/1/7 335/1/7
f 146/2/8 156/2/8 133/2/8
f 133/2/9 256/2/9 232/2/9
f 170/2/10 224/2/10 281/2/10
f 312/1/11 52/1/11 333/1/11
f 197/1/12 215/1/12 41/1/12
f 69/1/13 269/1/13 20/1/13
f 203/1/14 69/1/14 122/1/14
f 24/1/15 211/1/15 199/1/15
f 15/2/16 204/2/16 139/2/16
f 24/2/17 342/2/17 211/2/17
f 183/1/18 334/1/18 104/1/18
f 15/1/19 139/1/19 62/1/19
f 275/1/20 109/1/20 226/1/20
f 15/1/21 62/1/21 204/1/21
f 16/1/22 162/1/22 276/1/22
f 207/1/23 257/1/23 70/1/23
f 254/1/24 295/1/24 205/1/24
f 2/1/25 222/1/25 208/1/25
f 299/1/26 248/1/26 191/1/26
f 68/1/27 212/1/27 248/1/27
f 307/1/28 140/1/28 249/1/28
f 21/1/29 134/1/29 62/1/29
f 336/1/30 196/1/30 201/1/30
f 21/2/31 144/2/31 219/2/31
f 111/1/32 177/1/32 176/1/32
f 49/2/33 115/2/33 38/2/33
f 327/1/34 41/1/34 330/1/34
f 212/1/35 68/1/35 209/1/35
f 183/1/36 104/1/36 331/1/36
f 21/2/37 210/2/37 134/2/37
f 38/2/38 152/2/38 25/2/38
f 206/1/39 227/1/39 171/1/39
f 126/1/40 267/1/40 319/1/40
f 46/2/41 231/2/41 172/2/41
f 21/1/42 219/1/42 174/1/42
f 23/1/43 275/1/43 83/1/43
f 2/1/44 208/1/44 178/1/44
f 2/1/45 274/1/45 269/1/45
f 177/1/46 20/1/46 176/1/46
f 273/1/47 335/1/47 27/1/47
f 27/1/48 217/1/48 273/1/48
f 321/2/49 123/2/49 306/2/49
f 129/1/50 20/1/50 177/1/50
f 68/1/51 132/1/51 209/1/51
f 269/1/52 274/1/52 20/1/52
f 67/1/53 178/1/53 208/1/53
f 132/1/54 248/1/54 176/1/54
f 54/2/55 16/2/55 251/2/55
f 71/1/56 139/1/56 199/1/56
f 277/1/57 345/1/57 8/1/57
f 242/1/58 206/1/58 171/1/58
f 279/1/59 95/1/59 344/1/59
f 279/1/60 265/1/60 95/1/60
f 272/1/61 279/1/61 344/1/61
f 194/1/62 170/1/62 91/1/62
f 283/2/63 84/2/63 128/2/63
f 180/2/64 252/2/64 34/2/64
f 47/2/65 75/2/65 202/2/65
f 28/2/66 283/2/66 119/2/66
f 64/2/67 290/2/67 211/2/67
f 64/2/68 210/2/68 290/2/68
f 314/2/69 313/2/69 250/2/69
f 331/1/70 303/1/70 61/1/70
f 56/1/71 294/1/71 184/1/71
f 228/1/72 294/1/72 56/1/72
f 22/1/73 296/1/73 8/1/73
f 209/1/74 76/1/74 261/1/74
f 261/1/75 324/1/75 22/1/75
f 167/1/76 9/1/76 36/1/76
f 215/1/77 9/1/77 167/1/77
f 317/2/78 297/2/78 149/2/78
f 298/1/79 7/1/79 297/1/79
f 322/1/80 258/1/80 259/1/80
f 300/2/81 14/2/81 74/2/81
f 287/2/82 300/2/82 49/2/82
f 300/2/83 74/2/83 49/2/83
f 155/1/84 279/1/84 272/1/84
f 119/2/85 283/2/85 12/2/85
f 71/2/86 144/2/86 139/2/86
f 194/2/87 113/2/87 170/2/87
f 109/1/88 79/1/88 120/1/88
f 304/1/89 196/1/89 87/1/89
f 335/1/90 179/1/90 201/1/90
f 334/1/91 220/1/91 104/1/91
f 64/1/92 211/1/92 62/1/92
f 291/1/93 62/1/93 127/1/93
f 127/1/94 62/1/94 130/1/94
f 226/1/95 171/1/95 307/1/95
f 131/1/96 223/1/96 249/1/96
f 247/1/97 316/1/97 160/1/97
f 257/1/98 8/1/98 345/1/98
f 257/1/99 247/1/99 8/1/99
f 309/1/100 191/1/100 268/1/100
f 246/1/101 309/1/101 145/1/101
f 245/1/102 159/1/102 6/1/102
f 165/1/103 32/1/103 172/1/103
f 173/1/104 99/1/104 32/1/104
f 293/2/105 45/2/105 148/2/105
f 216/2/106 151/2/106 187/2/106
f 260/1/107 41/1/107 311/1/107
f 4/1/108 137/1/108 295/1/108
f 38/2/109 115/2/109 186/2/109
f 230/2/110 292/2/110 250/2/110
f 119/1/111 112/1/111 332/1/111
f 294/1/112 228/1/112 253/1/112
f 232/2/113 114/2/113 123/2/113
f 12/1/114 112/1/114 119/1/114
f 325/1/115 92/1/115 182/1/115
f 131/1/116 18/1/116 306/1/116
f 82/1/117 282/1/117 234/1/117
f 267/1/118 126/1/118 135/1/118
f 265/1/119 94/1/119 93/1/119
f 278/2/120 265/2/120 343/2/120
f 346/2/121 70/2/121 108/2/121
f 264/1/122 341/1/122 157/1/122
f 162/2/123 206/2/123 242/2/123
f 210/2/124 101/2/124 235/2/124
f 190/1/125 95/1/125 278/1/125
f 159/1/126 117/1/126 344/1/126
f 70/1/127 257/1/127 89/1/127
f 277/1/128 166/1/128 345/1/128
f 65/1/129 22/1/129 193/1/129
f 79/1/130 318/1/130 226/1/130
f 6/1/131 172/1/131 245/1/131
f 109/1/132 23/1/132 79/1/132
f 171/1/133 227/1/133 307/1/133
f 162/2/134 16/2/134 54/2/134
f 71/1/135 219/1/135 62/1/135
f 188/1/136 236/1/136 86/1/136
f 177/1/137 203/1/137 122/1/137
f 64/2/138 342/2/138 134/2/138
f 74/2/139 115/2/139 49/2/139
f 189/1/140 298/1/140 317/1/140
f 71/2/141 210/2/141 219/2/141
f 48/2/142 110/2/142 133/2/142
f 75/1/143 286/1/143 202/1/143
f 305/1/144 221/1/144 182/1/144
f 240/1/145 325/1/145 280/1/145
f 64/1/146 134/1/146 199/1/146
f 23/1/147 109/1/147 275/1/147
f 83/1/148 275/1/148 178/1/148
f 216/2/149 187/2/149 141/2/149
f 187/2/150 45/2/150 293/2/150
f 66/2/151 326/2/151 55/2/151
f 88/1/152 63/1/152 310/1/152
f 88/1/153 300/1/153 311/1/153
f 151/1/154 168/1/154 4/1/154
f 4/1/155 329/1/155 137/1/155
f 220/1/156 303/1/156 331/1/156
f 333/1/157 52/1/157 289/1/157
f 106/2/158 232/2/158 321/2/158
f 123/2/159 114/2/159 153/2/159
f 128/2/160 12/2/160 283/2/160
f 294/1/161 253/1/161 184/1/161
f 286/1/162 31/1/162 312/1/162
f 306/2/163 153/2/163 143/2/163
f 229/2/164 156/2/164 198/2/164
f 133/2/165 156/2/165 256/2/165
f 163/1/166 17/1/166 35/1/166
f 169/1/167 164/1/167 35/1/167
f 164/1/168 334/1/168 35/1/168
f 179/1/169 335/1/169 39/1/169
f 61/1/170 336/1/170 236/1/170
f 131/1/171 338/1/171 27/1/171
f 60/1/172 18/1/172 110/1/172
f 337/1/173 314/1/173 3/1/173
f 91/1/174 170/1/174 82/1/174
f 162/2/175 54/2/175 235/2/175
f 305/1/176 180/1/176 328/1/176
f 125/1/177 339/1/177 118/1/177
f 93/1/178 340/1/178 102/1/178
f 93/2/179 241/2/179 265/2/179
f 94/1/180 340/1/180 93/1/180
f 272/1/181 264/1/181 155/1/181
f 108/2/182 70/2/182 89/2/182
f 227/1/183 124/1/183 140/1/183
f 138/1/184 118/1/184 239/1/184
f 138/1/185 125/1/185 118/1/185
f 26/1/186 240/1/186 126/1/186
f 190/1/187 266/1/187 95/1/187
f 344/1/188 315/1/188 6/1/188
f 89/1/189 257/1/189 345/1/189
f 268/2/190 316/2/190 213/2/190
f 22/1/191 103/1/191 121/1/191
f 226/1/192 318/1/192 171/1/192
f 348/1/193 97/1/193 138/1/193
f 222/1/194 319/1/194 98/1/194
f 26/1/195 319/1/195 231/1/195
f 308/1/196 98/1/196 349/1/196
f 349/1/197 98/1/197 267/1/197
f 135/1/198 349/1/198 267/1/198
f 348/1/199 349/1/199 135/1/199
f 244/1/200 349/1/200 348/1/200
f 244/1/201 308/1/201 349/1/201
f 138/1/202 301/1/202 348/1/202
f 244/1/203 199/1/203 243/1/203
f 144/1/204 199/1/204 15/1/204
f 244/1/205 243/1/205 154/1/205
f 244/1/206 154/1/206 83/1/206
f 83/1/207 67/1/207 244/1/207
f 171/1/208 318/1/208 242/1/208
f 121/1/209 193/1/209 22/1/209
f 324/1/210 189/1/210 317/1/210
f 268/2/211 213/2/211 346/2/211
f 346/2/212 213/2/212 207/2/212
f 166/1/213 96/1/213 345/1/213
f 344/1/214 345/1/214 96/1/214
f 117/1/215 89/1/215 344/1/215
f 272/1/216 96/1/216 264/1/216
f 6/1/217 315/1/217 200/1/217
f 99/1/218 315/1/218 266/1/218
f 190/2/219 99/2/219 266/2/219
f 32/2/220 99/2/220 190/2/220
f 315/1/221 344/1/221 95/1/221
f 266/1/222 315/1/222 95/1/222
f 158/2/223 46/2/223 343/2/223
f 231/2/224 46/2/224 158/2/224
f 339/1/225 240/1/225 280/1/225
f 342/2/226 24/2/226 210/2/226
f 235/2/227 291/2/227 206/2/227
f 235/2/228 101/2/228 291/2/228
f 124/1/229 118/1/229 280/1/229
f 206/1/230 291/1/230 124/1/230
f 124/1/231 227/1/231 206/1/231
f 239/1/232 118/1/232 124/1/232
f 341/1/233 296/1/233 65/1/233
f 166/1/234 296/1/234 341/1/234
f 341/1/235 65/1/235 193/1/235
f 322/1/236 121/1/236 285/1/236
f 157/1/237 259/1/237 238/1/237
f 264/1/238 157/1/238 202/1/238
f 157/1/239 238/1/239 202/1/239
f 237/1/240 11/1/240 202/1/240
f 340/1/241 59/1/241 237/1/241
f 135/1/242 126/1/242 339/1/242
f 118/1/243 339/1/243 13/1/243
f 221/1/244 325/1/244 182/1/244
f 5/1/245 217/1/245 338/1/245
f 198/1/246 5/1/246 338/1/246
f 54/2/247 214/2/247 235/2/247
f 3/1/248 17/1/248 163/1/248
f 3/1/249 163/1/249 337/1/249
f 163/1/250 146/1/250 133/1/250
f 337/1/251 133/1/251 110/1/251
f 249/1/252 234/1/252 337/1/252
f 140/1/253 234/1/253 249/1/253
f 91/1/254 82/1/254 234/1/254
f 140/1/255 221/1/255 91/1/255
f 140/1/256 91/1/256 234/1/256
f 306/1/257 143/1/257 131/1/257
f 338/1/258 217/1/258 27/1/258
f 155/1/259 11/1/259 181/1/259
f 279/1/260 155/1/260 181/1/260
f 265/1/261 279/1/261 181/1/261
f 181/1/262 11/1/262 59/1/262
f 182/1/263 102/1/263 30/1/263
f 182/1/264 30/1/264 33/1/264
f 305/1/265 182/1/265 128/1/265
f 305/1/266 128/1/266 84/1/266
f 183/1/267 331/1/267 236/1/267
f 34/1/268 164/1/268 194/1/268
f 334/1/269 183/1/269 35/1/269
f 164/1/270 113/1/270 194/1/270
f 113/1/271 164/1/271 169/1/271
f 35/1/272 183/1/272 263/1/272
f 35/1/273 263/1/273 146/1/273
f 163/1/274 35/1/274 146/1/274
f 198/2/275 338/2/275 229/2/275
f 153/2/276 306/2/276 123/2/276
f 149/1/277 218/1/277 29/1/277
f 36/1/278 9/1/278 80/1/278
f 7/1/279 36/1/279 80/1/279
f 25/1/280 259/1/280 258/1/280
f 38/1/281 25/1/281 258/1/281
f 152/1/282 259/1/282 25/1/282
f 286/1/283 75/1/283 31/1/283
f 52/1/284 312/1/284 31/1/284
f 286/1/285 312/1/285 333/1/285
f 201/1/286 196/1/286 304/1/286
f 201/1/287 304/1/287 184/1/287
f 90/1/288 201/1/288 184/1/288
f 335/1/289 201/1/289 90/1/289
f 185/2/290 113/2/290 78/2/290
f 250/2/291 185/2/291 78/2/291
f 114/2/292 156/2/292 19/2/292
f 156/2/293 114/2/293 232/2/293
f 153/2/294 114/2/294 19/2/294
f 149/2/295 7/2/295 288/2/295
f 149/2/296 288/2/296 49/2/296
f 218/2/297 149/2/297 49/2/297
f 218/2/298 49/2/298 38/2/298
f 49/2/299 288/2/299 287/2/299
f 254/1/300 205/1/300 50/1/300
f 332/1/301 112/1/301 289/1/301
f 332/1/302 289/1/302 136/1/302
f 104/1/303 220/1/303 331/1/303
f 37/2/304 195/2/304 72/2/304
f 230/2/305 224/2/305 292/2/305
f 14/2/306 186/2/306 74/2/306
f 255/2/307 100/2/307 186/2/307
f 255/2/308 186/2/308 14/2/308
f 295/1/309 137/1/309 40/1/309
f 91/1/310 328/1/310 194/1/310
f 205/1/311 295/1/311 40/1/311
f 332/2/312 136/2/312 53/2/312
f 37/2/313 107/2/313 332/2/313
f 53/2/314 37/2/314 332/2/314
f 168/1/315 81/1/315 4/1/315
f 151/1/316 4/1/316 44/1/316
f 45/1/317 151/1/317 44/1/317
f 41/1/318 327/1/318 311/1/318
f 300/1/319 287/1/319 311/1/319
f 105/1/320 66/1/320 42/1/320
f 255/2/321 14/2/321 300/2/321
f 88/1/322 311/1/322 42/1/322
f 300/1/323 88/1/323 77/1/323
f 42/1/324 66/1/324 147/1/324
f 147/1/325 88/1/325 42/1/325
f 88/1/326 147/1/326 63/1/326
f 53/1/327 136/1/327 270/1/327
f 43/1/328 310/1/328 136/1/328
f 116/1/329 310/1/329 293/1/329
f 87/1/330 310/1/330 116/1/330
f 87/1/331 116/1/331 228/1/331
f 87/1/332 228/1/332 56/1/332
f 326/2/333 323/2/333 81/2/333
f 105/2/334 327/2/334 326/2/334
f 105/2/335 326/2/335 66/2/335
f 141/2/336 147/2/336 55/2/336
f 45/2/337 187/2/337 151/2/337
f 176/1/338 274/1/338 132/1/338
f 67/1/339 83/1/339 178/1/339
f 73/1/340 2/1/340 269/1/340
f 122/1/341 69/1/341 129/1/341
f 175/2/342 145/2/342 268/2/342
f 199/1/343 134/1/343 174/1/343
f 134/1/344 21/1/344 174/1/344
f 347/1/345 277/1/345 8/1/345
f 125/1/346 138/1/346 97/1/346
f 265/1/347 278/1/347 95/1/347
f 259/1/348 152/1/348 47/1/348
f 107/2/349 284/2/349 252/2/349
f 100/2/350 75/2/350 47/2/350
f 1/1/351 218/1/351 285/1/351
f 260/1/352 287/1/352 288/1/352
f 43/1/353 289/1/353 77/1/353
f 219/2/354 210/2/354 21/2/354
f 195/2/355 164/2/355 72/2/355
f 17/2/356 3/2/356 78/2/356
f 44/1/357 295/1/357 116/1/357
f 262/1/358 233/1/358 142/1/358
f 324/1/359 103/1/359 22/1/359
f 233/1/360 167/1/360 261/1/360
f 121/1/361 322/1/361 193/1/361
f 7/2/362 149/2/362 297/2/362
f 247/2/363 213/2/363 316/2/363
f 168/2/364 326/2/364 81/2/364
f 26/1/365 126/1/365 319/1/365
f 301/1/366 127/1/366 130/1/366
f 134/2/367 144/2/367 21/2/367
f 134/2/368 342/2/368 144/2/368
f 198/2/369 146/2/369 5/2/369
f 85/2/370 255/2/370 77/2/370
f 336/1/371 303/1/371 196/1/371
f 303/1/372 270/1/372 87/1/372
f 179/1/373 336/1/373 201/1/373
f 219/1/374 21/1/374 62/1/374
f 230/2/375 282/2/375 281/2/375
f 110/2/376 106/2/376 60/2/376
f 142/1/377 307/1/377 249/1/377
f 142/1/378 249/1/378 223/1/378
f 177/1/379 122/1/379 129/1/379
f 2/1/380 73/1/380 222/1/380
f 208/1/381 222/1/381 308/1/381
f 58/1/382 192/1/382 316/1/382
f 58/1/383 212/1/383 192/1/383
f 207/1/384 247/1/384 257/1/384
f 111/1/385 309/1/385 246/1/385
f 177/1/386 111/1/386 203/1/386
f 203/1/387 246/1/387 69/1/387
f 245/1/388 246/1/388 159/1/388
f 245/1/389 69/1/389 246/1/389
f 6/1/390 165/1/390 172/1/390
f 269/1/391 69/1/391 245/1/391
f 269/1/392 245/1/392 73/1/392
f 320/1/393 231/1/393 319/1/393
f 244/1/394 208/1/394 308/1/394
f 135/1/395 97/1/395 348/1/395
f 199/1/396 348/1/396 301/1/396
f 208/1/397 244/1/397 67/1/397
f 159/1/398 344/1/398 6/1/398
f 6/1/399 200/1/399 165/1/399
f 200/1/400 315/1/400 173/1/400
f 241/1/401 240/1/401 225/1/401
f 126/1/402 240/1/402 339/1/402
f 13/1/403 339/1/403 280/1/403
f 301/1/404 138/1/404 239/1/404
f 214/2/405 243/2/405 144/2/405
f 206/2/406 162/2/406 235/2/406
f 291/1/407 239/1/407 124/1/407
f 347/1/408 296/1/408 277/1/408
f 157/1/409 193/1/409 322/1/409
f 11/1/410 237/1/410 59/1/410
f 343/2/411 265/2/411 241/2/411
f 92/1/412 93/1/412 102/1/412
f 135/1/413 339/1/413 125/1/413
f 221/1/414 305/1/414 328/1/414
f 236/1/415 188/1/415 263/1/415
f 183/1/416 236/1/416 263/1/416
f 188/1/417 146/1/417 263/1/417
f 188/1/418 5/1/418 146/1/418
f 221/1/419 328/1/419 91/1/419
f 313/1/420 337/1/420 234/1/420
f 94/1/421 265/1/421 181/1/421
f 92/1/422 102/1/422 182/1/422
f 86/1/423 336/1/423 179/1/423
f 146/2/424 198/2/424 156/2/424
f 218/1/425 1/1/425 29/1/425
f 84/2/426 283/2/426 252/2/426
f 224/2/427 113/2/427 185/2/427
f 106/2/428 321/2/428 60/2/428
f 253/1/429 228/1/429 50/1/429
f 112/1/430 333/1/430 289/1/430
f 28/2/431 332/2/431 107/2/431
f 287/1/432 260/1/432 311/1/432
f 116/1/433 293/1/433 148/1/433
f 327/2/434 323/2/434 326/2/434
f 147/2/435 141/2/435 63/2/435
f 141/2/436 55/2/436 216/2/436
f 26/1/437 231/1/437 225/1/437
f 245/1/438 172/1/438 320/1/438
f 320/1/439 172/1/439 231/1/439
f 32/1/440 165/1/440 173/1/440
f 173/1/441 165/1/441 200/1/441
f 159/1/442 246/1/442 145/1/442
f 203/1/443 111/1/443 246/1/443
f 309/1/444 268/1/444 145/1/444
f 299/1/445 191/1/445 309/1/445
f 316/1/446 192/1/446 160/1/446
f 192/1/447 8/1/447 160/1/447
f 79/1/448 23/1/448 154/1/448
f 79/1/449 154/1/449 276/1/449
f 154/1/450 16/1/450 276/1/450
f 23/1/451 83/1/451 154/1/451
f 73/1/452 320/1/452 222/1/452
f 191/1/453 248/1/453 58/1/453
f 58/1/454 248/1/454 212/1/454
f 68/1/455 248/1/455 132/1/455
f 57/1/456 274/1/456 275/1/456
f 57/1/457 76/1/457 274/1/457
f 274/1/458 76/1/458 209/1/458
f 76/1/459 233/1/459 261/1/459
f 307/1/460 227/1/460 140/1/460
f 57/1/461 307/1/461 142/1/461
f 57/1/462 226/1/462 307/1/462
f 226/1/463 109/1/463 161/1/463
f 161/1/464 109/1/464 120/1/464
f 321/2/465 232/2/465 123/2/465
f 313/2/466 230/2/466 250/2/466
f 3/2/467 314/2/467 78/2/467
f 250/2/468 78/2/468 314/2/468
f 282/2/469 82/2/469 281/2/469
f 154/2/470 251/2/470 16/2/470
f 10/1/471 62/1/471 291/1/471
f 211/1/472 24/1/472 62/1/472
f 271/1/473 217/1/473 5/1/473
f 72/2/474 284/2/474 37/2/474
f 164/2/475 34/2/475 72/2/475
f 34/2/476 284/2/476 72/2/476
f 334/1/477 195/1/477 220/1/477
f 53/2/478 195/2/478 37/2/478
f 180/1/479 305/1/479 84/1/479
f 56/1/480 304/1/480 87/1/480
f 196/1/481 303/1/481 87/1/481
f 336/1/482 61/1/482 303/1/482
f 97/1/483 135/1/483 125/1/483
f 225/2/484 231/2/484 158/2/484
f 240/2/485 241/2/485 93/2/485
f 293/2/486 63/2/486 302/2/486
f 75/2/487 100/2/487 255/2/487
f 89/2/488 117/2/488 108/2/488
f 117/2/489 145/2/489 175/2/489
f 120/1/490 79/1/490 161/1/490
f 19/2/491 156/2/491 229/2/491
f 224/2/492 170/2/492 113/2/492
f 62/2/493 101/2/493 210/2/493
f 139/2/494 144/2/494 15/2/494
f 301/1/495 130/1/495 199/1/495
f 119/2/496 332/2/496 28/2/496
f 190/2/497 343/2/497 46/2/497
f 151/2/498 216/2/498 168/2/498
f 207/2/499 70/2/499 346/2/499
f 197/1/500 41/1/500 260/1/500
f 7/1/501 197/1/501 260/1/501
f 297/1/502 317/1/502 298/1/502
f 51/2/503 323/2/503 215/2/503
f 215/2/504 323/2/504 330/2/504
f 261/1/505 8/1/505 192/1/505
f 261/1/506 167/1/506 189/1/506
f 324/1/507 261/1/507 189/1/507
f 167/1/508 36/1/508 189/1/508
f 261/1/509 22/1/509 8/1/509
f 261/1/510 192/1/510 212/1/510
f 261/1/511 212/1/511 209/1/511
f 103/1/512 324/1/512 1/1/512
f 22/1/513 65/1/513 296/1/513
f 8/1/514 296/1/514 347/1/514
f 253/1/515 262/1/515 90/1/515
f 262/1/516 335/1/516 90/1/516
f 27/1/517 223/1/517 131/1/517
f 262/1/518 223/1/518 335/1/518
f 262/1/519 142/1/519 223/1/519
f 295/1/520 254/1/520 228/1/520
f 141/2/521 293/2/521 302/2/521
f 141/2/522 187/2/522 293/2/522
f 19/2/523 229/2/523 153/2/523
f 153/2/524 229/2/524 143/2/524
f 323/2/525 51/2/525 81/2/525
f 321/2/526 18/2/526 60/2/526
f 78/2/527 169/2/527 17/2/527
f 149/1/528 29/1/528 317/1/528
f 185/2/529 250/2/529 292/2/529
f 211/2/530 210/2/530 24/2/530
f 211/2/531 290/2/531 210/2/531
f 213/2/532 247/2/532 207/2/532
f 302/2/533 63/2/533 141/2/533
f 42/2/534 327/2/534 105/2/534
f 197/1/535 80/1/535 9/1/535
f 36/1/536 7/1/536 298/1/536
f 298/1/537 189/1/537 36/1/537
f 43/1/538 136/1/538 289/1/538
f 85/1/539 52/1/539 31/1/539
f 85/1/540 289/1/540 52/1/540
f 260/1/541 288/1/541 7/1/541
f 218/2/542 38/2/542 258/2/542
f 286/1/543 112/1/543 12/1/543
f 12/1/544 33/1/544 286/1/544
f 286/1/545 30/1/545 237/1/545
f 30/1/546 286/1/546 33/1/546
f 103/1/547 1/1/547 285/1/547
f 103/1/548 285/1/548 121/1/548
f 186/2/549 100/2/549 152/2/549
f 186/2/550 152/2/550 38/2/550
f 283/2/551 107/2/551 252/2/551
f 252/2/552 284/2/552 34/2/552
f 47/1/553 238/1/553 259/1/553
f 281/2/554 82/2/554 170/2/554
f 280/1/555 221/1/555 124/1/555
f 280/1/556 325/1/556 221/1/556
f 221/1/557 140/1/557 124/1/557
f 341/1/558 96/1/558 166/1/558
f 291/1/559 101/1/559 10/1/559
f 319/1/560 267/1/560 98/1/560
f 46/2/561 172/2/561 32/2/561
f 62/1/562 24/1/562 130/1/562
f 130/1/563 24/1/563 199/1/563
f 139/1/564 15/1/564 199/1/564
f 174/1/565 71/1/565 199/1/565
f 108/2/566 117/2/566 175/2/566
f 117/1/567 159/1/567 145/1/567
f 69/1/568 20/1/568 129/1/568
f 299/1/569 176/1/569 248/1/569
f 2/1/570 178/1/570 274/1/570
f 20/1/571 274/1/571 176/1/571
f 274/1/572 178/1/572 275/1/572
f 195/1/573 270/1/573 220/1/573
f 270/1/574 303/1/574 220/1/574
f 217/1/575 271/1/575 39/1/575
f 188/1/576 86/1/576 271/1/576
f 188/1/577 271/1/577 5/1/577
f 86/1/578 179/1/578 271/1/578
f 271/1/579 179/1/579 39/1/579
f 131/1/580 249/1/580 110/1/580
f 131/1/581 110/1/581 18/1/581
f 226/1/582 161/1/582 79/1/582
f 137/1/583 233/1/583 40/1/583
f 50/1/584 205/1/584 40/1/584
f 48/2/585 106/2/585 110/2/585
f 214/2/586 54/2/586 251/2/586
f 176/1/587 299/1/587 111/1/587
f 328/1/588 34/1/588 194/1/588
f 53/1/589 270/1/589 195/1/589
f 132/1/590 274/1/590 209/1/590
f 243/2/591 251/2/591 154/2/591
f 316/2/592 268/2/592 191/2/592
f 346/2/593 175/2/593 268/2/593
f 108/2/594 175/2/594 346/2/594
f 219/1/595 71/1/595 174/1/595
f 341/1/596 264/1/596 96/1/596
f 322/1/597 259/1/597 157/1/597
f 28/2/598 107/2/598 283/2/598
f 230/2/599 313/2/599 282/2/599
f 100/2/600 47/2/600 152/2/600
f 258/1/601 285/1/601 218/1/601
f 202/1/602 286/1/602 237/1/602
f 77/1/603 289/1/603 85/1/603
f 134/2/604 210/2/604 64/2/604
f 29/1/605 324/1/605 317/1/605
f 273/1/606 217/1/606 39/1/606
f 4/1/607 295/1/607 44/1/607
f 116/1/608 295/1/608 228/1/608
f 27/1/609 335/1/609 223/1/609
f 233/1/610 262/1/610 253/1/610
f 233/1/611 253/1/611 50/1/611
f 40/1/612 233/1/612 50/1/612
f 29/1/613 1/1/613 324/1/613
f 137/1/614 215/1/614 233/1/614
f 215/1/615 167/1/615 233/1/615
f 80/1/616 197/1/616 7/1/616
f 329/1/617 81/1/617 51/1/617
f 4/1/618 81/1/618 329/1/618
f 258/1/619 322/1/619 285/1/619
f 216/2/620 326/2/620 168/2/620
f 278/2/621 343/2/621 190/2/621
f 180/1/622 34/1/622 328/1/622
f 127/1/623 301/1/623 150/1/623
f 219/2/624 144/2/624 71/2/624
f 235/2/625 342/2/625 210/2/625
f 75/2/626 255/2/626 85/2/626
f 158/2/627 343/2/627 241/2/627
f 270/1/628 136/1/628 87/1/628
f 84/2/629 252/2/629 180/2/629
f 164/1/630 195/1/630 334/1/630
f 134/1/631 64/1/631 62/1/631
f 291/1/632 127/1/632 150/1/632
f 142/1/633 76/1/633 57/1/633
f 142/1/634 233/1/634 76/1/634
f 58/1/635 316/1/635 191/1/635
f 247/1/636 160/1/636 8/1/636
f 299/1/637 309/1/637 111/1/637
f 245/1/638 320/1/638 73/1/638
f 330/2/639 323/2/639 327/2/639
f 55/2/640 326/2/640 216/2/640
f 148/1/641 44/1/641 116/1/641
f 136/1/642 310/1/642 87/1/642
f 77/1/643 88/1/643 43/1/643
f 9/1/644 215/1/644 197/1/644
f 128/1/645 182/1/645 33/1/645
f 143/1/646 338/1/646 131/1/646
f 282/1/647 313/1/647 234/1/647
f 93/1/648 92/1/648 325/1/648
f 313/1/649 314/1/649 337/1/649
f 340/1/650 237/1/650 102/1/650
f 291/1/651 150/1/651 239/1/651
f 13/1/652 280/1/652 118/1/652
f 158/1/653 241/1/653 225/1/653
f 276/1/654 162/1/654 318/1/654
f 204/1/655 62/1/655 210/1/655
f 222/1/656 320/1/656 319/1/656
f 275/1/657 226/1/657 57/1/657
f 18/2/658 321/2/658 306/2/658
f 139/1/659 71/1/659 62/1/659
f 184/1/660 304/1/660 56/1/660
f 211/2/661 342/2/661 64/2/661
f 139/2/662 210/2/662 71/2/662
f 139/2/663 204/2/663 210/2/663
f 93/1/664 325/1/664 240/1/664
f 211/1/665 64/1/665 199/1/665
f 66/2/666 55/2/666 147/2/666
f 63/1/667 293/1/667 310/1/667
f 43/1/668 88/1/668 310/1/668
f 45/1/669 44/1/669 148/1/669
f 255/2/670 300/2/670 77/2/670
f 311/1/671 327/1/671 42/1/671
f 115/2/672 74/2/672 186/2/672
f 215/1/673 329/1/673 51/1/673
f 41/1/674 215/1/674 330/1/674
f 215/1/675 137/1/675 329/1/675
f 224/2/676 185/2/676 292/2/676
f 284/2/677 107/2/677 37/2/677
f 228/1/678 254/1/678 50/1/678
f 48/2/679 232/2/679 106/2/679
f 232/2/680 256/2/680 156/2/680
f 113/2/681 169/2/681 78/2/681
f 281/2/682 224/2/682 230/2/682
f 184/1/683 253/1/683 90/1/683
f 112/1/684 286/1/684 333/1/684
f 75/1/685 85/1/685 31/1/685
f 232/2/686 48/2/686 133/2/686
f 169/1/687 35/1/687 17/1/687
f 61/1/688 236/1/688 331/1/688
f 236/1/689 336/1/689 86/1/689
f 12/1/690 128/1/690 33/1/690
f 94/1/691 59/1/691 340/1/691
f 94/1/692 181/1/692 59/1/692
f 337/1/693 110/1/693 249/1/693
f 337/1/694 163/1/694 133/1/694
f 229/1/695 338/1/695 143/1/695
f 214/2/696 342/2/696 235/2/696
f 264/1/697 11/1/697 155/1/697
f 264/1/698 202/1/698 11/1/698
f 202/1/699 238/1/699 47/1/699
f 277/1/700 296/1/700 166/1/700
f 243/2/701 214/2/701 251/2/701
f 214/2/702 144/2/702 342/2/702
f 301/1/703 239/1/703 150/1/703
f 26/1/704 225/1/704 240/1/704
f 32/2/705 190/2/705 46/2/705
f 272/1/706 344/1/706 96/1/706
f 89/1/707 345/1/707 344/1/707
f 162/1/708 242/1/708 318/1/708
f 244/1/709 348/1/709 199/1/709
f 222/1/710 98/1/710 308/1/710
